<svg width="41" height="25" viewBox="0 0 41 25" fill="none" xmlns="http://www.w3.org/2000/svg">
          <path fill-rule="evenodd" clip-rule="evenodd" d="M14.893 9.81887C14.893 11.928 13.4168 13.6374 11.5952 13.6374C9.77391 13.6374 8.29736 11.928 8.29736 9.81887C8.29736 7.70976 9.77391 6 11.5952 6C13.4168 6 14.893 7.70976 14.893 9.81887Z" stroke="black" stroke-width="1.2" stroke-linecap="round" stroke-linejoin="round"/>
          <path d="M9.2536 12.5361C6.76481 13.0621 5 14.383 5 15.9287V18.7831H18.3087V15.9287C18.3087 14.3617 16.4951 13.0265 13.9527 12.5151" stroke="black" stroke-width="1.2" stroke-linecap="round" stroke-linejoin="round"/>
          <rect x="1.4" y="1.4" width="38.1231" height="22.0652" stroke="black" stroke-width="1.2" stroke-linejoin="round"/>
          <path d="M23.8975 7.78027H33.7641" stroke="black" stroke-width="1.2" stroke-linecap="round"/>
          <path d="M23.8975 12.4326H33.7641" stroke="black" stroke-width="1.2" stroke-linecap="round"/>
          <path d="M23.8975 17.085H33.7641" stroke="black" stroke-width="1.2" stroke-linecap="round"/>
        </svg>