<svg width="41" height="25" viewBox="0 0 41 25" fill="none" xmlns="http://www.w3.org/2000/svg">
            <rect x="1.4" y="1.4" width="38.622" height="22.0652" stroke="black" stroke-width="1.2" stroke-linejoin="round"/>
            <path d="M24.1934 7.78125H34.1934" stroke="black" stroke-width="1.2" stroke-linecap="round"/>
            <path d="M24.1934 12.4336H34.1934" stroke="black" stroke-width="1.2" stroke-linecap="round"/>
            <path d="M24.1934 17.084H34.1934" stroke="black" stroke-width="1.2" stroke-linecap="round"/>
            <path fill-rule="evenodd" clip-rule="evenodd" d="M12.5399 18.6662C16.0798 18.6662 18.9494 15.704 18.9494 12.0499C18.9494 8.39581 16.0798 5.43359 12.5399 5.43359C9.00002 5.43359 6.13037 8.39581 6.13037 12.0499C6.13037 15.704 9.00002 18.6662 12.5399 18.6662Z" stroke="black" stroke-width="1.2"/>
            <path d="M12.5398 14.0503V18.4552" stroke="black" stroke-width="1.2" stroke-linecap="square"/>
            <path fill-rule="evenodd" clip-rule="evenodd" d="M12.5401 13.7032C13.3394 13.7032 13.9874 13.0552 13.9874 12.2559C13.9874 11.4566 13.3394 10.8086 12.5401 10.8086C11.7408 10.8086 11.0928 11.4566 11.0928 12.2559C11.0928 13.0552 11.7408 13.7032 12.5401 13.7032Z" stroke="black" stroke-width="1.2"/>
            <rect x="6" y="12" width="5" height="1" fill="black"/>
            <rect x="14" y="12" width="5" height="1" fill="black"/>
            </svg>