<?xml version="1.0" encoding="utf-8"?>
<!-- Generator: Adobe Illustrator 26.5.0, SVG Export Plug-In . SVG Version: 6.00 Build 0)  -->
<svg version="1.1" id="Ebene_1" xmlns="http://www.w3.org/2000/svg" xmlns:xlink="http://www.w3.org/1999/xlink" x="0px" y="0px"
	 width="1080px" height="1080px" viewBox="0 0 1080 1080" style="enable-background:new 0 0 1080 1080;" xml:space="preserve">
<style type="text/css">
	.st0{display:none;fill:#FFFFFF;}
	.st1{clip-path:url(#SVGID_00000172426730872540500220000014034938590568993185_);}
	.st2{fill:#3587C6;}
	.st3{fill:#FFFFFF;}
	.st4{fill:#067000;}
	.st5{fill:#A1C2F7;}
	.st6{clip-path:url(#SVGID_00000096758097436428288910000012732524565380389270_);}
	.st7{fill:#0F2244;}
	.st8{clip-path:url(#SVGID_00000070093023532339686950000014133904182559335082_);}
	.st9{filter:url(#Adobe_OpacityMaskFilter);}
	.st10{mask:url(#a27c1c3058_00000168824234325473515780000007395432106377394816_);}
</style>
<rect x="-108" y="-108" class="st0" width="1296" height="1296"/>
<rect x="-108" y="-108" class="st0" width="1296" height="1296"/>
<g transform="matrix(0.772917, 0, 0, 0.773047, -24.947409, -337.175459)">
	
		<image style="overflow:visible;enable-background:new    ;" width="1047" height="1061" xlink:href="E3F1C1033B7CE3A1.jpg"  transform="matrix(1.3333 0 0 1.3331 32.277 434.8018)">
	</image>
</g>
<g>
	<defs>
		<rect id="SVGID_1_" x="678.9" y="0" width="401.1" height="600.7"/>
	</defs>
	<clipPath id="SVGID_00000090988135765091992850000004278732826068969360_">
		<use xlink:href="#SVGID_1_"  style="overflow:visible;"/>
	</clipPath>
	<g style="clip-path:url(#SVGID_00000090988135765091992850000004278732826068969360_);">
		<path class="st2" d="M1172.2,341.6c0.9-3.4,1.4-7.3,1.4-11.7c0-2.3-0.2-4.5-0.4-6.8C1174.8,329.6,1174.4,335.7,1172.2,341.6z
			 M849.1,338.6c-2,0.2-4,0.4-6.1,0.5c2.7,4.2,5.5,8.6,8.3,13.1c10.2-0.3,21.8,1.3,31.1,8c21.3,15.4,9.5,56.4,21.5,61
			c7.5,2.8,10.4-8.7,11.6-17.7c-5-7.9-15.5-9.1-18.1-11.7c-1.8,0.3-0.9-4.5,0.8-7.4c1.9-3.3,6.3-1.3,13.9-3c7.7-1.6,16.1,0,21,0
			c4.6,0,1.1-4.5,11.7-4.9c-0.9-1-1.8-2-2.8-3c0,0-34.7-25.2-52.8-29.8C871.2,339.1,849.4,338.6,849.1,338.6z M1245.1,274.2
			L1245.1,274.2c1.1,0.8,2.1,1.5,3.1,2.3c3,2.2,6.2,4.1,8.9,5.4c9.9,4.9,15.6,23.5,20.9,23.8c5.3,0.3-0.8-18.9-8.1-30
			c-7.3-11-29.7-17.6-29.7-17.6C1233.4,261.8,1238.2,268.5,1245.1,274.2z M1207.9,312.2c-1.8,26,1.8,43.6-16.6,69.7
			c4.8-1.8,9.4-3.6,12.9-5.7c13.9-8.1,14.1-0.3,27.6-1c2.6-9.3,4.7-19.1,5.8-29.2C1243.6,292.3,1210,281.4,1207.9,312.2z
			 M683.7,315.4c0-2.4,0-4.8,0.1-7.1c-0.3,0.7-0.5,1.5-0.6,2.3C682.8,313.1,683.1,314.3,683.7,315.4z M1036.9,326.1
			c-35.7,10-71.9,3.3-73.1-25.2c-1.2-28.5,7.5-40.9,1.3-68.1c-6.2-27.2,3.7-36.3,3.7-36.3c0.2-0.7,0.4-1.4,0.6-2
			c-0.1-0.2-0.2-0.3-0.3-0.5c-1-2.2-0.1-4.3,2.3-6c2.2-7.2,2.8-13.7-6.4-20.8c-4.2-3.3-10.1-7.1-16.7-11.4c2.1,2.5,5.4,3.8,7.1,6.7
			c1.4,2.4,1.9,5,3.7,7.4c2.2,3,4.6,5.9,2.7,9.9c-1.4,2.8-4,2.4-6,4.2c-2.5,2.2-3.7,5.3-6.1,7.8c0.5,2.6,0.2,7.1-3.7,15.1
			c-7.2,14.8-40.8,28.6-39.4,51.3c1.3,22.7,18.4,19.7,30.9,33.2c11.8,12.6,10.7,47.2,34.7,48.6c1.6-0.1,3.3-0.1,4.8-0.1
			c29.1-3.2,42.2,10.1,42.2,10.1s-0.1,0-0.2-0.1c30.5,17.5,36.8,54.5,24.3,81.2c-17.6,37.4,9.3,62.1,29.3,87.7
			c11.8,15.1,5.9,27.2-1.3,34.6c1,0.5,2,1,2.9,1.7c0,0,10.2,13.9,17.8,6.3c2.2-2.2,3.4-4.4,4.3-6.4c-2.5,0.3-5.2,0.4-8.1,0.5
			c-7,0.2,21.1-35-3.6-66.1c-7.9-10-11.5-22-11.4-34.3c0,0.2,0,0.5,0,0.7c0,0-17.1-40.8-7.7-62.4
			C1074.9,371.6,1072.6,316.1,1036.9,326.1z M684.4,331.2c-0.1-1.1-0.2-2.2-0.2-3.3C683.9,329.2,683.9,330.3,684.4,331.2z
			 M1211.9,145.7l0-0.3c0,0.2,0,0.4,0,0.6C1211.9,146,1211.9,145.9,1211.9,145.7z M1202.5,109c5.4,11,8.8,23.2,9.4,36.5
			c-0.2-7-1-14.2-2.9-21.4C1207.6,118.6,1205.4,113.6,1202.5,109z M1107.4,456.7c1.5,4.1,3.2,7.9,5.2,11.5
			c11-9.8,31.7-19.2,39.2-26.6c7.6-7.5,6.8-16.1,5.9-27.7C1128.6,431,1098.5,431.5,1107.4,456.7z M1160.3,358.5l0.1-0.1l0.2-0.2
			c0.7-0.6,1.3-1.3,2-1.9c1.1-1.2,2.1-2.6,2.9-4.2c-3.9-7.2-22.9-28.4-39.6-24.1c-16.7,4.4-31.5,9.7-42.5,35.4
			c-6,13.9,1.2,28.1,10.9,29.9c5.7,1.1,12.5-3.5,16.1-6.4c2.5-2.2,5.2-4.4,7.9-6.4C1135.8,367.6,1151.2,366,1160.3,358.5z
			 M899.4,259.2c5.9,2.3,3.6-18.4,19.7-34c16.1-15.6,18.3-27.2,18.3-27.2c-4.8,3.2-11.1,6.6-18.9,8.9c-9.9,2.9-20.4,3.7-29,4.1
			c0.1,1.5,0.2,3.1,0.1,4.6c-0.1,3.2-0.2,6.6-0.2,10.2c6.3,1.3,11.6,3.5,9.5,7.2c-2.8,4.8-5.5,3.8-9.5,3.8
			c0.3,13.9,1.5,29.6,4.6,44.5c-0.3-2.9-0.4-5.6-0.5-7.6c-0.2-2.9-0.4-5.9-1-8.8c-2.2-11.1-2.3-22.7-2.3-22.7
			S893.5,256.9,899.4,259.2z M944.2,329.6c3.9,5.7,6.1,10.9,8.8,7.5c2.7-3.4-14.9-37.5-22.4-44.4c-7.5-6.8-29.4-17.1-29.9-1.4
			c0,0,3.3,24.8,15.9,34.7C929,335.9,940.3,323.8,944.2,329.6z M899.8,277.6c-0.3-0.1-0.5-0.1-0.5-0.1L899.8,277.6z M1058,313.4
			c1.6-10.5-7.6-28.1-23.7-28.5c-22.5-0.6-58.6,19.2-53.6,32c2.5,6.3,25.3,13.9,44.7,9.4c11.3-2.7,18.1-9.5,21.6-7.7
			C1051.7,320.8,1057.3,318.4,1058,313.4z M967.7,226.5c-1.7,7.4,6.5,11.6,9.4,33c2.9,21.4-18,52.1-3.4,52.1
			c5,0,13.4-23.4,22.2-26.8c8.8-3.4,10.8-18.2,0.6-28.8C986.2,245.5,969.4,219.1,967.7,226.5z M834.8,307.6c1.2,0.9,2.4,1.8,3.6,2.6
			C836.4,308.8,835.2,307.9,834.8,307.6z M861.5,264.6c0,0-8.7,1.2-9.7,9c-1,7.8,16.7,24.8,21.9,24
			C878.9,296.9,872.9,267.4,861.5,264.6z M1056.6,274.9c12,16.2-4.3,50.5,16.1,65.5c20.3,15,21.4-9.1,46.1-18.9
			c24.7-9.8,49,16.4,49,16.4c-0.7-22.6-14.1-56.8-14.1-56.9c-7.9-10.3-22.8-16.7-65.4-20.6c-36.9-3.4-61-5.6-78.1-10.1
			C1028.7,258.5,1048.1,263.4,1056.6,274.9z M792,329.6c0.6-1,1.1-2.7,1.6-4.8c-31.2-20.5-53.9-55.2-68.2-83.5
			c-1.3,2.6-2.2,4.2-2.2,4.2c-3.2,5.6-7,9.1-11.1,8.2c-8.3-1.9-6.4,0.7-5.5,5.6c0.2-0.1,0.4-0.2,0.6-0.2c13.5-4.7,31.4-4.3,30.1,8
			c-3.1,29.1,28.3,42,39.9,48.1c0,0-24.8,1-40.1-17.2c-15.3-18.1-25.7-38.8-29.8-31c-4.2,7.8,7.9,14.8,15.4,22.7
			c4.9,5.2,3.7,11.4,2.3,15c5.5,4.2,2.7,1.1,8,7.7c5.4,6.8,14,13.6,14,13.6s16.2,9.9,25.5,11.8C781.6,339.6,788.8,334.6,792,329.6z
			 M813.6,201.3c0.2,4.6,2.6,9.1,6.2,11.4c3.2,2.1,6.8,2.1,10.6,2.6c1.9,0.2,3.2,0.1,5,0c0.7,0,3.6-0.4,3.1,0.2c0.1,0,0.3,0,0.4-0.1
			c-3.7-4.4-7.5-8.4-11.5-11.7c-3.5-3-7.6-5.5-12.1-7.6C814.5,198,813.9,199.7,813.6,201.3z M1147.1,206.9
			c-4.5,10.9,3.8,21.7-3.8,26c-2.1,1.2-4.1,1.9-5.9,2.5c14.5,8.9,29,14.3,38.6,9.2c25.9-13.8,23.7-119.2-13.4-121.1
			c-10.8-0.6-23.6,3.1-35.6,9.2c6.5,16.9,14,32,17,49.3C1147.4,189.9,1150.1,199.5,1147.1,206.9z M912,279
			c0-2.2-14.8-17.3-15.7-15.8c-0.9,1.6-1.1,10.2,3.5,14.4c0.2,0,0.5,0,0.8,0.2C903.7,279.5,912,282.6,912,279z M834.7,307.5
			c1.5,1,24.9,16.2,35.7,11.6c11.2-4.7-20.6-32.6-22.8-45.1c-2.2-12.6,8-13.8,7.6-24.6c-0.4-10.9-9.1-24.2-9.1-24.2s0.6,0.7,1.5,1.9
			c-0.5-0.7-0.9-1.3-1.4-2c-8.2,4.4-20.3,7.2-28.6,7.8c-12.9,0.9-27.9-7.1-25.9-26c0.5-4.3,0.7-8.8,0.6-13.1c-1.3-1-2.3-3.2-2.9-5.8
			c-11.2-2.2-22.9-3.2-33.6-3.6c-1.2,1.5-2.3,3.2-3.6,4.9c21.4,5.5,26.3,26,31.5,57.2C786.7,264.2,811,289.8,834.7,307.5z
			 M720.8,426.4c-4.5-15.2-4.4-26.1,1.1-31.9c-0.4-0.1-0.8-0.3-1.1-0.4c-3.3-1.1-6.9-4.5-10.7-9.3c-18.9-2.3-22.8-34.6-28.5-51.5
			c13.2,97.7,72,180.9,154.2,227.5c-5.8-6.8-10.9-14-15.3-21.1C757.9,508.5,730.3,458.8,720.8,426.4z M687.6,284
			c0.5-0.9,1.1-1.6,1.7-1.9c5.1-2.6,12.1,2.9,15.2,5.8c0.7,0.5,1.4,1.1,2.1,1.7c4.4,1.4,9.6,3.9,11.6,8.1c3.3,6.9,0.2,2.5,4.5,5.6
			c-0.7-3.2-2.1-7.4-5.5-10.3c-3.6-3.1-11.4-13-14.2-21.4c-6.8,2.6-18.9-27.2-11.4-30.8c-4.4-3.6-7.4-7.9-7.4-7.9
			c-3.6,18.9-5.5,38.5-5.5,58.5c0,8.4,0.3,16.8,1,25c0.2-2.6,0.5-5.3,0.8-8.3C681.2,301.1,680.8,288.2,687.6,284z M900.1-5.4
			c-0.3,0.4-0.4,1-0.6,1.5c0.2,1.4,0.2,3.7,0.1,6.6c0,0.2,0.1,0.4,0.1,0.6c1.7,6.3,2.9,13.9,1.4,20.3c-0.2,0.7-0.3,1.5-0.4,2.2
			c5.9-19.1,14-34.9,25.2-37.7l0-0.1C917.3-10.1,908.7-7.9,900.1-5.4z M814.5,35.2c-1,0.7-1.9,1.3-2.9,2c1-0.7,2-1.3,3-2L814.5,35.2
			z M1221.8,156.5c0.7,8-8.7,49.2-4,49.9c4.7,0.8,23.4-27.8,22.2-46.2c-1.2-18.3-22.2-27.8-22.2-27.8
			C1210,134.2,1221.1,148.4,1221.8,156.5z M1094.2,3.8l0.3,0.2c7.2,3,13.7,5.2,18.4,5.7c3,0.3,6.7,1.9,10.8,4.3
			c3.6,1.2,7.1,2.7,10.3,4.9c6.1,4.3,12.2,9.7,17.5,15c3,3,5.4,6.3,8.2,9.4c3.5,4,7.8,7.5,10.9,11.8c2.6,3.5,6.4,7.3,7.6,11.6
			c0.5,1.8,0.7,3.7,1,5.6c9.4,3.5,19.2,9,28.8,17.6c12.6,11.2,24.2,25.1,34.2,39.1c-0.7-2.9-1.1-5.4-0.9-7.1
			c0.6-7-19.8-28.9-18.9-33l-0.3-0.3l0,0c-38.9-44.9-90.5-78.4-149.1-95.1c7.2,3.8,14.6,7.4,21.2,10.3L1094.2,3.8z M1221.7,118.5
			c-12,4.3,17.6,18.5,22.5,38c4.9,19.5-23.5,58.3-22.5,76.3c1,17.9,35.4,18.5,50.9,43.9c14.3,23.6,8.2,74.5,7.2,81.8
			c6.1-5.3,10.5-8.2,12-6.4c3.9-19.6,6-39.9,6-60.7c0-2.6,0-5.2-0.1-7.8c-0.4,0-0.8-0.1-1.3-0.2c-1.1,0.7-2.4,0.4-4.2-1.3
			c-0.6-0.6-9.1-6.4-5.3-17.5c1.6-4.8,2.9-6.4,3-7.1c-1.8,0.2-2.9,0.2-2.3-1.5c-1.1-0.5-2.6-1.3-4.8-2.7c-9.5-6.3-21.3-8-19.5-17.9
			c1.8-9.9,8.4-12.4,3.4-22.7c-4.9-10.3-21.4-3.8-9.9-19.4c5.3-7.1,10-9.9,12.2-12.3c-7.8-9.4-17.8-22.4-23-33.4
			C1236.8,128.2,1233.7,114.2,1221.7,118.5z M1272,412.2c-0.7,0.8-1,2.9-1.2,5.6c1.2-2.6,2.3-5.2,3.4-7.8
			C1273.3,410.8,1272.5,411.5,1272,412.2z M1102.9,563.6c-7.4-1.6-15.2,2.2-21.5,7.7c-5.4,5.7-7.8,14.8-14.3,19.4
			c23.1-6.1,45.1-14.7,65.8-25.7c-4.2-1.1-7.8-2.6-10.9-3.9c-1.9-0.3-3.6-0.9-5.1-1.9c-1.9-0.5-3.4-0.5-4.5,0.4
			C1108.2,563,1113.7,565.9,1102.9,563.6z M988.3,600.8c15.9,0,31.5-1.2,46.8-3.5c-4.9,0-9.7,0-14.1,0.2c-15.5,0.8-30.6-3-46.1-4.5
			c-18-1.8-36.2-0.4-54.4,0.3C942.3,598.2,965,600.8,988.3,600.8"/>
	</g>
</g>
<path class="st3" d="M1054.3,239.9c0.5,0.6,1.2,1.1,2.1,1.4C1056,240.9,1055.3,240.4,1054.3,239.9"/>
<path class="st3" d="M893.2,109c0.2,0.1,0.4,0.2,0.6,0.3c0.7,0.3,1.5,0.7,2.2,0.9c9.9,3.6,16.8,6.2,21.1,16.5
	c2.1,5.1,2,9.6,6.5,13.4c1.8,1.5,3.9,2.6,6,3.5c2.4,0.8,4.6,1.7,6.6,2.7c0.2,0.1,0.3,0.1,0.5,0.2c2.1,1,4.4,1.9,6.4,3.1
	c-3.3-4.1-14.7-18.4-19.1-22.1c-5.2-4.3-25.7-25.5-21.1-28.1c3.1-1.7,6-4.9,7.1-8.8c0.6-1.9,0.8-3.9,0.3-6.1
	c-1.3-6.7,0.3-7.8,0.3-7.8s10.1,7.7,4.8,14c-5.3,6.3-11.8,13-2.6,14.6c0,0,14-3.2,22-2.8c8,0.4,2.5,11.8,9.2,11.3
	c6.7-0.4,9.2,2.1,10.3,9.5c1.1,7.4,6.1,14.1,20.5,14.5c14.4,0.4,4.5,10.1,2.9,18.9s14.3,5.1,18.9,13.5c1.6,3,1.1,5.4-0.1,7.4l0,0
	c0,0,4,4.2-4.3,7.3c-8.3,3.2-11.3,2.3-14.7,4c-3.5,1.7,3.8,3.4,5.5,9.8c1.7,6.4,1.7,3.7,7.1,2.9s5.4,0.5,2.7,3.9
	c-2.7,3.4-0.7,3.4,10.7,9.5c11.4,6.1-1.9,3.7,2.1,5.7c4.1,2,2.4-0.3,7.1,2.6c4.7,2.9-2.3,2.2,1.4,5.5c3.7,3.4,41.9-21.3,56.1-15.8
	c14.2,5.5-1.7,16.8,7.4,19.9c9,3.1,19.3-4.4,25.4-11.5c4.7-5.5,11.8-0.2,14.8,2.4c5.1-0.2,6.7,0.4,8-1c1.9-7.2,2.9-15.6,1-23.3l0,0
	c0.8,10.5-6.8,12.1-9.8,13.4c-3,1.4-2.7-5.4-6.6-5.3c-3.9,0.1-6.6,0-7.9-4.1c-1-3.1-3.6-5.7-4.8-6.7c-1.8,1-3.2,4.5-6.4,6.8
	c-6,4.2-11.9-0.1-21.1-7.3c-7.2-5.7-3.9-7.1-5.6-9c-0.5-0.2-1-0.6-1.4-1.1c-0.4-0.2-0.8-0.4-1.3-0.7c-6.9-3.3-6.4,6.1-13.3,4.7
	c-6.9-1.4-3.6-5.4,0-15.1c3.6-9.6-10-1.4-17.8-5.5c-7.2-3.8,8.3-20.6,20.1-25.8c0,0,2.2-5,9.2-1.4c2.9,1.5,4.5,4.2,5.5,7.4
	c2.4,5,3.5,11.8,3.7,17.6c2.3,8.3,5.7,14.9,9.2,13.3c3.8-1.7-1.9-6.8,3.4-5.7c5.3,1.1,3.3,8.5,7.9,8.1c4.4-0.4,11.4,4.1,15.9-6.4
	c-0.2-2.8-1.5-5.5-3.3-7.8c-13.6-12.4-27.2-23.8-23.1-28c6.7-7,9.1-9.8,9.1-9.8s-20.4-2.1-15.6-15.4c4.8-13.3,9.1-42-0.7-49
	s-17.7-7.7-27.1,4.2c-9.4,11.9-33,13.3-41.1,16.8c-3.9,1.7-4.2,6.1-5,9.5c3.7,0.6,7.7,2.2,12,5.2c7.8,5.3-1.8,10.3-3.9,19.5
	c-2,9.2,6.6,2.3,12.4,11.5c1.6,2.6,1.6,4.4,0.8,5.7c-0.3,0.4-0.6,0.8-1,1.2c-2.8,2.5-8.6,4.3-13.8,3.2c-6-1.2-6.1-8.6-5.7-11.5
	c0.5-2.9-2.3-1.7-7.5-4.5c-5.2-2.9-7.2-9.8-7.9-12.7c-0.8-2.9-2.8-0.3-6-2.9c-3.2-2.6,2.2-6,3.5-7.9c1.2-1.9,0-3.2,0-3.2
	c-0.7-0.5-1.7-1.1-3.2-1.6c-8.5,2.2-13.5,10.6-19.3-3.1c-7.7-18.2,0-37.4-19.5-34.4c-19.6,2.9-45.7,8.1-50.5,12.5
	c-4.8,4.4,5.7,9.9,0.4,13.5c-5.1,3.4-4.5,16.9,2.7,20.7C892.6,108.7,892.9,108.9,893.2,109"/>
<path class="st4" d="M1119.7,507.1c0-2.2,0-4.4-0.2-6.4C1120.6,503.1,1120.9,505.3,1119.7,507.1z M840.7,335.4
	c-2.5-4.1-5-8.2-7.5-12c0.1,0.2,0.2,0.3,0.3,0.4C835.6,327.2,838.1,331.2,840.7,335.4z M727.5,197.6l0.1,0.2
	c0.3,0.7,0.9,1.5,1.6,2.5c0.4-1.3,1.2-3.8,1.2-3.8C727.8,196,727.1,196.5,727.5,197.6z M899.7,2.7c0.1-2.8,0-5.1-0.1-6.6
	C899.1-1.7,899.4,1.1,899.7,2.7z M929.6,143.7c2.2,0.9,4.5,1.7,6.6,2.7C934.2,145.4,932,144.5,929.6,143.7z M814.1,196.8
	c-0.5,1.5-0.6,3-0.5,4.5c0.4-1.6,1-3.3,1.7-5.2c0.5-1.3,1.1-2.6,1.8-4.1C815.9,193.5,814.7,194.9,814.1,196.8z M880.1,239.8
	c3.8-2.7,6.8-3.2,9.3-3.2c3.9,0,6.7,1.1,9.5-3.8c2.1-3.7-3.2-5.9-9.5-7.2c-7.3-1.5-16-1.8-16-1.8
	C847.5,233.8,870.4,246.8,880.1,239.8z M1033.5-29.5c6,3.9,22.5,14.1,39.6,23.1c7.2,3.8,14.6,7.4,21.2,10.3c1,0.7,2,1.3,3.1,1.8
	c2.9,2.4,1,4.9,3.3,7.4c2.7,3,6.2-0.7,9,0.3c1.6,0.6,2.1,2.8,3,4.2c1.4,2.1,3.4,9.1,5.6,9.8c1.8,0.6,5.7-1.4,7.4-1.9
	c8.3-2.4,3.5,5.8,6.5,10.6c1.2,1.9,2.4,4.2,4.7,5.1c2.2,0.8,4.2-0.6,6.3,0.3c8,3.4-2.1,6.6-3.2,9.1c-1.2,2.7,2.3,6.3,4.7,5.9
	c2.5-0.4,3.6-5.1,5.9-5.2c3.1-0.1,4.8,7,9.4,7.7c3.3,0.5,5.2-0.5,7.5,2.4c1.2,1.5,1.1,2.7,3.2,4.2c3.2,2.3,5.5,5.6,1.4,8.4
	c0.1,0.1,0.2,0.2,0.4,0.3c-3.7-0.6-7.6-4.2-12.3-5.6l-0.3-0.1c-2.5-0.4-5.1-0.7-7.7-1c-3.3-0.1-6.9,0-9.8,0.1
	c-2.3,0.6-5,1.4-7.8,2.6c-2.5,1.1-4.9,2.4-7.1,4.1c-2,1.5-2.8,3.2-3,5c-0.3-2.2,0.2-3.9,2.1-4.7c-1.5-0.1-3.3,0.1-4.7,0.7
	c-3.1,1.5-2.2,3.4-4,5.9c-0.5,0.7-2-0.7-2.4,0.6c-0.5,1.8,1.6,2.9,2.2,4.1c1,1.8,2.1,5,0.1,7c-1.2,1.3-5.5,0.5-4.8,3.7
	c0.6,2.6,5.3,0.8,5.6,4.9c0.2,3.3-4.3,3.8-4.8,7c-0.8,5.5,4.8,3.7,7.6,5.8c-0.5,2.3-0.9,4.8,1,6.5c1.2,1.1,3.5,0.4,4.6,1.6
	c1,1,1.2,4.1,0.7,6.3c-0.2,0.3-0.3,0.6-0.5,0.8c-0.2,0.3-0.4,0.6-0.5,0.9c-0.3,0.5-0.5,0.8-0.5,0.8c0.2,0.5,0.4,1.1,0.6,1.6
	c6.5,16.9,14,32,17,49.3c-1.7-3.8-3.5-7.2-5.1-9.9c-4.8-8.4-2.3-15.4-11.3-24.4c-9-9-20.2-11.6-20.2-11.6
	c-14.4-21.4-24.2-42.4-15.3-54.3c12.2-16.5,18.1-36-3.8-49.6c-4.7-2.9-8.7-5.8-12.2-8.5c1.5-2.2,1.3-5.1,1.3-5.1
	s-21.3-15.3-23.3-8.4c-2,6.8-2.3,14.5-9.2,16.5c-6.9,2-14.1,9.6-10.9,14.5c1.4,2.1-1,7-4.6,11.9c-3.6,3.8-7.4,7.6-11.3,11.3
	c-1.5,1-2.8,1.6-3.8,1.8c-6.4,0.8-8.8-4-12.5,3.2c-3.6,7.2-27.2,13.3-27.1,19.7c-2.5-0.8-4.6-2.3-6.3-4.3c3.2-5.9-7.2-19-6-23.1
	c0,0-0.1-1.4-0.4-3.6c0.2,0,0.5-0.1,0.7-0.3c0.6-4-0.9-8.9-0.6-13.2c0.1-2.4,1.8-5.3-0.5-7.7c-1.9-2-4.6-0.3-5.5-3.4
	c-0.8-2.8,3.2-4.4,0.2-6.9c-2-1.6-4.3-0.5-6,0.5c-1.9,1-6.7,6.5-8.7,5.5c-2.5-1.2,0.2-5.4-2.4-6.7c-4-2.1-5.4,2.4-7,4.5
	c-3.2,4.1-7.5-0.9-9.4,2.2c-1.3,2.1,1.4,3.5,1.1,5.5c-0.3,2.1-2.1,2-3.3,3.2c-2.8,2.5-1.9,5.2-3.1,8.6c-0.8,2.5-2.4,4.6-3.8,6.8
	c-0.7,1.1-2.2,2.4-3.1,3.8c-0.4,0.1-0.8,0.3-1.1,0.4c0,0.2,0.1,0.5,0.1,0.7c-9.4,3.8-24.6-3.4-29.4,8.8c-4.9,12.3,0.4,30.2,9.6,37
	c-5.5-3.6-10.5-9-10.4-15c-1.5,0.2-3,2.7-3.5,4c-1.2,3.4-0.7,8.5,2.2,11.4c3.7,3.7,9.5,0.1,12.8,4.8c2,2.9,0.7,5.1,4.8,6.1
	c2.2,0.6,3.5-0.1,5.6,1.1c1.6,1,4.8,4.4,3.8,6.6c-0.2,0.4-2.8,0.7-3.4,1.4c-1.2,1.2-2.9,5.8-3.5,7.3c-0.9,2.4-1.7,4.5,1.3,5.5
	c2.6,0.9,5.5-1.8,7.8-2.3c2.4-0.5,3.2-0.2,5.5,0.5c3.5,1.2,6.7,2,7,6.2c0.6,0.2,2.6,0.1,3,0.4c1.2,0.9,1.3,2.3,2.4,3.4
	c2.5,2.5,5.7,5.2,8.5,6.7c2.6,1.4,7.2,3.9,8.8,6c2.7,3.5-1.2,7.5,0.2,11.5c-3.3,1.9-8.7,4.7-3.3,7.2c2.3,1.1,3.3-0.2,5,2.2
	c0.7,0.9,1.6,3.4,1,4.3c-0.7,1.2-3.4,1-4.4,2.2c-1.6,2.1-0.7,1.7-0.2,3.7c0.2,0.9,1,1.4,1.3,2.1c-1,0.9-2,1.7-2.6,2.1
	c-0.3,0.2-0.5,0.4-0.8,0.5c-0.9,0.1-1.7,0.2-2.1,0.2c0.6,0,1.2,0,1.7,0c-1,0.7-1,0.7-1,0.7c-4.8,3.2-11.1,6.6-18.9,8.9
	c-9.9,2.9-20.4,3.7-29,4.1c-8.1,0.3-14.7,0.3-17.6,1.2c-6.1,2-8.9-0.4-12.5-3.6c-2.8-2.5-28.7-15.1-39.8-20.5
	c0.1-0.3,0.2-0.6,0.3-0.9c0.4-1.7,1-3.4,1.4-5.1c0.1-0.5,0.2-1,0.3-1.5c0.1-0.8,0.1-1.7,0-2.6c-0.2-1.7-0.5-3.4-0.2-4.8
	c0.2-1,0.8-2,1.4-2.9c0.9-1.3,1.9-2.6,2.5-4.1c1.7-4.1,1.1-6.1,1-10.2c-0.1-5.2,4.2-9.1,3.8-13.7c-0.3-3.3-1.5-4.2,0-7.5
	c1.1-2.3,2.8-3.5,4.4-5.4c1.7-2,2.9-4.7,3.8-7.1c0.3-0.8,0.6-1.5,0.8-2.2c-3.2-0.2-5,0.5-7.7,1.7c-2.7,1.1-4,0.4-7.3,0.4
	c-12.8,0,3.1,18.3-5.6,18.9c-1.7,0.1-3.1-1.7-4.9-1.2c-2.7,0.7-2.7,3.3-3.5,5.8c-0.4,1.1-0.6,2.8-1.5,3.6c-1.5,1.4-2.9,0-4.1,2.9
	c-0.8,2.1-0.5,4.9,0.6,6.9c1.7,2.9,3.1,1.9,5.5,2.8c4.2,1.5,8.7,7.5,5.6,12.1c-2-0.4-5.1-2.5-7.4-1.3c-3.1,1.6-1,4-0.2,6.5
	c-5.9-1.6-4.8,5.8-1.7,8.8c1.9,1.8,4.2,1.2,5.2,3.9c0.6,1.6,0.2,5.7-0.7,7.1c-1.4-0.5-3.1-2.2-4.7-1.8c-1.8,0.4-1.1,1.8-2.3,2.4
	c-1.3,0.7-4.2-0.1-5.4,1.4c-3.1,4.2,2.4,4.3,3.6,5.6c1.1,1.2,0.4,4.7,0.3,6.3c-5-3-4.6,5.6-1.8,6.9c2.4,1.2,7-2.2,9.9-1.7
	c-0.6,2.3-3,2.9-0.3,4.2c2.1,1,6.2-1.4,8.3-1.8c2.2-0.4,9.2-2.7,9.4,0c2.8,0.3,2.9-1.7,4.6-2.7c1.6-1,3.7-1.3,5.4-2.1l0.1-0.1
	c0.1,0,0.3,0,0.4-0.1c11.8-2.2,17.7-6.6,15.9,1c-0.8,3.3-4.1,6.2-8.6,8.6c-8.2,4.4-20.3,7.2-28.6,7.8c-12.9,0.9-27.9-7.1-25.9-26
	c0.5-4.3,0.7-8.8,0.6-13.1c-1.3-1-2.3-3.2-2.9-5.8c-1.1-4.6-1.3-10.4-1.3-13.2c0-0.6,0-1,0.1-1.3c0.1-0.5,0-1.7-0.2-3.3
	c-1.1-3.7-3.4-8.3-8.2-8.3c-6.5,0-23.7,16-34.6,22.9c-2.2,2.3-3.9,3.9-5,4.3c-5.4,2.6-16.3-3.1-16.3-3.1c-1.9,0-3.1,0.7-3.2,3.4
	c-0.1,7.5,10.9,15.6,8.4,24.1c-2.5,8.5-8.1,28.4-6.1,32c-3.2,5.6-7,9.1-11.1,8.2c-8.3-1.9-6.4,0.7-5.5,5.6c0.5,2.8,0.7,6.4-1.5,10.3
	c-0.6,1-1.2,1.6-1.9,1.9c-6.8,2.6-18.9-27.2-11.4-30.8c-4.4-3.6-7.4-7.9-7.4-7.9c3.8-47.4,21.4-86.7,44.6-118.5
	c-0.1-5.5,2.3-6.7,6.1-8.1c5.3-6.8,10.9-13.2,16.6-19.2c0.4-1.2,0.8-2.6,1.2-4c1.8-5.5,7.4-8.7,13.9-10.9
	c14.9-13.8,30.3-25.4,44.8-34.9c1-0.7,2-1.3,3-2c4.3,1.2,6.8-0.2,8.4-2.4c0.7-1,1.2-1.8,1.6-2.6c0.8-1.5,1.5-2.6,3.6-3.6
	c2.3-1.1,4.7-0.8,6.6-2.8c0.8-0.8,1.5-3.7,2.4-4.1c2.6-1.3,6.5,2.5,8.9,0.2c0.8-0.8,0.2-3.8,1.2-5.1c0.6-0.8,2.5-1.2,3.4-2
	c2.4-2.2,3.3-5.8,7.6-4.5c3.7,1.2,4.6,6.2,7.9,8c3.1-3.3,4.3-7.1,6.4-10.9c1.3-2.3,5-7.2,7.8-6.9c2.3,0.3,4.7,4,4.5,6.2
	c2.9-2.9,7.1-0.3,8.3,3c0.8,2.2-0.1,3.1-0.3,5c-0.3,2.5,0.2,3.1,0.6,5.5c-4.7,0.5-3.6,1.7-3.7,5.2c-0.1,2.5-0.9,4.8-0.7,7.3
	c2.5,0.1,6.5-0.9,7.6,1.3c0.5,1-0.2,5.6,0.1,7.1c0.7,4.5,0.7,2.1,3.8,3.6c4,1.9,5.1,5.7,5.9,9.8c0.5-6.1-2.3-11.5-4.1-17.1
	c2.1,4.5,4.7,11.8,6.3,19.8l5.3-4.1c-1.3-15.8-5.3-34.5,4.7-49.3c0.1-0.2,0.3-0.5,0.5-0.7c0.2-0.3,0.4-0.5,0.6-0.8
	c1.7-2.4,3.8-7.2,6.4-12.4l0-0.1c5.2-10.2,12.2-21.5,21.2-16.3c14.1,8.1,13.3,9.3,18.1-0.8c4.9-10.1,23.6-9.8,35-0.5
	C1012-20.2,1022.1-36.8,1033.5-29.5z M1025.3-2.4c-3.6-4.4-8.6-1.4-8.6,3.9c-1.6-1.4-3.4-2.7-5.6-2.5c-3.8,5.8,9.5,10,6,16.3
	c-2.4,4.4-5.1,2-1.5,7.3l-0.5,0.6c-0.5,0.1-3.4-0.8-3.5-0.7c-1.9,1-1.2,3.8-1.3,5.9c-2.9-0.4-1.6,2.6-3.4,3.5
	c-1.9,0.9-5.4-2.6-7.6-0.7c-3.1,2.7,2.5,4.6,3.1,6.7c0.3,1.1-0.9,4-1.7,4.6c-1.7,1.4-0.8,0.4-2.3,0.4c-2.1,0-2.9-2.9-4.9,0.2
	c-0.8,1.3-0.2,2.1-0.2,3.4c0.1,2.2,0.6,1.9,0,3.7c-0.5,1.5-1.5,4.5-2.1,6.1c-1.5,3.7-5,2.2-7.1,5.4c-0.9,1.3,0,3.3-0.8,4.4
	c-0.7,0.9-2.7,1.5-3.5,1.3c0,0-0.1-0.1-0.4-0.2c0.1,0.1,0.2,0.2,0.4,0.2c0.1,0.1-0.1,0.1-0.3,0.2c0.7,0.3,1.5,0.4,2.2,0.3
	c2.6-0.3,5.3-2.5,7.1-3.9c8.1-6.2,19.5-11.4,24.4-20.7c6.1-11.6,13.4-23.4,16.2-36.1c1-4.4,14.3-12.5,21.4-13c0.3,0,0.6,0,0.8,0
	c0.2,0.1,0.5,0.1,0.7,0.2c0.1,0,0.2,0,0.4,0.1c0.2,0,0.5,0.1,0.7,0.1c-0.5-0.2-1.1-0.3-1.8-0.3c-2.4-0.6-5.6-1.9-6.8-2.6
	c-2.7-1.4-2.8,2.5-5.6,2.3c-3.6-0.3-2.6-5.4-5.7-6.6C1026.9-15.2,1027.3-5.4,1025.3-2.4z M1123.7,14c-4.1-2.5-7.8-4-10.8-4.3
	c-4.8-0.5-11.2-2.6-18.4-5.7c0.8,0.4,1.7,0.8,2.5,1.3c0.2,0.1,0.3,0.2,0.4,0.4c5.6,2.6,13,3.8,18.1,5.6
	C1118.3,12.3,1121.1,13.1,1123.7,14z M689.4,282.1c5.1-2.6,12.1,2.9,15.2,5.8c0.7,0.5,1.4,1.1,2.1,1.7c4.4,1.4,9.6,3.9,11.6,8.1
	c3.3,6.9,0.2,2.5,4.5,5.6c0.4,0.3,0.8,0.6,1.3,1c0.2,0.2,0.4,0.3,0.6,0.5c5.5,4.2,2.7,1.1,8,7.7c5.4,6.8,14,13.6,14,13.6
	s16.2,9.9,25.5,11.8c9.3,1.8,16.5-3.2,19.7-8.1c0.6-1,1.1-2.7,1.6-4.8c1.8-8.5,2.9-23.6,9.9-25.2c1.9-4.3,5-4.5,8.9-1.9l-0.1-0.1
	c0,0,29.8,49.3,33.3,70.9c3.5,21.6,22.6,45.2,29.6,51.7c7,6.5,2.5,20.6,3.1,36.4c0.6,15.8,7.4-1.3,14.4,5.2c7,6.5-2.5,11,10.2,19.1
	c12.7,8,19.2-13.2,19.2-13.2c2.5-8.8-5.9-33-4.1-51.8c0.5-5.5-0.6-9.5-2.5-12.6c-5-7.9-15.5-9.1-18.1-11.7c-1.8,0.3-0.9-4.5,0.8-7.4
	c1.9-3.3,6.3-1.3,13.9-3c7.7-1.6,16.1,0,21,0c4.6,0,1.1-4.5,11.7-4.9c0.7,0,1.5,0,2.4,0c13.6,0.3,11.2,4.3,13.4,5.4
	c2.2,1.1,2.2,1.1,9.3,1.6c7.1,0.5,0.8-3,4.9-3.3c4.1-0.3,12-0.8,12-0.8s5.5,1.6,5.5,5.7c0,4.1,4.1-0.3,8.7-0.5
	c4.6-0.3,3.2,4.6,3.2,4.6c1.3-0.9,2.3-1.7,3-2.2c-0.7,0.5-1.8,1.3-3,2.3c-0.1,2.9-3.7,8.4,2.8,8.6c6.6,0.3,5.7-8.5,13.6-6
	c7.9,2.5-0.8,10.4-7.4,13.4c-6.5,3-10.1-6.8-17.7-3c-2.1,1-3.5,1.8-4.6,2.5c-1.5,1.6-3,3.3-4.5,5l0,0.1c-1.3,3.2-1.7,6.4-0.6,9.4
	c5.2,14,13.6-9,22.3,7c8.8,15.9-6.8-3.8,0,13c6.8,16.9,17.2,7.9,11,24.8c-6.2,16.9-10.1,42.8,10.8,36.9c20.8-6,7.3-9.3,12.2,8.1
	c2.8,9.7-10-1.3-8.1,9.7c1.8,11.1,7.9,12.7,9.3,24.8c1.3,11.1,17.1,4.7,28,9.8c1,0.5,2,1,2.9,1.7c0,0,10.2,13.9,17.8,6.3
	c2.2-2.2,3.4-4.4,4.3-6.4c2.2-4.9,2.2-8.2,8-6.2c3.4,1.2,5.8-3.1,8.1-7.8c0.1-0.1,4.5-4.6,7.9-10.8c2.2-4,4-8.6,4-13.3
	c0-7.7-3.6-15.3-5.4-21.1c-0.1-0.5-0.2-1.1-0.3-1.5c-0.5-2.4-0.5-4.4-0.3-5.9c2.7-4.7,10.2,6.6,15.1,1.2c4.9-5.4-1.4-11.9,4.9-14.5
	c6.2-2.6,11.1,6.3,18.8,2.8c7.7-3.4,3.1-11.1,8-13.7c4.9-2.6,14.6-5.4,13.4-15.7c-1.1-10.3-9.2-15.1-10.8-21.5
	c-1.6-6.3-2.1-8.8-2.1-9c-0.6-3.6-0.7-6.8-0.2-9.1c0.9-1.3,1.9-2.6,3-3.8c9.2-3,23.2,4.9,41-6.1c17.2-10.7,59-34,61.4-35.4
	c2.8-1.5,5.5-2.9,7.9-4.2c0.3-0.3,0.6-0.5,0.9-0.8c6.1-5.3,10.5-8.2,12-6.4c5.1,6.4,15.1,15.3,10.1,21.3c-5,6-8.3-4-10.1,11
	c-1.6,12.9-12.2,20.7-17.6,25.7c-0.9,0.8-1.6,1.5-2.2,2.2c-0.7,0.8-1,2.9-1.2,5.6c-0.7,12.8,2.3,41.7-10.8,45.2
	c-6.9,1.8-10.9,0.6-13.7,0.4c-2.1,3.8-4.4,7.6-6.8,11.2c-0.1,0.8-0.3,1.5-0.5,2.4c-4,21.9-20.8,41.1-39.9,49.8
	c-19.1,8.7-43.8,39.6-58.1,39.4c-2.9-0.1-5.6-0.5-8.2-1.2c-4.2-1.1-7.8-2.6-10.9-3.9c-1.9-0.3-3.6-0.9-5.1-1.9
	c-1.9-0.5-3.4-0.5-4.5,0.4c-4.2,3.5,1.3,6.4-9.5,4.1c-7.4-1.6-15.2,2.2-21.5,7.7c1.3-1.4,2.8-2.6,4.6-3.5
	c-5.8,1.9-12.7,7.1-18.2,3.3c0.2,0,1.5-0.5,2.1-0.6c-1.8-2.1,0.7-2.3,0.1-4.5c-0.8-3-3.6-6.4-7-7.5c-5.9-2-5.7,3.2-10,4.4
	c-3.1,0.9-10.3-0.5-13-2c-5-2.8-3-4.9-4-9.5c-1.6-6.9-8.7-10.9-13.5-15.3c14.2-16.8-10.3-24.1-23.9-19.4c-11.1,3.9,13,15.6-3.6,15.7
	c-6.4,0-23.7-8.2-25.1,3.1c-2.9-0.4-21.9-7-15.4,2.1c2.8,3.9,27.2,12.1,19.3,20.1c-3,3-9.5-2.1-13.9,0.8c-1.9,1.2-3.4,4.5-5.4,5.2
	c-3.5,1.3-8.4-2.2-11.6-3.4c-21.5-8.3-3,10.2-12.1,16c-2.8,1.8-6.7-1.6-9.8-1.2c-4,0.5-2.7,1.9-5.2,3.7c-6.4,4.4-13-4.4-19.5-0.6
	c-5.1,3-1.1,8.2-8.6,9.8c-4.3,0.9-23-5.5-28.4-7.4c-4.3-2.3-8.3-5.1-12.3-8.6c-3.9-3.5-7.6-7.3-11.1-11.3
	c-5.8-6.8-10.9-14-15.3-21.1c-9.9-15.9-16.3-30.8-19.5-36.1c-5.4-9-21.6,11.7-23-17.6c-1.2-24.8-13.7-50.1-24-63.8
	c-1.6-2-3.2-3.9-4.8-5.7c-0.2-0.2-0.4-0.5-0.6-0.7c-10.8-10.8-26.9-21-26.9-21s0.1-0.1,0.3-0.2l-0.2-0.1c-0.4-0.1-0.8-0.3-1.1-0.4
	c-3.3-1.1-6.9-4.5-10.7-9.3c3.7,0.4,7.9-0.2,12.8-2.3c6.8-2.9,9-3.3,13.6,2.6c1.9,2.5,4.3,4.1,6.7,5.8c1,0.7,2.1,1.4,3.1,2.1
	c1.1,1.5,2.2,2.6,3.4,2.9l0.2-0.1l0.2,0.2c0.8-0.6,1.7-1.5-0.2-0.2c-1.2-1.1-2.4-2-3.6-2.8c-3.1-4.5-5.8-12.8-9.1-16
	c-2.4-2.4-6-6.8-9.8-6.2c-3.4,0.5-4.7,4.3-8.6,3.5c1.1-11.6-10.3,2.2-13.4-7.7c-1.6-5,0.8-4.7-3.2-8.4c-2.6-2.4-4.7-4-8.3-2.4
	c-1.9-4.2,2.4-8.7,2.1-13c-4.2,0.4-1.8-3.6-3-6.3c-2.1-4.9-6.1-2-8.3-4.5c-0.1-0.2-0.3-0.3-0.4-0.5c-0.1-1.1-0.2-2.2-0.2-3.3
	c0.4-2.9,1.8-6.4,1.4-8.5c-0.4-1.9-1.2-2.8-1.8-4c0-2.4,0-4.8,0.1-7.1c1.9-5.2,6.4-8.9,8.1-14.5c1.1-3.6,2.8-7.2,3-11
	c-3.1-0.5-5.5,0.1-7.3,1.2C688.2,283.1,688.7,282.4,689.4,282.1z M1148.2,518.3c0.1,1,0.2,1.6,0.2,1.6c7.6,1.7,21.7-15.1,29.3-12.3
	c7.6,2.8,8.7-5.7,13.2-14c0.4-0.7,0.7-1.2,1.1-1.8c2.5-3.9,4.3-3.7,6.9-2c1.3,0.9,2.9,2.2,4.9,3.5c6.3,4.3,6.8-2,8.6-10.4
	c1.3-6.3,3.4-5.4,7.1-6.7c1.2-0.4,2.6-1.1,4.3-2.3c6.6-5,0-15.4,0-15.4s-0.1,1.2-1,2.6c-1.4,2.2-4.5,5-11.5,5.1
	c-11.6,0.3-0.8,4.8-4.8,13c-4,8.2-4.8-0.5-17.7-3.6c-12.8-3.1-6.3,2.9-5.1,12.8c1.1,10-4.8,3.4-21.7,10.3
	C1148.5,504.2,1147.9,514.4,1148.2,518.3z M773.4,432.2c-1.7-2.9-2.6-11.6-5.6-13.8c-0.4-0.3-0.9-0.5-1.5-0.5
	c-0.4,2.8-0.2,7.7,1,10.2c1.1,2.2,3.2,2.9,4.1,5.3c0.6,1.6-0.2,3.9,0.3,5.6c2.3,8.6,4,18,16.5,17.5c-1.2,4.5,0.2,9.6,4.9,11.3
	c6.4,2.4,4.3-2.8,9.3-4.1c8.4-2.3,12.1,12.9,10.2,18.4c3-1.4,8.9,2.7,9.2,6.1c0.4,4.3-7,6.2-4.9,11.2c1.4,3.4,7,2.9,9.7,5.3
	c3.5,3.2,2.8,5.4,8.6,4.9c-0.2,5,0.8,7.4,5.4,8.7c1.1,0.3,3.8-0.7,4.7,0.1c1.1,0.9-0.2,2.5,0.5,3.4c2.2,3.2,2,4.2,6.9,5.5
	c5.7,1.5,8.5-1.8,12.1-1.8c-0.2-0.1-0.3-0.2-0.5-0.2c-2.5-0.9-5.1,0.5-9.8-5.7c-3.1-4.1-6.2-8.2-9.4-12.1c-3.4-4.2-8.8-9.3-9.2-15
	c-0.3-4.5,2.4-8.7,0.3-13.2c-1.6-3.5-5.5-5.2-8.4-7.6c-2.8-2.4-7.6-6.3-8.4-9.9c-0.5-2.3,1.5-3.6,0.5-5.9c-1.4-3.1-7.2-4.5-10.2-5.9
	c-8.5-4-17.9-4.1-26.5-8.8C779.1,439.3,775.6,436.2,773.4,432.2z M1007.1,387c0.6-0.5,1-0.7,1-0.7S1007.8,386.5,1007.1,387"/>
<path class="st5" d="M707.1,267.1c-4.2,7.8,7.9,14.8,15.4,22.7c4.9,5.2,3.7,11.4,2.3,15c-0.2-0.2-0.4-0.3-0.6-0.5
	c-0.5-0.4-0.9-0.7-1.3-1c-0.7-3.2-2.1-7.4-5.5-10.3c-3.6-3.1-11.4-13-14.2-21.4c0.7-0.3,1.3-0.9,1.9-1.9c2.2-4,2-7.5,1.5-10.3
	c0.2-0.1,0.4-0.2,0.6-0.2c13.5-4.7,31.4-4.3,30.1,8c-3.1,29.1,28.3,42,39.9,48.1c0,0-24.8,1-40.1-17.2
	C721.6,279.9,711.2,259.3,707.1,267.1z M1142.4,67.7c3-0.1,6.5-0.2,9.8-0.1c2.6,0.2,5.2,0.6,7.7,1l0.3,0.1c4.7,1.5,8.6,5,12.3,5.6
	c1.5,1.3,5,2,7.6,1.7c-0.4-1.1-0.7-2.3-0.9-3.5c9.4,3.5,19.2,9,28.8,17.6c12.6,11.2,24.2,25.1,34.2,39.1c2.5,10.1,10,26,21,38.2
	c7.7,8.5,8.5,10.9,5.8,13.8c-7.8-9.4-17.8-22.4-23-33.4c-9.3-19.5-12.4-33.5-24.3-29.2c-12,4.3,17.6,18.5,22.5,38
	c4.9,19.5-23.5,58.3-22.5,76.3c1,17.9,35.4,18.5,50.9,43.9c14.3,23.6,8.2,74.5,7.2,81.8c-0.3,0.3-0.6,0.5-0.9,0.8
	c-2.4,1.3-5.1,2.7-7.9,4.2l0.1-0.1c0,0-1.7,0.8-4.5,2c1.2-9.9,4.6-43.5-0.3-59.6c-5.8-19-40.5-34.1-53.5-71.1
	c-10.5-29.9,0-58.2-0.8-88.5c-0.2-7.2-1-14.6-2.9-22.1c-1.4-5.5-3.7-10.5-6.5-15c-17.3-28.1-56.7-40-56.7-40l-11.1,1.3
	C1137.4,69.1,1140.2,68.2,1142.4,67.7z M1240,258.1c-6.6,3.6-1.9,10.4,5,16c1,0.8,2,1.6,3.1,2.3c3,2.2,6.2,4.1,8.9,5.4
	c9.9,4.9,15.6,23.5,20.9,23.8c5.3,0.3-0.8-18.9-8.1-30C1262.5,264.7,1240,258.1,1240,258.1z M1217.8,132.4c-7.8,1.7,3.3,16,4,24
	c0.7,8-8.7,49.2-4,49.9c4.7,0.8,23.4-27.8,22.2-46.2C1238.8,141.9,1217.8,132.4,1217.8,132.4z M910,90.7c0.8-1.3,1-3.2,0.3-6.1
	C910.8,86.8,910.6,88.8,910,90.7z M1077.4,18.6c0,0,0.2,2.9-1.3,5.1c3.5,2.7,7.5,5.6,12.2,8.5c21.9,13.6,16,33.1,3.8,49.6
	c-8.8,11.9,0.9,32.9,15.3,54.3c0,0,11.2,2.6,20.2,11.6c9,9,6.5,16,11.3,24.4c1.5,2.7,3.4,6.1,5.1,9.9c3.5,8,6.2,17.6,3.2,25
	c-4.5,10.9,3.8,21.7-3.8,26c-2.1,1.2-4.1,1.9-5.9,2.5c-4.7,1.5-8.4,1.9-11.8,6.4c-4,5.5-33.4,1.4-44.5,0.3
	c-8.9,1.8-19.3,2.9-22.9,2.5c-3.3-0.3-0.5-1.6-1.9-3.3c-0.4-0.4-1-0.9-2.1-1.4c-0.7-0.3-1.6-0.7-2.8-1c-9.8-2.9-1.3-8.8-7.6-12.2
	c-6.2-3.4-18.1,11.8-26.9,10.1c-8.8-1.7-9.5-3-13.6-7.8c-4.2-4.7-3.9-6.8-6.4-8.3c-2.5-1.6-5.3-0.1-8.7-6.5
	c-3.4-6.4-3.1-4.9-7.9-4.7c-4.8,0.2-2.5-1.7-3.9-6.1c-1.3-4.2-5.1-5.3-7.1-9c-0.1-0.2-0.2-0.3-0.3-0.5c-1-2.2-0.1-4.3,2.3-6
	c2-1.4,5.1-2.5,8.9-3.1c3-0.5,5.8-1.5,8.3-2.7c-1.1-3.3-6.7-8.1-13.9-11.6c-7.9-3.8-11-21.4-20.5-26.5c-9.4-5-21.7-25.2-26.7-30.7
	s-14.8-8.2-14.8-8.2s14-3.2,22-2.8c8,0.4,2.5,11.8,9.2,11.3c6.7-0.4,9.2,2.1,10.3,9.5c1.1,7.4,6.1,14.1,20.5,14.5
	c14.4,0.4,4.5,10.1,2.9,18.9s14.3,5.1,18.9,13.5c1.6,3,1.1,5.4-0.1,7.4l0,0c0,0,4,4.2-4.3,7.3c-8.3,3.2-11.3,2.3-14.7,4
	c-3.5,1.7,3.8,3.4,5.5,9.8c1.7,6.4,1.7,3.7,7.1,2.9s5.4,0.5,2.7,3.9c-2.7,3.4-0.7,3.4,10.7,9.5c11.4,6.1-1.9,3.7,2.1,5.7
	c4.1,2,2.4-0.3,7.1,2.6c4.7,2.9-2.3,2.2,1.4,5.5c3.7,3.4,41.9-21.3,56.1-15.8c14.2,5.5-1.7,16.8,7.4,19.9c9,3.1,19.3-4.4,25.4-11.5
	c4.7-5.5,11.8-0.2,14.8,2.4c5.1-0.2,6.7,0.4,8-1c1.9-7.2,2.9-15.6,1-23.3l0,0c0.8,10.5-6.8,12.1-9.8,13.4c-3,1.4-2.7-5.4-6.6-5.3
	c-3.9,0.1-6.6,0-7.9-4.1c-1-3.1-3.6-5.7-4.8-6.7c-1.8,1-3.2,4.5-6.4,6.8c-6,4.2-11.9-0.1-21.1-7.3c-7.2-5.7-3.9-7.1-5.6-9
	c-0.5-0.2-1-0.6-1.4-1.1c-0.4-0.2-0.8-0.4-1.3-0.7c-6.9-3.3-6.4,6.1-13.3,4.7c-6.9-1.4-3.6-5.4,0-15.1c3.6-9.6-10-1.4-17.8-5.5
	c-7.2-3.8,8.3-20.6,20.1-25.8c0,0,2.2-5,9.2-1.4c2.9,1.5,4.5,4.2,5.5,7.4c2.4,5,3.5,11.8,3.7,17.6c2.3,8.3,5.7,14.9,9.2,13.3
	c3.8-1.7-1.9-6.8,3.4-5.7c5.3,1.1,3.3,8.5,7.9,8.1c4.4-0.4,11.4,4.1,15.9-6.4c-0.2-2.8-1.5-5.5-3.3-7.8
	c-13.6-12.4-27.2-23.8-23.1-28c6.7-7,9.1-9.8,9.1-9.8s-20.4-2.1-15.6-15.4c4.8-13.3,9.1-42-0.7-49s-17.7-7.7-27.1,4.2
	c-9.4,11.9-33,13.3-41.1,16.8c-3.9,1.7-4.2,6.1-5,9.5c3.7,0.6,7.7,2.2,12,5.2c7.8,5.3-1.8,10.3-3.9,19.5c-2,9.2,6.6,2.3,12.4,11.5
	c1.6,2.6,1.6,4.4,0.8,5.7c-0.3,0.4-0.6,0.8-1,1.2c-2.8,2.5-8.6,4.3-13.8,3.2c-6-1.2-6.1-8.6-5.7-11.5c0.5-2.9-2.3-1.7-7.5-4.5
	c-5.2-2.9-7.2-9.8-7.9-12.7c-0.8-2.9-2.8-0.3-6-2.9c-3.2-2.6,2.2-6,3.5-7.9c1.2-1.9,0-3.2,0-3.2c-0.7-0.5-1.7-1.1-3.2-1.6
	c-8.5,2.2-13.5,10.6-19.3-3.1c-7.7-18.2,0-37.4-19.5-34.4c-19.6,2.9-45.7,8.1-50.5,12.5c-4.8,4.4,5.7,9.9,0.4,13.5
	c-5.1,3.4-4.5,16.9,2.7,20.7c-0.9-0.5-1.7-1-2.6-1.5c-9.2-6.7-14.4-24.7-9.6-37c4.8-12.1,19.9-5,29.4-8.8c0.2-0.1,0.4-0.2,0.6-0.3
	c-0.1,0.2-0.1,0.4-0.2,0.7c4.6-0.5,8.6-3.4,11.6-6.9c3.1-3.6,1.6-9.7,4.3-12.9c1.7-2.1,2.6-1.3,4.4,0.4c2.5,2.4,1.9,4.5,5.7,2.1
	c5.5-3.4,12-9.4,18.2-3.1c2,2,5,16.9,7.9,16.7c0.3,2.2,0.4,3.6,0.4,3.6c-1.2,4.1,9.3,17.2,6,23.1c1.7,2,3.8,3.5,6.3,4.3
	c-0.1-6.4,23.4-12.5,27.1-19.7c3.6-7.2,6-2.4,12.5-3.2c1-0.1,2.4-0.8,3.8-1.8c3.9-3.6,7.7-7.5,11.3-11.3c3.6-4.9,6-9.8,4.6-11.9
	c-3.2-4.8,4-12.5,10.9-14.5c6.9-2,7.2-9.7,9.2-16.5C1056.1,3.3,1077.4,18.6,1077.4,18.6z M1097.8,196.8c0.7,0.2,1.8,0.6,3.1,1.1
	C1099.6,196.7,1098.6,196.5,1097.8,196.8z M736.2,211.6c-0.8-3.9-4.6-8.2-7-11.3c-0.7-1-1.3-1.8-1.6-2.5l-0.1-0.2
	c-0.4-1.1,0.2-1.7,2.9-1.2c8.8,1.6,7.8,7.6,16.8-1.4c1.9-1.9,3.5-3.9,5-5.7c1.3-1.7,2.5-3.4,3.6-4.9c3.3-4.5,6.5-8,13-9.5
	c9.1-2.1,16.9-0.7,19.3-0.2c0-0.6,0-1,0.1-1.3c0.1-0.5,0-1.7-0.2-3.3c-1.1-3.7-3.4-8.3-8.2-8.3c-6.5,0-23.7,16-34.6,22.9
	c-2.2,2.3-3.9,3.9-5,4.3c-5.4,2.6-16.3-3.1-16.3-3.1c-1.9,0-3.1,0.7-3.2,3.4c-0.1,7.5,10.9,15.6,8.4,24.1c-2.5,8.5-8.1,28.4-6.1,32
	c0,0,0.9-1.6,2.2-4.2C729.4,233.5,737.3,217.2,736.2,211.6z M922.1,467.8c-7.7,3.3-12.8-3.3-22.7-16.7
	c-9.9-13.4-18.2-42.8-21.1-52.8c-1.9-6.5-14.6-26.7-26.9-46.1c-2.8-4.5-18.1-28.6-18.1-28.7c-12.4-20.2-19.8-25-20.8-25.6l-0.1-0.1
	c0,0,29.8,49.3,33.3,70.9c3.5,21.6,22.6,45.2,29.6,51.7c7,6.5,2.5,20.6,3.1,36.4c0.6,15.8,7.4-1.3,14.4,5.2c7,6.5-2.5,11,10.2,19.1
	C915.6,489,922.1,467.8,922.1,467.8z M1163.3,452.3c-2.6,4,0.6,7.1-1.4,9.1c-2,2-10.3,1.7-12.8,5.4c-2.6,3.7-15.1-1.4-16.2,3.7
	c-1.1,5.1-21.6,10-20.2,16.3c0.9,3.8,5.1,9.2,7,13.8c1,2.4,1.3,4.7,0.2,6.4c-0.2,0.4-0.5,0.8-0.9,1.1c-5.7,4.8-2.6,12.2-6.2,8.8
	c-3.6-3.3,5.7-17.2-2.6-22c-8.3-4.8-7.9-11.3-7.9-11.3c0,0-5.2,3.1-3.5,10.8c1.7,7.7,13.4,29.1,12.8,33.4c-0.6,4.3-2.8,13.4,1.2,13
	c0.1-0.1,4.5-4.6,7.9-10.8c2.2-4,4-8.6,4-13.3c0-7.7-3.6-15.3-5.4-21.1c-1-3.2-1.5-5.8-0.5-7.5c2.7-4.7,10.2,6.6,15.1,1.2
	c4.9-5.4-1.4-11.9,4.9-14.5c6.2-2.6,11.1,6.3,18.8,2.8c7.7-3.4,3.1-11.1,8-13.7c4.9-2.6,14.6-5.4,13.4-15.7
	c-1.1-10.3-9.2-15.1-10.8-21.5c-1.6-6.3-2.1-8.8-2.1-9l0,0c0,0,0.9,20.9,2.9,25.4C1170.7,447.7,1165.8,448.3,1163.3,452.3z
	 M1211.2,466.3c-11.6,0.3-0.8,4.8-4.8,13c-4,8.2-4.8-0.5-17.7-3.6c-12.8-3.1-6.3,2.9-5.1,12.8c1.1,10-4.8,3.4-21.7,10.3
	c-13.4,5.5-14,15.6-13.7,19.5c0.1,1,0.2,1.6,0.2,1.6c7.6,1.7,21.7-15.1,29.3-12.3c7.6,2.8,8.7-5.7,13.2-14c0.4-0.7,0.7-1.2,1.1-1.8
	c2.5-3.9,4.3-3.7,6.9-2c1.3,0.9,2.9,2.2,4.9,3.5c6.3,4.3,6.8-2,8.6-10.4c1.3-6.3,3.4-5.4,7.1-6.7c1.2-0.4,2.6-1.1,4.3-2.3
	c6.6-5,0-15.4,0-15.4s-0.1,1.2-1,2.6C1221.3,463.3,1218.2,466.1,1211.2,466.3z M1139.7,372.7c-18.6,10.7-40.3,26.2-52.6,41.8
	c-7.4,11.6-13.6,25.6-13.8,40.4c0,0.2,0,0.5,0,0.7c0,0-17.1-40.8-7.7-62.4c9.4-21.6,7-77.2-28.6-67.2c-35.7,10-71.9,3.3-73.1-25.2
	c-1.2-28.5,7.5-40.9,1.3-68.1c-6.2-27.2,3.7-36.3,3.7-36.3c0,0.2-2.8,24.2,19.5,41.6c6.6,5.1,14.2,9,21.9,12.4
	c18.5,8,38,13,46.4,24.4c12,16.2-4.3,50.5,16.1,65.5c20.3,15,21.4-9.1,46.1-18.9c24.7-9.8,49,16.4,49,16.4
	c-0.7-22.6-14.1-56.8-14.1-56.9c0,0,16.5,19.5,19.4,42c0.3,2.2,0.5,4.5,0.4,6.8c0,4.5-0.5,8.3-1.4,11.7c-1,4-2.5,7.3-4.4,10.2
	c-0.2,1.2-0.6,1.9-1.1,1.6C1160.3,361.9,1150.3,366.6,1139.7,372.7z M973.7,311.6c5,0,13.4-23.4,22.2-26.8
	c8.8-3.4,10.8-18.2,0.6-28.8c-10.3-10.6-27-37-28.7-29.6c-1.7,7.4,6.5,11.6,9.4,33C979.9,280.9,959.1,311.6,973.7,311.6z
	 M1047.2,318.5c4.5,2.2,10.1-0.2,10.9-5.2c1.6-10.5-7.6-28.1-23.7-28.5c-22.5-0.6-58.6,19.2-53.6,32c2.5,6.3,25.3,13.9,44.7,9.4
	C1036.8,323.6,1043.7,316.8,1047.2,318.5z M1160.7,358.1c0.7-0.6,1.3-1.2,2-1.9c1.1-1.2,2.1-2.6,2.9-4.2
	c-3.9-7.2-22.9-28.4-39.6-24.1c-16.7,4.4-31.5,9.7-42.5,35.4c-6,13.9,1.2,28.1,10.9,29.9c5.7,1.1,12.5-3.5,16.1-6.4
	c2.5-2.2,5.2-4.4,7.9-6.4c17.5-12.8,32.9-14.4,42-22l0.1-0.1L1160.7,358.1z M855.1,249.4c-0.4-10.9-9.1-24.2-9.1-24.2
	s0.6,0.7,1.5,1.9c6.2,7.9,29.9,39.8,34,72c4.7,37.2-9.3,39.1-23.5,27c-8.8-7.5-15.7-12.9-19.7-15.9c-1.9-1.4-3.1-2.3-3.6-2.6
	c-0.1-0.1-0.2-0.1-0.2-0.1l0.1,0.1c1.5,1,24.9,16.2,35.7,11.6c11.2-4.7-20.6-32.6-22.8-45.1C845.3,261.4,855.5,260.2,855.1,249.4z
	 M851.8,273.6c-1,7.8,16.7,24.8,21.9,24c5.2-0.8-0.8-30.3-12.2-33.1C861.5,264.6,852.8,265.8,851.8,273.6z M912,341.3
	c-11-6.2-48.4-7.5-62.9-2.8h0c0.2,0,22,0.5,40,5.1c18.1,4.6,52.8,29.8,52.8,29.8C941.9,373.4,923,347.6,912,341.3z M942.1,194.4
	c-1,0.9-2,1.7-2.6,2.1c-0.3,0.2-0.5,0.4-0.8,0.5c1.4-0.2,2.9-0.6,3.2-1.1C942.3,195.2,942.3,194.8,942.1,194.4z M972.2,339.9
	c1.5,0.1,3.1,0.1,4.8-0.1c29.1-3.2,42.2,10.1,42.2,10.1s-0.1,0-0.2-0.1c-1.4-0.6-10.5-4.6-19.8-4.2c-10.1,0.4-24.3,11.2-41.7,5.9
	c-17.4-5.3-9.5-13.5-23.3-13.5c-13.8,0-18.7-1-29.6-16.8c-6.8-9.8-9.5-27.9-10.6-40.2c-0.3-2.9-0.4-5.6-0.5-7.6
	c-0.2-2.9-0.4-5.9-1-8.8c-2.2-11.1-2.3-22.7-2.3-22.7s3.3,14.8,9.2,17.1c5.9,2.3,3.6-18.4,19.7-34c16.1-15.6,18.3-27.2,18.3-27.2
	s0,0,1-0.7c3.7-0.2,6.6-1.9,8.7-3.2c1-0.7,1.9-1.4,2.6-2.2c0.5,2.6,0.2,7.1-3.7,15.1c-7.2,14.8-40.8,28.6-39.4,51.3
	c1.3,22.7,18.4,19.7,30.9,33.2C949.2,304,948.2,338.5,972.2,339.9z M912,279c0-2.2-14.8-17.3-15.7-15.8c-0.9,1.6-1.1,10.2,3.5,14.4
	c-0.3-0.1-0.5-0.1-0.5-0.1l0.5,0.1c0.2,0,0.5,0,0.8,0.2C903.7,279.5,912,282.6,912,279z M953,337.1c2.7-3.4-14.9-37.5-22.4-44.4
	c-7.5-6.8-29.4-17.1-29.9-1.4c0,0,3.3,24.8,15.9,34.7c12.5,9.9,23.8-2.2,27.7,3.5C948,335.3,950.3,340.5,953,337.1"/>
<g>
	<defs>
		<rect id="SVGID_00000148632042015322437030000003923729959952074671_" x="678.9" y="0" width="401.1" height="598.7"/>
	</defs>
	<clipPath id="SVGID_00000004504936334925767170000006205978114637081257_">
		<use xlink:href="#SVGID_00000148632042015322437030000003923729959952074671_"  style="overflow:visible;"/>
	</clipPath>
	<g style="clip-path:url(#SVGID_00000004504936334925767170000006205978114637081257_);">
		<path class="st7" d="M903.9,421.1c7.5,2.8,10.4-8.7,11.6-17.7c1.9,3,3,7.1,2.5,12.6c-1.8,18.8,6.7,43,4.1,51.8
			c-7.7,3.3-12.8-3.3-22.7-16.7c-9.9-13.4-18.2-42.8-21.1-52.8c-1.9-6.5-14.6-26.7-26.9-46.1c10.2-0.3,21.8,1.3,31.1,8
			C903.7,375.5,892,416.5,903.9,421.1z M788.2,174.8c-2.5-0.5-10.3-1.9-19.3,0.2c-6.4,1.5-9.6,5-13,9.5c10.7,0.4,22.4,1.4,33.6,3.6
			C788.3,183.4,788.1,177.6,788.2,174.8z M801.2,503.5c-5.4-9-21.6,11.7-23-17.6c-1.2-24.8-13.7-50.1-24-63.8
			c-1.6-2-3.2-3.9-4.8-5.7c-0.2-0.2-0.4-0.5-0.6-0.7c-10.8-10.8-26.9-21-26.9-21s0.1-0.1,0.3-0.2l-0.2-0.1
			c-5.5,5.8-5.6,16.8-1.1,31.9c9.5,32.5,37.1,82.2,99.8,113.2C810.7,523.7,804.3,508.8,801.2,503.5z M977.1,339.8
			c-1.6,0-3.2,0.1-4.8,0.1C973.8,340,975.4,340,977.1,339.8z M793.5,324.8c1.8-8.5,2.9-23.6,9.9-25.2c1.9-4.3,5-4.5,8.9-1.9
			c1,0.6,8.4,5.4,20.8,25.6c2.5,3.8,5,7.9,7.5,12c0.8,1.2,1.5,2.4,2.3,3.6c2.1-0.1,4.1-0.3,6.1-0.5h0c14.5-4.7,51.9-3.5,62.9,2.8
			c11,6.2,29.9,32.1,29.9,32.1c0.9,1,1.9,2,2.8,3c0.7,0,1.5,0,2.4,0c13.6,0.3,11.2,4.3,13.4,5.4c2.2,1.1,2.2,1.1,9.3,1.6
			c7.1,0.5,0.8-3,4.9-3.3c4.1-0.3,12-0.8,12-0.8s5.5,1.6,5.5,5.7c0,4.1,4.1-0.3,8.7-0.5c4.6-0.3,3.2,4.6,3.2,4.6
			c1.3-0.9,4-2.9,4-2.9s-0.4,0.3-1,0.7c-0.7,0.5-1.8,1.3-3,2.3c-0.1,2.9-3.7,8.4,2.8,8.6c6.6,0.3,5.7-8.5,13.6-6
			c7.9,2.5-0.8,10.4-7.4,13.4c-6.5,3-10.1-6.8-17.7-3c-2.1,1-3.5,1.8-4.6,2.5c-1.5,1.6-3,3.3-4.5,5l0,0.1c-1.3,3.2-1.7,6.4-0.6,9.4
			c5.2,14,13.6-9,22.3,7c8.8,15.9-6.8-3.8,0,13c6.8,16.9,17.2,7.9,11,24.8c-6.2,16.9-10.1,42.8,10.8,36.9c20.8-6,7.3-9.3,12.2,8.1
			c2.8,9.7-10-1.3-8.1,9.7c1.8,11.1,7.9,12.7,9.3,24.8c1.3,11.1,17.1,4.7,28,9.8c7.3-7.4,13.1-19.5,1.3-34.6
			c-20-25.6-46.9-50.4-29.3-87.7c12.6-26.7,6.3-63.7-24.3-81.2c-1.4-0.6-10.5-4.6-19.8-4.2c-10.1,0.4-24.3,11.2-41.7,5.9
			c-17.4-5.3-9.5-13.5-23.3-13.5c-13.8,0-18.7-1-29.6-16.8c-6.8-9.8-9.5-27.9-10.6-40.2c-3.2-14.9-4.4-30.5-4.6-44.5
			c-2.5,0-5.5,0.4-9.3,3.2c-9.7,7-32.6-6-6.7-15.9c0,0,8.6,0.3,16,1.8c0-3.6,0.1-7,0.2-10.2c0.1-1.5,0-3-0.1-4.6
			c-8.1,0.3-14.7,0.3-17.6,1.2c-6.1,2-8.9-0.4-12.5-3.6c-2.8-2.5-28.7-15.1-39.8-20.5c0.1-0.3,0.2-0.6,0.3-0.9
			c0.4-1.7,1-3.4,1.4-5.1c0.1-0.5,0.2-1,0.3-1.5c0.1-0.8,0.1-1.7,0-2.6c-0.2-1.7-0.5-3.4-0.2-4.8c0.2-1,0.8-2,1.4-2.9
			c0.9-1.3,1.9-2.6,2.5-4.1c1.7-4.1,1.1-6.1,1-10.2c-0.1-5.2,4.2-9.1,3.8-13.7c-0.3-3.3-1.5-4.2,0-7.5c1.1-2.3,2.8-3.5,4.4-5.4
			c1.7-2,2.9-4.7,3.8-7.1c0.3-0.8,0.6-1.5,0.8-2.2c-3.2-0.2-5,0.5-7.7,1.7c-2.7,1.1-4,0.4-7.3,0.4c-12.8,0,3.1,18.3-5.6,18.9
			c-1.7,0.1-3.1-1.7-4.9-1.2c-2.7,0.7-2.7,3.3-3.5,5.8c-0.4,1.1-0.6,2.8-1.5,3.6c-1.5,1.4-2.9,0-4.1,2.9c-0.8,2.1-0.5,4.9,0.6,6.9
			c1.7,2.9,3.1,1.9,5.5,2.8c4.2,1.5,8.7,7.5,5.6,12.1c-2-0.4-5.1-2.5-7.4-1.3c-3.1,1.6-1,4-0.2,6.5c-5.9-1.6-4.8,5.8-1.7,8.8
			c1.9,1.8,4.2,1.2,5.2,3.9c0.6,1.6,0.2,5.7-0.7,7.1c-1.4-0.5-3.1-2.2-4.7-1.8c-1.8,0.4-1.1,1.8-2.3,2.4c-1.3,0.7-4.2-0.1-5.4,1.4
			c-3.1,4.2,2.4,4.3,3.6,5.6c1.1,1.2,0.4,4.7,0.3,6.3c-5-3-4.6,5.6-1.8,6.9c2.4,1.2,7-2.2,9.9-1.7c-0.6,2.3-3,2.9-0.3,4.2
			c2.1,1,6.2-1.4,8.3-1.8c2.2-0.4,9.2-2.7,9.4,0c2.8,0.3,2.9-1.7,4.6-2.7c1.6-1,3.7-1.3,5.4-2.1l0.1-0.1c0.5-0.6-2.4-0.3-3.1-0.2
			c-1.8,0.1-3.2,0.2-5,0c-3.8-0.5-7.4-0.5-10.6-2.6c-3.6-2.3-6-6.8-6.2-11.4c-0.1-1.5,0.1-3,0.5-4.5c0.6-1.9,1.8-3.3,2.9-4.8
			c-0.7,1.4-1.3,2.8-1.8,4.1c4.5,2.2,8.6,4.7,12.1,7.6c3.9,3.3,7.8,7.3,11.5,11.7c11.8-2.2,17.7-6.6,15.9,1
			c-0.8,3.3-4.1,6.2-8.6,8.6c0.5,0.7,0.9,1.3,1.4,2c6.2,7.9,29.9,39.8,34,72c4.7,37.2-9.3,39.1-23.5,27
			c-8.8-7.5-15.7-12.9-19.7-15.9c-1.2-0.8-3.7-2.8-3.7-2.8l0.1,0.1c-23.6-17.7-48-43.3-50.9-61c-5.2-31.2-10.1-51.7-31.5-57.2
			c-1.4,1.8-3,3.8-5,5.7c-9,9-8,3-16.8,1.4c-0.4,1.3-0.8,2.5-1.2,3.8c2.3,3.1,6.2,7.4,7,11.3c1.1,5.6-6.8,22-10.8,29.8
			C739.6,269.6,762.4,304.4,793.5,324.8z M914,51.3c-1.3-15.8-5.3-34.5,4.7-49.3c0.1-0.2,0.3-0.5,0.5-0.7c0.2-0.3,0.4-0.5,0.6-0.8
			c1.7-2.4,3.8-7.2,6.4-12.4C914.9-9,906.8,6.8,900.9,25.9c0.1-0.7,0.2-1.5,0.4-2.2c1.6-6.4,0.3-13.9-1.4-20.3
			c0-0.2-0.1-0.4-0.1-0.6c-0.3-1.7-0.6-4.5-0.1-6.6c0.1-0.6,0.3-1.1,0.6-1.5c0.4-0.8,1.1-1.3,2.1-1.3c-6.2-0.1-13-1.3-19.1,0.3
			c-3,0.8-8.5,2-10,4.9c-3.2,0.4-5.7-1.1-8.7-1.7c-3.2-0.6-6.9-0.7-10.2-1C844.6-5,834.2,2,829.3,10c-1.8,3-2.4,6.2-4.7,9.2
			c-1.5,2-2.4,3.9-3.9,5.8c-1.8,2.5-2.2,3.1-3.3,6.1c-0.7,1.8-1.6,3.8-3.8,3.8c0.3,0.1,0.6,0.2,0.8,0.2l0.1,0
			c4.3,1.2,6.8-0.2,8.4-2.4c0.7-1,1.2-1.8,1.6-2.6c0.8-1.5,1.5-2.6,3.6-3.6c2.3-1.1,4.7-0.8,6.6-2.8c0.8-0.8,1.5-3.7,2.4-4.1
			c2.6-1.3,6.5,2.5,8.9,0.2c0.8-0.8,0.2-3.8,1.2-5.1c0.6-0.8,2.5-1.2,3.4-2c2.4-2.2,3.3-5.8,7.6-4.5c3.7,1.2,4.6,6.2,7.9,8
			c3.1-3.3,4.3-7.1,6.4-10.9c1.3-2.3,5-7.2,7.8-6.9c2.3,0.3,4.7,4,4.5,6.2c2.9-2.9,7.1-0.3,8.3,3c0.8,2.2-0.1,3.1-0.3,5
			c-0.3,2.5,0.2,3.1,0.6,5.5c-4.7,0.5-3.6,1.7-3.7,5.2c-0.1,2.5-0.9,4.8-0.7,7.3c2.5,0.1,6.5-0.9,7.6,1.3c0.5,1-0.2,5.6,0.1,7.1
			c0.7,4.5,0.7,2.1,3.8,3.6c4,1.9,5.1,5.7,5.9,9.8c0.5-6.1-2.3-11.5-4.1-17.1c2.1,4.5,4.7,11.8,6.3,19.8L914,51.3z M1245.1,274.2
			L1245.1,274.2c1,0.8,2,1.6,3,2.3C1247.1,275.7,1246.1,274.9,1245.1,274.2z M1134.7,70.3c-2.5,1.1-4.9,2.4-7.1,4.1
			c-2,1.5-2.8,3.2-3,5c-0.3-2.2,0.2-3.9,2.1-4.7c-1.5-0.1-3.3,0.1-4.7,0.7c-3.1,1.5-2.2,3.4-4,5.9c-0.5,0.7-2-0.7-2.4,0.6
			c-0.5,1.8,1.6,2.9,2.2,4.1c1,1.8,2.1,5,0.1,7c-1.2,1.3-5.5,0.5-4.8,3.7c0.6,2.6,5.3,0.8,5.6,4.9c0.2,3.3-4.3,3.8-4.8,7
			c-0.8,5.5,4.8,3.7,7.6,5.8c-0.5,2.3-0.9,4.8,1,6.5c1.2,1.1,3.5,0.4,4.6,1.6c1,1,1.2,4.1,0.7,6.3c-0.2,0.3-0.3,0.6-0.5,0.8
			c-0.2,0.3-0.4,0.6-0.5,0.9c-0.3,0.5-0.5,0.8-0.5,0.8c0.2,0.5,0.4,1.1,0.6,1.6c12.1-6.1,24.8-9.7,35.6-9.2
			c37.1,1.9,39.4,107.3,13.4,121.1c-9.6,5.1-24.1-0.3-38.6-9.2c-4.7,1.5-8.4,1.9-11.8,6.4c-4,5.5-33.4,1.4-44.5,0.3
			c-8.9,1.8-19.3,2.9-22.9,2.5c-3.3-0.3-0.5-1.6-1.9-3.3c-0.9-0.3-1.6-0.8-2.1-1.4c-0.7-0.3-1.6-0.7-2.8-1
			c-9.8-2.9-1.3-8.8-7.6-12.2c-6.2-3.4-18.1,11.8-26.9,10.1c-8.8-1.7-9.5-3-13.6-7.8c-4.2-4.7-3.9-6.8-6.4-8.3
			c-2.5-1.6-5.3-0.1-8.7-6.5c-3.4-6.4-3.1-4.9-7.9-4.7c-4.8,0.2-2.5-1.7-3.9-6.1c-1.3-4.2-5.1-5.3-7.1-9c-0.2,0.7-0.4,1.3-0.6,2
			c0,0.2-2.8,24.2,19.5,41.6c6.6,5.1,14.2,9,21.9,12.4c17.1,4.5,41.2,6.7,78.1,10.1c42.6,3.9,57.5,10.3,65.4,20.6
			c0,0,16.5,19.5,19.4,42c1.6,6.5,1.3,12.6-0.9,18.5c-1,4-2.5,7.3-4.4,10.2c-0.2,1.2-0.6,1.9-1.1,1.6c-6.4,8.5-16.4,13.2-26.9,19.3
			c-18.6,10.7-40.3,26.2-52.6,41.8c-7.4,11.6-13.6,25.6-13.8,40.4c-0.1,12.4,3.4,24.3,11.4,34.3c24.7,31.2-3.4,66.3,3.6,66.1
			c2.9-0.1,5.6-0.2,8.1-0.5c2.2-4.9,2.2-8.2,8-6.2c3.4,1.2,5.8-3.1,8.1-7.8c-4,0.4-1.7-8.7-1.2-13c0.6-4.3-11.1-25.7-12.8-33.4
			c-1.7-7.7,3.5-10.8,3.5-10.8c0.9-1.9,2.4-4.4,4.5-8.5c1.2-2.3,3.3-4.7,5.9-7c-1.9-3.6-3.7-7.4-5.2-11.5
			c-8.9-25.2,21.2-25.7,50.2-42.8c-0.2-2.6-0.4-5.4-0.5-8.4c-0.4-12.1,18.6-17.8,34.2-23.7c18.5-26.1,14.9-43.7,16.6-69.7
			c2.1-30.8,35.7-19.9,29.7,33.8c-1.1,10.1-3.2,19.9-5.8,29.2c0.7,0,1.5-0.1,2.3-0.2c11.4-1.3,25.4-6.7,32.5-9.6
			c1.2-9.9,4.6-43.5-0.3-59.6c-5.8-19-40.5-34.1-53.5-71.1c-10.5-29.9,0-58.2-0.8-88.5c0-0.1,0-0.2,0-0.4c-0.5-13.4-4-25.7-9.4-36.8
			c-17.3-28.1-56.7-40-56.7-40L1134.7,70.3z M1165.7,408.7c0.9-1.3,1.9-2.6,3-3.8C1167.1,405.4,1166.1,406.7,1165.7,408.7z
			 M845.6,522c2.2,3.2,2,4.2,6.9,5.5c5.7,1.5,8.5-1.8,12.1-1.8c-0.2-0.1-0.3-0.2-0.5-0.2c-2.5-0.9-5.1,0.5-9.8-5.7
			c-3.1-4.1-6.2-8.2-9.4-12.1c-3.4-4.2-8.8-9.3-9.2-15c-0.3-4.5,2.4-8.7,0.3-13.2c-1.6-3.5-5.5-5.2-8.4-7.6
			c-2.8-2.4-7.6-6.3-8.4-9.9c-0.5-2.3,1.5-3.6,0.5-5.9c-1.4-3.1-7.2-4.5-10.2-5.9c-8.5-4-17.9-4.1-26.5-8.8
			c-3.9-2.1-7.3-5.3-9.6-9.2c-1.7-2.9-2.6-11.6-5.6-13.8c-0.4-0.3-0.9-0.5-1.5-0.5c-0.4,2.8-0.2,7.7,1,10.2c1.1,2.2,3.2,2.9,4.1,5.3
			c0.6,1.6-0.2,3.9,0.3,5.6c2.3,8.6,4,18,16.5,17.5c-1.2,4.5,0.2,9.6,4.9,11.3c6.4,2.4,4.3-2.8,9.3-4.1c8.4-2.3,12.1,12.9,10.2,18.4
			c3-1.4,8.9,2.7,9.2,6.1c0.4,4.3-7,6.2-4.9,11.2c1.4,3.4,7,2.9,9.7,5.3c3.5,3.2,2.8,5.4,8.6,4.9c-0.2,5,0.8,7.4,5.4,8.7
			c1.1,0.3,3.8-0.7,4.7,0.1C846.2,519.5,845,521,845.6,522z M727.4,370.5c-3.4,0.5-4.7,4.3-8.6,3.5c1.1-11.6-10.3,2.2-13.4-7.7
			c-1.6-5,0.8-4.7-3.2-8.4c-2.6-2.4-4.7-4-8.3-2.4c-1.9-4.2,2.4-8.7,2.1-13c-4.2,0.4-1.8-3.6-3-6.3c-2.1-4.9-6.1-2-8.3-4.5
			c-0.1-0.2-0.3-0.3-0.4-0.5c-0.4-0.9-0.4-2-0.2-3.3c0.4-2.9,1.8-6.4,1.4-8.5c-0.4-1.9-1.2-2.8-1.8-4c-0.6-1.1-0.9-2.4-0.5-4.8
			c0.1-0.8,0.4-1.6,0.6-2.3c1.9-5.2,6.4-8.9,8.1-14.5c1.1-3.6,2.8-7.2,3-11c-3.1-0.5-5.5,0.1-7.3,1.2c-6.8,4.2-6.4,17.1-7,24
			c-0.3,3-0.6,5.7-0.8,8.3c-0.4,5.4-0.4,10.5,1.7,16.4c0,0.1,0.1,0.3,0.1,0.4c5.6,16.8,9.6,49.2,28.5,51.5c3.7,0.4,7.9-0.2,12.8-2.3
			c6.8-2.9,9-3.3,13.6,2.6c1.9,2.5,4.3,4.1,6.7,5.8c1,0.7,2.1,1.4,3.1,2.1c-3.1-4.5-5.8-12.8-9.1-16
			C734.8,374.3,731.3,370,727.4,370.5z M749.7,395.7l0.2-0.1c-1.2-1.1-2.4-2-3.6-2.8C747.4,394.3,748.5,395.4,749.7,395.7z
			 M749.9,395.6l0.2,0.2C750.9,395.2,751.8,394.3,749.9,395.6z M1053,562.8c-3.1,0.9-10.3-0.5-13-2c-5-2.8-3-4.9-4-9.5
			c-1.6-6.9-8.7-10.9-13.5-15.3c14.2-16.8-10.3-24.1-23.9-19.4c-11.1,3.9,13,15.6-3.6,15.7c-6.4,0-23.7-8.2-25.1,3.1
			c-2.9-0.4-21.9-7-15.4,2.1c2.8,3.9,27.2,12.1,19.3,20.1c-3,3-9.5-2.1-13.9,0.8c-1.9,1.2-3.4,4.5-5.4,5.2
			c-3.5,1.3-8.4-2.2-11.6-3.4c-21.5-8.3-3,10.2-12.1,16c-2.8,1.8-6.7-1.6-9.8-1.2c-4,0.5-2.7,1.9-5.2,3.7c-6.4,4.4-13-4.4-19.5-0.6
			c-5.1,3-1.1,8.2-8.6,9.8c-4.3,0.9-23-5.5-28.4-7.4l0,0c12.7,11.9,41.7,13.3,47.7,13.2c4.5-0.1,9-0.2,13.6-0.4
			c18.1-0.8,36.4-2.1,54.4-0.3c15.4,1.5,30.6,5.2,46.1,4.5c4.4-0.2,9.2-0.2,14.1-0.2c10.7-0.1,21.9-0.7,30.8-5.8
			c0.4-0.3,0.9-0.5,1.3-0.8c6.4-4.6,8.9-13.7,14.3-19.4c1.3-1.4,2.8-2.6,4.6-3.5c-5.8,1.9-12.7,7.1-18.2,3.3c0.2,0,1.5-0.5,2.1-0.6
			c-1.8-2.1,0.7-2.3,0.1-4.5c-0.8-3-3.6-6.4-7-7.5C1057.1,556.4,1057.3,561.5,1053,562.8z M905,126.1c-0.2,0.4-2.8,0.7-3.4,1.4
			c-1.2,1.2-2.9,5.8-3.5,7.3c-0.9,2.4-1.7,4.5,1.3,5.5c2.6,0.9,5.5-1.8,7.8-2.3c2.4-0.5,3.2-0.2,5.5,0.5c3.5,1.2,6.7,2,7,6.2
			c0.6,0.2,2.6,0.1,3,0.4c1.2,0.9,1.3,2.3,2.4,3.4c2.5,2.5,5.7,5.2,8.5,6.7c2.6,1.4,7.2,3.9,8.8,6c2.7,3.5-1.2,7.5,0.2,11.5
			c-3.3,1.9-8.7,4.7-3.3,7.2c2.3,1.1,3.3-0.2,5,2.2c0.7,0.9,1.6,3.4,1,4.3c-0.7,1.2-3.4,1-4.4,2.2c-1.6,2.1-0.7,1.7-0.2,3.7
			c0.2,0.9,1,1.4,1.3,2.1c0.2,0.4,0.2,0.9-0.2,1.5c-0.3,0.5-1.8,0.9-3.2,1.1c-0.9,0.1-1.7,0.2-2.1,0.2c0.6,0,1.2,0,1.7,0
			c3.7-0.2,6.6-1.9,8.7-3.2c1-0.7,1.9-1.4,2.6-2.2c2.3-2.5,3.6-5.6,6.1-7.8c2-1.8,4.6-1.4,6-4.2c1.9-4-0.5-6.8-2.7-9.9
			c-1.7-2.4-2.3-5-3.7-7.4c-1.7-2.9-5-4.2-7.1-6.7c6.6,4.3,12.5,8.1,16.7,11.4c9.2,7.2,8.6,13.6,6.4,20.8c2-1.4,5.1-2.5,8.9-3.1
			c3-0.5,5.8-1.5,8.3-2.7c-1.1-3.3-6.7-8.1-13.9-11.6c-7.9-3.8-11-21.4-20.5-26.5c-9.4-5-21.7-25.2-26.7-30.7s-14.8-8.2-14.8-8.2
			c-9.2-1.6-2.7-8.2,2.6-14.6c5.3-6.3-4.8-14-4.8-14s-1.6,1.1-0.3,7.8c0.7,2.9,0.4,4.8-0.3,6.1c-1.2,3.9-4,7.1-7.1,8.8
			c-4.6,2.6,15.9,23.8,21.1,28.1c4.4,3.7,15.9,18,19.1,22.1c-2-1.2-4.3-2.1-6.4-3.1c-0.2-0.1-0.3-0.1-0.5-0.2
			c-2.2-1-4.4-1.7-6.6-2.7c-2.1-0.9-4.2-1.9-6-3.5c-4.5-3.8-4.4-8.3-6.5-13.4c-4.2-10.3-11.2-12.9-21.1-16.5
			c-0.7-0.3-1.4-0.6-2.2-0.9c-0.2-0.1-0.4-0.2-0.6-0.3c-0.3-0.1-0.6-0.3-0.9-0.5c-0.9-0.5-1.7-1-2.6-1.5c-5.5-3.6-10.5-9-10.4-15
			c-1.5,0.2-3,2.7-3.5,4c-1.2,3.4-0.7,8.5,2.2,11.4c3.7,3.7,9.5,0.1,12.8,4.8c2,2.9,0.7,5.1,4.8,6.1c2.2,0.6,3.5-0.1,5.6,1.1
			C902.9,120.4,906.1,123.9,905,126.1z M921.5,54.8c3.1-3.6,1.6-9.7,4.3-12.9c1.7-2.1,2.6-1.3,4.4,0.4c2.5,2.4,1.9,4.5,5.7,2.1
			c5.5-3.4,12-9.4,18.2-3.1c2,2,5,16.9,7.9,16.7c0.2,0,0.5-0.1,0.7-0.3c0.6-4-0.9-8.9-0.6-13.2c0.1-2.4,1.8-5.3-0.5-7.7
			c-1.9-2-4.6-0.3-5.5-3.4c-0.8-2.8,3.2-4.4,0.2-6.9c-2-1.6-4.3-0.5-6,0.5c-1.9,1-6.7,6.5-8.7,5.5c-2.5-1.2,0.2-5.4-2.4-6.7
			c-4-2.1-5.4,2.4-7,4.5c-3.2,4.1-7.5-0.9-9.4,2.2c-1.3,2.1,1.4,3.5,1.1,5.5c-0.3,2.1-2.1,2-3.3,3.2c-2.8,2.5-1.9,5.2-3.1,8.6
			c-0.8,2.5-2.4,4.6-3.8,6.8c-0.7,1.1-2.2,2.4-3.1,3.8c-0.4,0.1-0.8,0.3-1.1,0.4c0,0.2,0.1,0.5,0.1,0.7c0.2-0.1,0.4-0.2,0.6-0.3
			c-0.1,0.2-0.1,0.4-0.2,0.7C914.6,61.2,918.5,58.3,921.5,54.8z M1109.7,13.4c1.6,0.6,2.1,2.8,3,4.2c1.4,2.1,3.4,9.1,5.6,9.8
			c1.8,0.6,5.7-1.4,7.4-1.9c8.3-2.4,3.5,5.8,6.5,10.6c1.2,1.9,2.4,4.2,4.7,5.1c2.2,0.8,4.2-0.6,6.3,0.3c8,3.4-2.1,6.6-3.2,9.1
			c-1.2,2.7,2.3,6.3,4.7,5.9c2.5-0.4,3.6-5.1,5.9-5.2c3.1-0.1,4.8,7,9.4,7.7c3.3,0.5,5.2-0.5,7.5,2.4c1.2,1.5,1.1,2.7,3.2,4.2
			c3.2,2.3,5.5,5.6,1.4,8.4c0.1,0.1,0.2,0.2,0.4,0.3c1.5,1.3,5,2,7.6,1.7c-0.4-1.1-0.7-2.3-0.9-3.5c-0.3-1.9-0.5-3.8-1-5.6
			c-1.2-4.3-5.1-8.1-7.6-11.6c-3.2-4.4-7.4-7.8-10.9-11.8c-2.8-3.2-5.2-6.5-8.2-9.4c-5.3-5.3-11.3-10.7-17.5-15
			c-3.2-2.3-6.7-3.7-10.3-4.9c-2.7-0.9-5.4-1.7-8.2-2.7c-5.1-1.8-12.6-3-18.1-5.6c2.9,2.4,1,4.9,3.3,7.4
			C1103.4,16.1,1106.9,12.4,1109.7,13.4z M1097.4,5.7c-0.2-0.1-0.3-0.2-0.4-0.4c-0.8-0.6-1.7-0.9-2.5-1.3l-0.3-0.2l0.1,0.1
			C1095.2,4.6,1096.3,5.2,1097.4,5.7z M1052.8-5.5c0.2,0,0.5,0.1,0.7,0.1c-0.5-0.2-1.1-0.3-1.8-0.3c0.2,0.1,0.5,0.1,0.7,0.2
			C1052.5-5.5,1052.6-5.5,1052.8-5.5z M1025.3-2.4c-3.6-4.4-8.6-1.4-8.6,3.9c-1.6-1.4-3.4-2.7-5.6-2.5c-3.8,5.8,9.5,10,6,16.3
			c-2.4,4.4-5.1,2-1.5,7.3l-0.5,0.6c-0.5,0.1-3.4-0.8-3.5-0.7c-1.9,1-1.2,3.8-1.3,5.9c-2.9-0.4-1.6,2.6-3.4,3.5
			c-1.9,0.9-5.4-2.6-7.6-0.7c-3.1,2.7,2.5,4.6,3.1,6.7c0.3,1.1-0.9,4-1.7,4.6c-1.7,1.4-0.8,0.4-2.3,0.4c-2.1,0-2.9-2.9-4.9,0.2
			c-0.8,1.3-0.2,2.1-0.2,3.4c0.1,2.2,0.6,1.9,0,3.7c-0.5,1.5-1.5,4.5-2.1,6.1c-1.5,3.7-5,2.2-7.1,5.4c-0.9,1.3,0,3.3-0.8,4.4
			c-0.7,0.9-2.7,1.5-3.5,1.3c0.1,0.1-0.1,0.1-0.3,0.2c0.7,0.3,1.5,0.4,2.2,0.3c2.6-0.3,5.3-2.5,7.1-3.9c8.1-6.2,19.5-11.4,24.4-20.7
			c6.1-11.6,13.4-23.4,16.2-36.1c1-4.4,14.3-12.5,21.4-13c0.3,0,0.6,0,0.8,0c-2.4-0.6-5.6-1.9-6.8-2.6c-2.7-1.4-2.8,2.5-5.6,2.3
			c-3.6-0.3-2.6-5.4-5.7-6.6C1026.9-15.2,1027.3-5.4,1025.3-2.4z M979.8,67.5c0,0-0.1-0.1-0.4-0.2C979.5,67.4,979.6,67.5,979.8,67.5
			"/>
	</g>
</g>
<g>
	<defs>
		<rect id="SVGID_00000068669066297939652830000012462062049402445495_" x="549.5" y="434.9" width="205" height="210"/>
	</defs>
	<clipPath id="SVGID_00000148645580351590095900000018410591273528055961_">
		<use xlink:href="#SVGID_00000068669066297939652830000012462062049402445495_"  style="overflow:visible;"/>
	</clipPath>
	<g style="clip-path:url(#SVGID_00000148645580351590095900000018410591273528055961_);">
		<defs>
			<filter id="Adobe_OpacityMaskFilter" filterUnits="userSpaceOnUse" x="549.5" y="434.9" width="205" height="210">
				<feColorMatrix  type="matrix" values="1 0 0 0 0  0 1 0 0 0  0 0 1 0 0  0 0 0 1 0"/>
			</filter>
		</defs>
		
			<mask maskUnits="userSpaceOnUse" x="549.5" y="434.9" width="205" height="210" id="a27c1c3058_00000168824234325473515780000007395432106377394816_">
			<g class="st9">
				<g transform="matrix(0.332792, 0, 0, 0.332278, 404.999983, 326.1397)">
					
						<image style="overflow:visible;enable-background:new    ;" width="462" height="474" xlink:href="E3F1C1033B7CE3A3.jpg"  transform="matrix(1.3333 0 0 1.3333 434.2776 327.1755)">
					</image>
				</g>
			</g>
		</mask>
		<g class="st10">
			<g transform="matrix(0.332792, 0, 0, 0.332278, 404.999983, 326.1397)">
				<g style="enable-background:new    ;">
					
						<image style="overflow:visible;" width="462" height="474" xlink:href="E3F1C1033B7CE3A6.jpg"  transform="matrix(1.3333 0 0 1.3333 434.2776 327.1755)">
					</image>
				</g>
			</g>
		</g>
	</g>
</g>
</svg>
