<?xml version="1.0" encoding="utf-8"?>
<!-- Generator: Adobe Illustrator 26.3.1, SVG Export Plug-In . SVG Version: 6.00 Build 0)  -->
<svg version="1.1" id="Ebene_1" xmlns="http://www.w3.org/2000/svg" xmlns:xlink="http://www.w3.org/1999/xlink" x="0px" y="0px"
	 width="416.3px" height="95.2px" viewBox="0 0 416.3 95.2" style="enable-background:new 0 0 416.3 95.2;" xml:space="preserve">
<style type="text/css">
	.st0{fill:#FF00FF;}
	.st1{fill:#00FFFF;}
	.st2{fill:#FFFFFF;}
</style>
<g>
	<g transform="translate(60.031102, 85.741336)">
		<g>
			<path class="st0" d="M31.9-8h-9.4c-0.8,0-1.3-0.2-1.7-0.5c-0.3-0.3-0.5-0.9-0.5-1.7v-3.3c-4.7-0.7-7.9-2.1-9.5-4.2
				s-2.4-4.7-2.4-7.7v-20.1c0-1.9,0.3-3.5,0.8-5.1c0.5-1.5,1.5-2.8,2.9-3.9c1.4-1.1,3.3-1.9,5.8-2.5s5.6-0.9,9.3-0.9
				c3.8,0,6.9,0.3,9.3,0.9c2.4,0.6,4.4,1.4,5.8,2.5c1.4,1.1,2.4,2.4,2.9,3.9s0.8,3.2,0.8,5.1v20c0,1.5-0.2,3-0.5,4.3
				c-0.4,1.3-1,2.5-1.9,3.5c-0.9,1-2.1,1.9-3.7,2.6s-3.5,1.2-5.9,1.6v3.3c0,0.8-0.2,1.3-0.5,1.7C33.2-8.2,32.6-8,31.9-8z M22.2-26.8
				c0,0.8,0.3,1.5,0.9,2s2,0.8,4.2,0.8s3.6-0.3,4.2-0.8c0.6-0.6,0.9-1.2,0.9-2v-16.5c0-0.8-0.3-1.4-0.9-2c-0.6-0.6-2-0.8-4.2-0.8
				s-3.6,0.3-4.2,0.8s-0.9,1.2-0.9,2C22.2-43.3,22.2-26.8,22.2-26.8z"/>
		</g>
	</g>
</g>
<g>
	<g transform="translate(93.532912, 85.741336)">
		<g>
			<path class="st0" d="M33.9-46.2v7.8h4.5c1.1,0,1.8-0.3,2.1-0.8c0.4-0.5,0.5-1.2,0.5-2v-2.1c0-0.8-0.2-1.5-0.5-2
				c-0.4-0.6-1.1-0.8-2.1-0.8h-4.5V-46.2z M31.7-13.5h-9.3c-0.8,0-1.3-0.2-1.7-0.5c-0.3-0.3-0.5-0.9-0.5-1.7V-55
				c0-0.8,0.2-1.3,0.5-1.6s0.9-0.5,1.7-0.5h20.2c4.5,0,7.6,0.9,9.4,2.8c1.7,1.9,2.5,4.3,2.5,7.3v2.8c0,1.7-0.3,3.1-0.8,4.3
				s-1.4,2.1-2.6,2.6c2.2,0.2,3.9,1.1,5.3,2.7c1.4,1.5,2,3.6,2,6.1v12.8c0,0.8-0.2,1.3-0.5,1.7c-0.3,0.3-0.8,0.5-1.6,0.5h-9.4
				c-0.8,0-1.3-0.2-1.7-0.5c-0.3-0.3-0.5-0.9-0.5-1.7V-25c0-0.9-0.2-1.5-0.5-2c-0.3-0.4-0.9-0.6-1.8-0.6h-8.5v11.9
				c0,0.8-0.2,1.3-0.5,1.7C33.1-13.7,32.5-13.5,31.7-13.5z"/>
		</g>
	</g>
</g>
<g>
	<g transform="translate(127.307469, 85.741336)">
		<g>
			<path class="st0" d="M31.9-29.1c-0.8,0-1.3-0.2-1.7-0.5c-0.3-0.3-0.5-0.9-0.5-1.7v-8.1c0-0.8,0.2-1.3,0.5-1.7
				c0.3-0.3,0.9-0.5,1.7-0.5h16.3c0.8,0,1.3,0.2,1.6,0.5s0.5,0.9,0.5,1.7v8.1c0,0.8-0.2,1.3-0.5,1.7c-0.3,0.3-0.9,0.5-1.6,0.5
				C48.2-29.1,31.9-29.1,31.9-29.1z"/>
		</g>
	</g>
</g>
<g>
	<g transform="translate(146.399406, 85.741336)">
		<g>
			<path class="st0" d="M66.9-13.5H52.1c-5,0-8.8-1-11.2-3c-2.4-2-3.7-5.1-3.7-9.3v-18.9c0-4.2,1.2-7.3,3.7-9.4
				c2.4-2,6.2-3.1,11.2-3.1h14.8c0.8,0,1.3,0.2,1.7,0.5c0.3,0.3,0.5,0.9,0.5,1.6v7.3c0,0.8-0.2,1.3-0.5,1.7
				c-0.3,0.3-0.9,0.5-1.7,0.5H54.7c-1.2,0-2.2,0.3-2.8,0.8c-0.6,0.5-0.9,1.2-0.9,2.2v14.4c0,1,0.3,1.7,0.9,2.2
				c0.6,0.7,1.6,0.9,2.8,0.9h12.2c0.8,0,1.3,0.2,1.7,0.5c0.3,0.3,0.5,0.9,0.5,1.7v7.2c0,0.8-0.2,1.3-0.5,1.7
				C68.2-13.7,67.7-13.5,66.9-13.5z"/>
		</g>
	</g>
</g>
<g>
	<g transform="translate(174.946405, 85.741336)">
		<g>
			<path class="st0" d="M84.3-24.9c0,1.9-0.3,3.6-0.8,5.1S82-17,80.6-15.9c-1.4,1.1-3.3,1.9-5.7,2.5s-5.6,0.9-9.3,0.9
				c-3.8,0-6.9-0.3-9.3-0.9c-2.5-0.6-4.4-1.4-5.8-2.5c-1.4-1.1-2.4-2.4-2.9-3.9s-0.8-3.2-0.8-5.1v-20.7c0-1.9,0.3-3.5,0.8-5.1
				c0.5-1.5,1.5-2.8,2.9-3.9c1.4-1.1,3.3-1.9,5.8-2.5s5.6-0.9,9.3-0.9c3.8,0,6.9,0.3,9.3,0.9s4.4,1.4,5.7,2.5
				c1.4,1.1,2.4,2.4,2.9,3.9s0.8,3.2,0.8,5.1V-24.9z M60.5-27.1c0,0.8,0.3,1.5,0.9,2c0.6,0.5,2,0.8,4.2,0.8c2.2,0,3.6-0.3,4.2-0.8
				s0.9-1.2,0.9-2v-16.3c0-0.8-0.3-1.4-0.9-2s-2-0.8-4.2-0.8c-2.2,0-3.6,0.3-4.2,0.8s-0.9,1.2-0.9,2C60.5-43.4,60.5-27.1,60.5-27.1z
				"/>
		</g>
	</g>
</g>
<g>
	<g transform="translate(208.448215, 85.741336)">
		<g>
			<path class="st0" d="M81.2-13.5H60.7c-0.8,0-1.3-0.2-1.7-0.5c-0.3-0.3-0.5-0.9-0.5-1.7V-55c0-0.8,0.2-1.3,0.5-1.6
				s0.9-0.5,1.7-0.5h20.4c5,0,8.8,1,11.2,3S96-49,96-44.8v18.9c0,4.2-1.2,7.3-3.7,9.3C89.9-14.5,86.2-13.5,81.2-13.5z M72.3-45.6
				V-25h7.2c1,0,1.7-0.2,2.1-0.7c0.5-0.5,0.7-1.2,0.7-2.2v-14.7c0-1-0.2-1.8-0.7-2.2c-0.5-0.5-1.2-0.7-2.1-0.7L72.3-45.6L72.3-45.6z
				"/>
		</g>
	</g>
</g>
<g>
	<g transform="translate(242.35914, 85.741336)">
		<g>
			<path class="st0" d="M100.1-13.5H72c-0.8,0-1.3-0.2-1.7-0.5c-0.3-0.3-0.5-0.9-0.5-1.7V-55c0-0.8,0.2-1.3,0.5-1.6
				c0.3-0.3,0.9-0.5,1.7-0.5h28.1c0.8,0,1.3,0.2,1.7,0.5c0.3,0.3,0.5,0.9,0.5,1.6v7.1c0,0.8-0.2,1.3-0.5,1.7
				c-0.3,0.3-0.9,0.5-1.7,0.5H83.4v4.7h11.8c0.8,0,1.3,0.2,1.6,0.5c0.3,0.3,0.5,0.9,0.5,1.7v6.5c0,0.8-0.2,1.3-0.5,1.7
				c-0.3,0.3-0.9,0.5-1.6,0.5H83.4v5.2h16.7c0.8,0,1.3,0.2,1.7,0.5c0.3,0.3,0.5,0.9,0.5,1.7v7.1c0,0.8-0.2,1.3-0.5,1.7
				C101.5-13.7,100.9-13.5,100.1-13.5z"/>
		</g>
	</g>
</g>
<g>
	<g transform="translate(62.40004, 83.532263)">
		<g>
			<path class="st1" d="M32.7-8.8h-9.3c-0.8,0-1.3-0.2-1.7-0.5c-0.3-0.3-0.5-0.9-0.5-1.7v-3.3c-4.7-0.7-7.9-2.1-9.5-4.2
				c-1.6-2.1-2.4-4.7-2.4-7.7v-20.1c0-1.9,0.3-3.5,0.8-5.1c0.5-1.5,1.5-2.8,2.9-3.9c1.4-1.1,3.3-1.9,5.8-2.5s5.6-0.9,9.3-0.9
				c3.8,0,6.9,0.3,9.3,0.9s4.4,1.4,5.8,2.5c1.4,1.1,2.4,2.4,2.9,3.9s0.8,3.2,0.8,5.1v20.1c0,1.5-0.2,3-0.5,4.3
				c-0.4,1.3-1,2.5-1.9,3.5c-0.9,1-2.1,1.9-3.7,2.6c-1.6,0.7-3.5,1.2-5.9,1.6v3.3c0,0.8-0.2,1.3-0.5,1.7C34-8.9,33.4-8.8,32.7-8.8z
				 M23-27.6c0,0.8,0.3,1.5,0.9,2s2,0.8,4.2,0.8s3.6-0.3,4.2-0.8c0.6-0.6,0.9-1.2,0.9-2v-16.5c0-0.8-0.3-1.4-0.9-2
				c-0.6-0.6-2-0.8-4.2-0.8s-3.6,0.3-4.2,0.8s-0.9,1.2-0.9,2C23-44.1,23-27.6,23-27.6z"/>
		</g>
	</g>
</g>
<g>
	<g transform="translate(95.90185, 83.532263)">
		<g>
			<path class="st1" d="M34.7-47v7.8h4.5c1.1,0,1.8-0.3,2.1-0.8c0.4-0.5,0.5-1.2,0.5-2v-2.1c0-0.8-0.2-1.5-0.5-2
				c-0.4-0.6-1.1-0.8-2.1-0.8h-4.5V-47z M32.5-14.2h-9.3c-0.8,0-1.3-0.2-1.7-0.5C21.2-15,21-15.6,21-16.4v-39.3
				c0-0.8,0.2-1.3,0.5-1.6s0.9-0.5,1.7-0.5h20.2c4.5,0,7.6,0.9,9.4,2.8c1.7,1.9,2.6,4.3,2.6,7.3v2.8c0,1.7-0.3,3.1-0.8,4.3
				S53.2-38.5,52-38c2.2,0.2,3.9,1.1,5.3,2.7c1.4,1.5,2,3.6,2,6.1v12.8c0,0.8-0.2,1.3-0.5,1.7c-0.3,0.3-0.9,0.5-1.6,0.5h-9.4
				c-0.8,0-1.3-0.2-1.7-0.5c-0.4-0.4-0.6-0.9-0.6-1.7v-9.3c0-0.9-0.2-1.5-0.5-2c-0.3-0.4-0.9-0.6-1.8-0.6h-8.5v11.9
				c0,0.8-0.2,1.3-0.5,1.7C33.9-14.4,33.3-14.2,32.5-14.2z"/>
		</g>
	</g>
</g>
<g>
	<g transform="translate(129.676407, 83.532263)">
		<g>
			<path class="st1" d="M32.7-29.8c-0.8,0-1.3-0.2-1.7-0.5c-0.3-0.3-0.5-0.9-0.5-1.7v-8.1c0-0.8,0.2-1.3,0.5-1.7
				c0.3-0.3,0.9-0.5,1.7-0.5H49c0.8,0,1.3,0.2,1.6,0.5s0.5,0.9,0.5,1.7v8.1c0,0.8-0.2,1.3-0.5,1.7c-0.3,0.3-0.9,0.5-1.6,0.5H32.7z"
				/>
		</g>
	</g>
</g>
<g>
	<g transform="translate(148.768344, 83.532263)">
		<g>
			<path class="st1" d="M67.7-14.2H52.9c-5,0-8.8-1-11.2-3c-2.4-2-3.7-5.1-3.7-9.3v-18.9c0-4.2,1.2-7.3,3.7-9.4
				c2.4-2,6.2-3.1,11.2-3.1h14.8c0.8,0,1.3,0.2,1.7,0.5c0.3,0.3,0.5,0.9,0.5,1.6v7.3c0,0.8-0.2,1.3-0.5,1.7
				c-0.3,0.3-0.9,0.5-1.7,0.5H55.5c-1.2,0-2.2,0.3-2.8,0.8c-0.6,0.5-0.9,1.2-0.9,2.2v14.4c0,1,0.3,1.7,0.9,2.2
				c0.6,0.5,1.5,0.7,2.8,0.7h12.2c0.8,0,1.3,0.2,1.7,0.5c0.3,0.3,0.5,0.9,0.5,1.7v7.2c0,0.8-0.2,1.3-0.5,1.7
				C69-14.4,68.4-14.2,67.7-14.2z"/>
		</g>
	</g>
</g>
<g>
	<g transform="translate(177.315343, 83.532263)">
		<g>
			<path class="st1" d="M85.1-25.7c0,1.9-0.3,3.6-0.8,5.1s-1.5,2.8-2.9,3.9s-3.3,1.9-5.7,2.5c-2.4,0.6-5.6,0.9-9.3,0.9
				c-3.8,0-6.9-0.3-9.3-0.9c-2.5-0.6-4.4-1.4-5.8-2.5c-1.4-1.1-2.4-2.4-2.9-3.9c-0.6-1.5-0.9-3.2-0.9-5.1v-20.7
				c0-1.9,0.3-3.5,0.8-5.1c0.5-1.5,1.5-2.8,2.9-3.9c1.4-1.1,3.3-1.9,5.8-2.5s5.6-0.9,9.3-0.9c3.8,0,6.9,0.3,9.3,0.9
				c2.4,0.6,4.4,1.4,5.7,2.5c1.4,1.1,2.4,2.4,2.9,3.9s0.8,3.2,0.8,5.1L85.1-25.7L85.1-25.7z M61.3-27.9c0,0.8,0.3,1.5,0.9,2
				c0.6,0.5,2,0.8,4.2,0.8c2.2,0,3.6-0.3,4.2-0.8c0.6-0.5,0.9-1.2,0.9-2v-16.3c0-0.8-0.3-1.4-0.9-2c-0.6-0.6-2-0.8-4.2-0.8
				s-3.6,0.3-4.2,0.8s-0.9,1.2-0.9,2C61.3-44.2,61.3-27.9,61.3-27.9z"/>
		</g>
	</g>
</g>
<g>
	<g transform="translate(210.817153, 83.532263)">
		<g>
			<path class="st1" d="M81.9-14.2H61.5c-0.8,0-1.3-0.2-1.7-0.5c-0.3-0.3-0.5-0.9-0.5-1.7v-39.3c0-0.8,0.2-1.3,0.5-1.6
				s0.9-0.5,1.7-0.5h20.4c5,0,8.8,1,11.2,3s3.7,5.1,3.7,9.3v18.9c0,4.2-1.2,7.3-3.7,9.3C90.7-15.2,87-14.2,81.9-14.2z M73.1-46.3
				v20.6h7.2c1,0,1.7-0.2,2.1-0.7c0.5-0.5,0.7-1.2,0.7-2.2v-14.7c0-1-0.2-1.8-0.7-2.2c-0.5-0.5-1.2-0.7-2.1-0.7L73.1-46.3L73.1-46.3
				z"/>
		</g>
	</g>
</g>
<g>
	<g transform="translate(244.728078, 83.532263)">
		<g>
			<path class="st1" d="M100.9-14.2H72.8c-0.8,0-1.3-0.2-1.7-0.5c-0.3-0.3-0.5-0.9-0.5-1.7v-39.3c0-0.8,0.2-1.3,0.5-1.6
				c0.3-0.3,0.9-0.5,1.7-0.5h28.1c0.8,0,1.3,0.2,1.7,0.5c0.3,0.3,0.5,0.9,0.5,1.6v7.1c0,0.8-0.2,1.3-0.5,1.7
				c-0.3,0.3-0.9,0.5-1.7,0.5H84.2v4.7H96c0.8,0,1.3,0.2,1.6,0.5c0.3,0.3,0.5,0.9,0.5,1.7v6.5c0,0.8-0.2,1.3-0.5,1.7
				c-0.3,0.3-0.9,0.5-1.6,0.5H84.2v5.2h16.7c0.8,0,1.3,0.2,1.7,0.5c0.3,0.3,0.5,0.9,0.5,1.7v7.1c0,0.8-0.2,1.3-0.5,1.7
				C102.3-14.4,101.7-14.2,100.9-14.2z"/>
		</g>
	</g>
</g>
<g>
	<g transform="translate(61.215571, 84.6368)">
		<g>
			<path class="st2" d="M32.3-8.4H23c-0.8,0-1.3-0.2-1.7-0.5c-0.3-0.3-0.5-0.9-0.5-1.7v-3.3c-4.7-0.7-7.9-2.1-9.5-4.2
				s-2.4-4.7-2.4-7.7v-20.1c0-1.9,0.3-3.5,0.8-5.1c0.5-1.5,1.5-2.8,2.9-3.9c1.4-1.1,3.3-1.9,5.8-2.5s5.6-0.9,9.3-0.9
				c3.8,0,6.9,0.3,9.3,0.9c2.4,0.6,4.4,1.4,5.7,2.5c1.4,1.1,2.4,2.4,2.9,3.9s0.8,3.2,0.8,5.1v20.1c0,1.5-0.2,3-0.5,4.3
				c-0.4,1.3-1,2.5-1.9,3.5c-0.9,1-2.1,1.9-3.7,2.6c-1.6,0.7-3.5,1.2-5.9,1.6v3.3c0,0.8-0.2,1.3-0.5,1.7C33.6-8.6,33-8.4,32.3-8.4z
				 M22.6-27.2c0,0.8,0.3,1.5,0.9,2s2,0.8,4.2,0.8s3.6-0.3,4.2-0.8c0.6-0.6,0.9-1.2,0.9-2v-16.5c0-0.8-0.3-1.4-0.9-2
				c-0.6-0.6-2-0.8-4.2-0.8s-3.6,0.3-4.2,0.8s-0.9,1.2-0.9,2V-27.2z"/>
		</g>
	</g>
</g>
<g>
	<g transform="translate(94.717381, 84.6368)">
		<g>
			<path class="st2" d="M34.3-46.6v7.8h4.5c1.1,0,1.8-0.3,2.1-0.8c0.4-0.5,0.5-1.2,0.5-2v-2.1c0-0.8-0.2-1.5-0.5-2
				c-0.4-0.6-1.1-0.8-2.1-0.8h-4.5V-46.6z M32.1-13.9h-9.3c-0.8,0-1.3-0.2-1.7-0.5c-0.3-0.3-0.5-0.9-0.5-1.7v-39.3
				c0-0.8,0.2-1.3,0.5-1.6s0.9-0.5,1.7-0.5H43c4.5,0,7.6,0.9,9.4,2.8c1.7,1.9,2.6,4.3,2.6,7.3v2.8c0,1.7-0.3,3.1-0.8,4.3
				s-1.4,2.1-2.6,2.6c2.1,0.3,3.9,1.2,5.2,2.7c1.4,1.5,2,3.6,2,6.1v12.8c0,0.8-0.2,1.3-0.5,1.7c-0.3,0.3-0.9,0.5-1.6,0.5h-9.4
				c-0.8,0-1.3-0.2-1.7-0.5c-0.3-0.3-0.5-0.9-0.5-1.7v-9.3c0-0.9-0.2-1.5-0.5-2c-0.3-0.4-0.9-0.6-1.8-0.6h-8.5v11.9
				c0,0.8-0.2,1.3-0.5,1.7C33.5-14,32.9-13.9,32.1-13.9z"/>
		</g>
	</g>
</g>
<g>
	<g transform="translate(128.491938, 84.6368)">
		<g>
			<path class="st2" d="M32.3-29.4c-0.8,0-1.3-0.2-1.7-0.5c-0.3-0.3-0.5-0.9-0.5-1.7v-8.1c0-0.8,0.2-1.3,0.5-1.7
				c0.3-0.3,0.9-0.5,1.7-0.5h16.3c0.8,0,1.3,0.2,1.6,0.5s0.5,0.9,0.5,1.7v8.1c0,0.8-0.2,1.3-0.5,1.7c-0.3,0.3-0.9,0.5-1.6,0.5
				C48.6-29.4,32.3-29.4,32.3-29.4z"/>
		</g>
	</g>
</g>
<g>
	<g transform="translate(147.583875, 84.6368)">
		<g>
			<path class="st2" d="M67.3-13.9H52.5c-5,0-8.8-1-11.2-3s-3.7-5.1-3.7-9.3v-18.9c0-4.2,1.2-7.3,3.7-9.4c2.4-2,6.2-3,11.2-3h14.8
				c0.8,0,1.3,0.2,1.7,0.5c0.3,0.3,0.5,0.9,0.5,1.6v7.3c0,0.8-0.2,1.3-0.5,1.7c-0.3,0.3-0.9,0.5-1.7,0.5H55.1
				c-1.2,0-2.2,0.3-2.8,0.8s-0.9,1.2-0.9,2.2v14.4c0,1,0.3,1.7,0.9,2.2s1.5,0.7,2.8,0.7h12.2c0.8,0,1.3,0.2,1.7,0.5
				c0.3,0.3,0.5,0.9,0.5,1.7v7.2c0,0.8-0.2,1.3-0.5,1.7C68.6-14,68-13.9,67.3-13.9z"/>
		</g>
	</g>
</g>
<g>
	<g transform="translate(176.130874, 84.6368)">
		<g>
			<path class="st2" d="M84.7-25.3c0,1.9-0.3,3.6-0.8,5.1s-1.5,2.8-2.9,3.9c-1.4,1.1-3.3,1.9-5.8,2.5c-2.4,0.6-5.6,0.9-9.3,0.9
				c-3.8,0-6.9-0.3-9.3-0.9c-2.5-0.6-4.4-1.4-5.8-2.5c-1.4-1.1-2.4-2.4-2.9-3.9s-0.8-3.2-0.8-5.1V-46c0-1.9,0.3-3.5,0.8-5.1
				c0.5-1.5,1.5-2.8,2.9-3.9c1.4-1.1,3.3-1.9,5.8-2.5s5.6-0.9,9.3-0.9c3.8,0,6.9,0.3,9.3,0.9s4.4,1.4,5.8,2.5
				c1.4,1.1,2.4,2.4,2.9,3.9s0.8,3.2,0.8,5.1V-25.3z M60.9-27.5c0,0.8,0.3,1.5,0.9,2s2,0.8,4.2,0.8c2.2,0,3.6-0.3,4.2-0.8
				s0.9-1.2,0.9-2v-16.3c0-0.8-0.3-1.4-0.9-2s-2-0.8-4.2-0.8c-2.2,0-3.6,0.3-4.2,0.8s-0.9,1.2-0.9,2C60.9-43.8,60.9-27.5,60.9-27.5z
				"/>
		</g>
	</g>
</g>
<g>
	<g transform="translate(209.632684, 84.6368)">
		<g>
			<path class="st2" d="M81.6-13.9H61.1c-0.8,0-1.3-0.2-1.7-0.5c-0.3-0.3-0.5-0.9-0.5-1.7v-39.3c0-0.8,0.2-1.3,0.5-1.6
				s0.9-0.5,1.7-0.5h20.4c5,0,8.8,1,11.2,3s3.7,5.1,3.7,9.3v18.9c0,4.2-1.2,7.3-3.7,9.3C90.3-14.9,86.6-13.9,81.6-13.9z M72.7-45.9
				v20.6h7.2c1,0,1.7-0.2,2.1-0.7c0.5-0.5,0.7-1.2,0.7-2.2v-14.7c0-1-0.2-1.8-0.7-2.2c-0.5-0.5-1.2-0.7-2.1-0.7L72.7-45.9L72.7-45.9
				z"/>
		</g>
	</g>
</g>
<g>
	<g transform="translate(243.543609, 84.6368)">
		<g>
			<path class="st2" d="M100.5-13.9H72.4c-0.8,0-1.3-0.2-1.7-0.5c-0.3-0.3-0.5-0.9-0.5-1.7v-39.3c0-0.8,0.2-1.3,0.5-1.6
				c0.3-0.3,0.9-0.5,1.7-0.5h28.1c0.8,0,1.3,0.2,1.7,0.5c0.3,0.3,0.5,0.9,0.5,1.6v7.1c0,0.8-0.2,1.3-0.5,1.7
				c-0.3,0.3-0.9,0.5-1.7,0.5H83.8v4.7h11.8c0.8,0,1.3,0.2,1.6,0.5c0.3,0.3,0.5,0.9,0.5,1.7v6.5c0,0.8-0.2,1.3-0.5,1.7
				c-0.3,0.3-0.9,0.5-1.6,0.5H83.8v5.2h16.7c0.8,0,1.3,0.2,1.7,0.5c0.3,0.3,0.5,0.9,0.5,1.7v7.1c0,0.8-0.2,1.3-0.5,1.7
				C101.9-14,101.3-13.9,100.5-13.9z"/>
		</g>
	</g>
</g>
</svg>
