<?xml version="1.0" encoding="utf-8"?>
<!-- Generator: Adobe Illustrator 26.3.1, SVG Export Plug-In . SVG Version: 6.00 Build 0)  -->
<svg version="1.1" id="Ebene_1" xmlns="http://www.w3.org/2000/svg" xmlns:xlink="http://www.w3.org/1999/xlink" x="0px" y="0px"
	 width="416.3px" height="95.2px" viewBox="0 0 416.3 95.2" style="enable-background:new 0 0 416.3 95.2;" xml:space="preserve">
<style type="text/css">
	.st0{fill:#FF00FF;}
	.st1{fill:#00FFFF;}
	.st2{fill:#FFFFFF;}
</style>
<g>
	<g transform="translate(119.691255, 85.741336)">
		<g>
			<path class="st0" d="M35.9-13h-9.4c-0.8,0-1.3-0.2-1.7-0.5c-0.3-0.3-0.5-0.9-0.5-1.7v-39.3c0-0.8,0.2-1.3,0.5-1.6
				c0.3-0.3,0.9-0.5,1.7-0.5h18.6c5.5,0,9.2,1.1,11.2,3.3c2,2.2,3,5,3,8.5v7.8c0,3.5-1,6.4-3,8.5c-2,2.2-5.8,3.3-11.2,3.3h-7v10.1
				c0,0.8-0.2,1.3-0.5,1.7C37.2-13.2,36.7-13,35.9-13z M37.9-45.3v9.1h5.5c1.2,0,1.9-0.3,2.3-0.9c0.4-0.6,0.6-1.3,0.6-2.1v-3.2
				c0-0.8-0.2-1.4-0.6-2s-1.1-0.9-2.3-0.9H37.9z"/>
		</g>
	</g>
</g>
<g>
	<g transform="translate(150.692931, 85.741336)">
		<g>
			<path class="st0" d="M35.9-13c-0.8,0-1.3-0.2-1.7-0.5c-0.3-0.3-0.5-0.9-0.5-1.7v-7.2c0-0.8,0.2-1.3,0.5-1.7
				c0.3-0.3,0.9-0.5,1.7-0.5h6V-45h-6c-0.8,0-1.3-0.2-1.7-0.5c-0.3-0.3-0.5-0.9-0.5-1.7v-7.3c0-0.8,0.2-1.3,0.5-1.6
				c0.3-0.3,0.9-0.5,1.7-0.5h25.8c0.8,0,1.3,0.2,1.7,0.5c0.3,0.3,0.5,0.9,0.5,1.6v7.3c0,0.8-0.2,1.3-0.5,1.7
				c-0.3,0.3-0.9,0.5-1.7,0.5h-5.9v20.4h5.9c0.8,0,1.3,0.2,1.7,0.5c0.3,0.3,0.5,0.9,0.5,1.7v7.2c0,0.8-0.2,1.3-0.5,1.7
				c-0.3,0.3-0.9,0.5-1.7,0.5C61.7-13,35.9-13,35.9-13z"/>
		</g>
	</g>
</g>
<g>
	<g transform="translate(178.194421, 85.741336)">
		<g>
			<path class="st0" d="M55.1-13H46c-0.8,0-1.3-0.2-1.7-0.5c-0.3-0.3-0.5-0.9-0.5-1.7v-39.3c0-0.8,0.2-1.3,0.5-1.6
				c0.3-0.3,0.9-0.5,1.7-0.5h6.3c0.8,0,1.4,0.1,2,0.4c0.6,0.2,1.1,0.7,1.6,1.3l11.8,13.5v-12.9c0-0.8,0.2-1.3,0.5-1.6
				c0.3-0.3,0.9-0.5,1.7-0.5H79c0.8,0,1.3,0.2,1.7,0.5c0.3,0.3,0.5,0.9,0.5,1.6V-15c0,0.8-0.2,1.3-0.5,1.7c-0.3,0.3-0.9,0.5-1.7,0.5
				h-9.1c-0.8,0-1.3-0.2-1.7-0.5c-0.3-0.3-0.5-0.9-0.5-1.7v-7.6L57.3-35.1v20c0,0.8-0.2,1.3-0.5,1.7C56.4-13.2,55.9-13,55.1-13z"/>
		</g>
	</g>
</g>
<g>
	<g transform="translate(122.060193, 83.532263)">
		<g>
			<path class="st1" d="M36.7-13.7h-9.4c-0.8,0-1.3-0.2-1.7-0.5c-0.3-0.3-0.5-0.9-0.5-1.7v-39.3c0-0.8,0.2-1.3,0.5-1.6
				c0.3-0.3,0.9-0.5,1.7-0.5h18.6c5.5,0,9.2,1.1,11.2,3.3c2,2.2,3,5,3,8.5v7.8c0,3.5-1,6.4-3,8.5c-2,2.2-5.8,3.3-11.2,3.3h-7v10.1
				c0,0.8-0.2,1.3-0.5,1.7C38-13.9,37.5-13.7,36.7-13.7z M38.7-46v9.1h5.5c1.2,0,1.9-0.3,2.3-0.9c0.4-0.6,0.6-1.3,0.6-2.1v-3.2
				c0-0.8-0.2-1.4-0.6-2S45.4-46,44.2-46C44.2-46,38.7-46,38.7-46z"/>
		</g>
	</g>
</g>
<g>
	<g transform="translate(153.061869, 83.532263)">
		<g>
			<path class="st1" d="M36.7-13.7c-0.8,0-1.3-0.2-1.7-0.5c-0.3-0.3-0.5-0.9-0.5-1.7v-7.2c0-0.8,0.2-1.3,0.5-1.7
				c0.3-0.3,0.9-0.5,1.7-0.5h6v-20.4h-6c-0.8,0-1.3-0.2-1.7-0.5c-0.3-0.3-0.5-0.9-0.5-1.7v-7.3c0-0.8,0.2-1.3,0.5-1.6
				c0.3-0.3,0.9-0.5,1.7-0.5h25.8c0.8,0,1.3,0.2,1.7,0.5c0.3,0.3,0.5,0.9,0.5,1.6v7.3c0,0.8-0.2,1.3-0.5,1.7
				c-0.3,0.3-0.9,0.5-1.7,0.5h-5.9v20.4h5.9c0.8,0,1.3,0.2,1.7,0.5c0.3,0.3,0.5,0.9,0.5,1.7v7.2c0,0.8-0.2,1.3-0.5,1.7
				c-0.3,0.3-0.9,0.5-1.7,0.5C62.5-13.7,36.7-13.7,36.7-13.7z"/>
		</g>
	</g>
</g>
<g>
	<g transform="translate(180.563359, 83.532263)">
		<g>
			<path class="st1" d="M55.9-13.7h-9.1c-0.8,0-1.3-0.2-1.7-0.5c-0.3-0.3-0.5-0.9-0.5-1.7v-39.3c0-0.8,0.2-1.3,0.5-1.6
				c0.3-0.3,0.9-0.5,1.7-0.5h6.3c0.8,0,1.4,0.1,2,0.4c0.6,0.2,1.1,0.7,1.6,1.3l11.8,13.5V-55c0-0.8,0.2-1.3,0.5-1.6
				c0.3-0.3,0.9-0.5,1.7-0.5h9.1c0.8,0,1.3,0.2,1.7,0.5c0.3,0.3,0.5,0.9,0.5,1.6v39.3c0,0.8-0.2,1.3-0.5,1.7
				c-0.3,0.3-0.9,0.5-1.7,0.5h-9.1c-0.8,0-1.3-0.2-1.7-0.5c-0.3-0.3-0.5-0.9-0.5-1.7v-7.5L58.1-35.9v20c0,0.8-0.2,1.3-0.5,1.7
				C57.2-13.9,56.6-13.7,55.9-13.7z"/>
		</g>
	</g>
</g>
<g>
	<g transform="translate(120.875724, 84.6368)">
		<g>
			<path class="st2" d="M36.3-13.4h-9.4c-0.8,0-1.3-0.2-1.7-0.5c-0.3-0.3-0.5-0.9-0.5-1.7v-39.3c0-0.8,0.2-1.3,0.5-1.6
				c0.3-0.3,0.9-0.5,1.7-0.5h18.6c5.5,0,9.2,1.1,11.2,3.3c2,2.2,3,5,3,8.5v7.8c0,3.5-1,6.4-3,8.5c-2,2.2-5.8,3.3-11.2,3.3h-7v10.1
				c0,0.8-0.2,1.3-0.5,1.7C37.6-13.5,37.1-13.4,36.3-13.4z M38.3-45.7v9.1h5.5c1.2,0,1.9-0.3,2.3-0.9c0.4-0.6,0.6-1.3,0.6-2.1v-3.2
				c0-0.8-0.2-1.4-0.6-2s-1.1-0.9-2.3-0.9C43.8-45.7,38.3-45.7,38.3-45.7z"/>
		</g>
	</g>
</g>
<g>
	<g transform="translate(151.8774, 84.6368)">
		<g>
			<path class="st2" d="M36.3-13.4c-0.8,0-1.3-0.2-1.7-0.5c-0.3-0.3-0.5-0.9-0.5-1.7v-7.2c0-0.8,0.2-1.3,0.5-1.7
				c0.3-0.3,0.9-0.5,1.7-0.5h6v-20.4h-6c-0.8,0-1.3-0.2-1.7-0.5c-0.3-0.3-0.5-0.9-0.5-1.7v-7.3c0-0.8,0.2-1.3,0.5-1.6
				c0.3-0.3,0.9-0.5,1.7-0.5h25.8c0.8,0,1.3,0.2,1.7,0.5c0.3,0.3,0.5,0.9,0.5,1.6v7.3c0,0.8-0.2,1.3-0.5,1.7
				c-0.3,0.3-0.9,0.5-1.7,0.5h-5.9V-25h5.9c0.8,0,1.3,0.2,1.7,0.5c0.3,0.3,0.5,0.9,0.5,1.7v7.2c0,0.8-0.2,1.3-0.5,1.7
				c-0.3,0.3-0.9,0.5-1.7,0.5H36.3z"/>
		</g>
	</g>
</g>
<g>
	<g transform="translate(179.37889, 84.6368)">
		<g>
			<path class="st2" d="M55.5-13.4h-9.1c-0.8,0-1.3-0.2-1.7-0.5c-0.3-0.3-0.5-0.9-0.5-1.7v-39.3c0-0.8,0.2-1.3,0.5-1.6
				c0.3-0.3,0.9-0.5,1.7-0.5h6.3c0.8,0,1.4,0.1,2,0.4c0.6,0.2,1.1,0.7,1.6,1.3l11.8,13.5v-12.9c0-0.8,0.2-1.3,0.5-1.6
				c0.3-0.3,0.9-0.5,1.7-0.5h9.1c0.8,0,1.3,0.2,1.7,0.5c0.3,0.3,0.5,0.9,0.5,1.6v39.3c0,0.8-0.2,1.3-0.5,1.7
				c-0.3,0.3-0.9,0.5-1.7,0.5h-9.1c-0.8,0-1.3-0.2-1.7-0.5c-0.3-0.3-0.5-0.9-0.5-1.7v-7.5L57.7-35.4v20c0,0.8-0.2,1.3-0.5,1.7
				C56.8-13.5,56.3-13.4,55.5-13.4z"/>
		</g>
	</g>
</g>
</svg>
