<?xml version="1.0" encoding="utf-8"?>
<!-- Generator: Adobe Illustrator 26.3.1, SVG Export Plug-In . SVG Version: 6.00 Build 0)  -->
<svg version="1.1" id="Ebene_1" xmlns="http://www.w3.org/2000/svg" xmlns:xlink="http://www.w3.org/1999/xlink" x="0px" y="0px"
	 width="416.3px" height="95.2px" viewBox="0 0 416.3 95.2" style="enable-background:new 0 0 416.3 95.2;" xml:space="preserve">
<style type="text/css">
	.st0{fill:#FF00FF;}
	.st1{fill:#00FFFF;}
	.st2{fill:#FFFFFF;}
</style>
<g>
	<g transform="translate(27.640479, 85.740868)">
		<g>
			<path class="st0" d="M25.9-13.9H-5c-0.8,0-1.3-0.2-1.7-0.5c-0.3-0.3-0.5-0.9-0.5-1.7v-39.3c0-0.8,0.2-1.3,0.5-1.6
				s0.9-0.5,1.7-0.5h9.4c0.8,0,1.3,0.2,1.7,0.5c0.3,0.3,0.5,0.9,0.5,1.6v30h8.3v-9.8c0-0.8,0.2-1.3,0.5-1.7c0.3-0.3,0.9-0.5,1.7-0.5
				h8.8c0.8,0,1.3,0.2,1.7,0.5c0.3,0.3,0.5,0.9,0.5,1.7v19.1c0,0.8-0.2,1.3-0.5,1.7C27.3-14.1,26.7-13.9,25.9-13.9z"/>
		</g>
	</g>
</g>
<g>
	<g transform="translate(59.233094, 85.740868)">
		<g>
			<path class="st0" d="M40.4-25.4c0,1.9-0.3,3.6-0.8,5.1s-1.5,2.8-2.9,3.9c-1.4,1.1-3.3,1.9-5.8,2.5c-2.4,0.6-5.6,0.9-9.3,0.9
				c-3.8,0-6.9-0.3-9.3-0.9c-2.5-0.6-4.4-1.4-5.8-2.5s-2.4-2.4-2.9-3.9s-0.8-3.2-0.8-5.1v-20.7c0-1.9,0.3-3.5,0.8-5.1
				c0.5-1.5,1.5-2.8,2.9-3.9s3.3-1.9,5.8-2.5s5.6-0.9,9.3-0.9c3.8,0,6.9,0.3,9.3,0.9s4.4,1.4,5.8,2.5s2.4,2.4,2.9,3.9
				s0.8,3.2,0.8,5.1C40.4-46.1,40.4-25.4,40.4-25.4z M16.5-27.6c0,0.8,0.3,1.5,0.9,2s2,0.8,4.2,0.8s3.6-0.3,4.2-0.8s0.9-1.2,0.9-2
				v-16.2c0-0.8-0.3-1.4-0.9-2s-2-0.8-4.2-0.8s-3.6,0.3-4.2,0.8s-0.9,1.2-0.9,2C16.5-43.8,16.5-27.6,16.5-27.6z"/>
		</g>
	</g>
</g>
<g>
	<g transform="translate(92.734904, 85.740868)">
		<g>
			<path class="st0" d="M34.8-13.9H15.7c-0.8,0-1.3-0.2-1.7-0.5c-0.3-0.3-0.5-0.9-0.5-1.7v-7.1c0-0.8,0.2-1.3,0.5-1.7
				c0.3-0.3,0.9-0.5,1.7-0.5H32c0.5,0,0.9-0.2,1.2-0.5c0.3-0.3,0.4-0.8,0.4-1.2c0-0.7-0.1-1.2-0.4-1.5s-0.7-0.5-1.2-0.5l-9.1-1.3
				c-2.8-0.4-5.1-1.3-6.8-2.8c-1.7-1.5-2.6-3.9-2.6-7.3v-6.4c0-3.4,1.1-6.1,3.3-7.9c2.2-1.8,5.3-2.8,9.2-2.8h17
				c0.8,0,1.3,0.2,1.7,0.5c0.3,0.3,0.5,0.9,0.5,1.6v7.2c0,0.8-0.2,1.3-0.5,1.7c-0.3,0.3-0.9,0.5-1.7,0.5H28.9
				c-0.5,0-0.9,0.2-1.2,0.5c-0.3,0.3-0.4,0.8-0.4,1.3s0.1,1,0.4,1.4s0.7,0.6,1.2,0.6l9,1.2c2.8,0.4,5.1,1.3,6.8,2.8
				c1.7,1.4,2.6,3.9,2.6,7.3v6.4c0,3.4-1.1,6.1-3.4,7.9C41.8-14.8,38.7-13.9,34.8-13.9z"/>
		</g>
	</g>
</g>
<g>
	<g transform="translate(132.509781, 85.740868)">
		<g>
			<path class="st0" d="M61.2-13.9H42.1c-5,0-8.8-1-11.2-3s-3.7-5.1-3.7-9.3v-18.9c0-4.2,1.2-7.3,3.7-9.3c2.4-2,6.2-3,11.2-3h15.2
				c0.8,0,1.3,0.2,1.6,0.5s0.5,0.9,0.5,1.6v7.3c0,0.8-0.2,1.3-0.5,1.7c-0.3,0.3-0.9,0.5-1.6,0.5H44.7c-1.3,0-2.2,0.3-2.8,0.8
				c-0.6,0.4-0.9,1.2-0.9,2.2v14.5c0,1,0.2,1.7,0.7,2.2s1.2,0.7,2.1,0.7h5.9v-9.4c0-0.8,0.2-1.3,0.5-1.6s0.9-0.5,1.7-0.5h9.4
				c0.8,0,1.3,0.2,1.6,0.5s0.5,0.9,0.5,1.6v18.7c0,0.8-0.2,1.3-0.5,1.7C62.5-14.1,62-13.9,61.2-13.9z"/>
		</g>
	</g>
</g>
<g>
	<g transform="translate(164.693334, 85.740868)">
		<g>
			<path class="st0" d="M68.9-13.9H40.8c-0.8,0-1.3-0.2-1.7-0.5c-0.3-0.3-0.5-0.9-0.5-1.7v-39.3c0-0.8,0.2-1.3,0.5-1.6
				s0.9-0.5,1.7-0.5h28.1c0.8,0,1.3,0.2,1.7,0.5c0.3,0.3,0.5,0.9,0.5,1.6v7.1c0,0.8-0.2,1.3-0.5,1.7c-0.3,0.3-0.9,0.5-1.7,0.5H52.2
				v4.7H64c0.8,0,1.3,0.2,1.6,0.5c0.3,0.3,0.5,0.9,0.5,1.7v6.5c0,0.8-0.2,1.3-0.5,1.7c-0.3,0.3-0.9,0.5-1.6,0.5H52.2v5.2h16.7
				c0.8,0,1.3,0.2,1.7,0.5c0.3,0.3,0.5,0.9,0.5,1.7v7.1c0,0.8-0.2,1.3-0.5,1.7C70.2-14.1,69.7-13.9,68.9-13.9z"/>
		</g>
	</g>
</g>
<g>
	<g transform="translate(194.422211, 85.740868)">
		<g>
			<path class="st0" d="M60.1-13.9h-9.4c-0.8,0-1.3-0.2-1.7-0.5c-0.3-0.3-0.5-0.9-0.5-1.7v-39.3c0-0.8,0.2-1.3,0.5-1.6
				s0.9-0.5,1.7-0.5h9.4c0.8,0,1.3,0.2,1.7,0.5c0.3,0.3,0.5,0.9,0.5,1.6v13.1h10.1v-13.1c0-0.8,0.2-1.3,0.5-1.6s0.9-0.5,1.7-0.5H84
				c0.8,0,1.3,0.2,1.7,0.5c0.3,0.3,0.5,0.9,0.5,1.6v39.3c0,0.8-0.2,1.3-0.5,1.7c-0.3,0.3-0.9,0.5-1.7,0.5h-9.4
				c-0.8,0-1.3-0.2-1.7-0.5c-0.3-0.3-0.5-0.9-0.5-1.7v-13.5H62.3v13.5c0,0.8-0.2,1.3-0.5,1.7C61.4-14.1,60.9-13.9,60.1-13.9z"/>
		</g>
	</g>
</g>
<g>
	<g transform="translate(228.924074, 85.740868)">
		<g>
			<path class="st0" d="M80.6-13.9h-9.8c-0.8,0-1.3-0.2-1.7-0.5c-0.3-0.3-0.5-0.9-0.5-1.7v-29.7h-8.9c-0.8,0-1.3-0.2-1.7-0.5
				c-0.3-0.3-0.5-0.9-0.5-1.7v-7.3c0-0.8,0.2-1.3,0.5-1.6s0.9-0.5,1.7-0.5h32c0.8,0,1.3,0.2,1.7,0.5c0.3,0.3,0.5,0.9,0.5,1.6v7.3
				c0,0.8-0.2,1.3-0.5,1.7c-0.3,0.3-0.9,0.5-1.7,0.5h-8.9V-16c0,0.8-0.2,1.3-0.5,1.7C81.9-14.1,81.4-13.9,80.6-13.9z"/>
		</g>
	</g>
</g>
<g>
	<g transform="translate(258.743873, 85.740868)">
		<g>
			<path class="st0" d="M81-34.8h-8.7c-1,0-1.7-0.1-2-0.4c-0.3-0.3-0.5-1-0.5-2L69.3-55c0-1.1,0.1-1.7,0.4-2s1-0.5,2-0.5h10
				c1,0,1.7,0.2,2,0.5s0.4,1,0.4,2l-0.5,17.8c0,1.1-0.2,1.7-0.5,2C82.7-35,82-34.8,81-34.8z"/>
		</g>
	</g>
</g>
<g>
	<g transform="translate(274.92655, 85.740868)">
		<g>
			<path class="st0" d="M95.6-13.9H76.4c-0.8,0-1.3-0.2-1.7-0.5c-0.3-0.3-0.5-0.9-0.5-1.7v-7.1c0-0.8,0.2-1.3,0.5-1.7
				c0.3-0.3,0.9-0.5,1.7-0.5h16.3c0.5,0,0.9-0.2,1.2-0.5c0.3-0.3,0.4-0.8,0.4-1.2c0-0.7-0.1-1.2-0.4-1.5s-0.7-0.5-1.2-0.5l-9.1-1.3
				c-2.8-0.4-5.1-1.3-6.8-2.8c-1.7-1.5-2.6-3.9-2.6-7.3v-6.4c0-3.4,1.1-6.1,3.3-7.9c2.2-1.8,5.3-2.8,9.2-2.8h17
				c0.8,0,1.3,0.2,1.7,0.5c0.3,0.3,0.5,0.9,0.5,1.6v7.2c0,0.8-0.2,1.3-0.5,1.7c-0.3,0.3-0.9,0.5-1.7,0.5H89.6
				c-0.5,0-0.9,0.2-1.2,0.5c-0.3,0.3-0.4,0.8-0.4,1.3s0.1,1,0.4,1.4s0.7,0.6,1.2,0.6l9,1.2c2.8,0.4,5.1,1.3,6.8,2.8
				c1.7,1.4,2.6,3.9,2.6,7.3v6.4c0,3.4-1.1,6.1-3.4,7.9C102.5-14.8,99.5-13.9,95.6-13.9z"/>
		</g>
	</g>
</g>
<g>
	<g transform="translate(30.009417, 83.531795)">
		<g>
			<path class="st1" d="M26.7-14.6H-4.2c-0.8,0-1.3-0.2-1.7-0.5c-0.3-0.3-0.5-0.9-0.5-1.7v-39.3c0-0.8,0.2-1.3,0.5-1.6
				s0.9-0.5,1.7-0.5h9.5c0.8,0,1.3,0.2,1.7,0.5c0.3,0.3,0.5,0.9,0.5,1.6v30h8.3v-9.8c0-0.8,0.2-1.3,0.5-1.7c0.3-0.3,0.9-0.5,1.7-0.5
				h8.8c0.8,0,1.3,0.2,1.7,0.5c0.3,0.3,0.5,0.9,0.5,1.7v19.1c0,0.8-0.2,1.3-0.5,1.7C28-14.8,27.5-14.6,26.7-14.6z"/>
		</g>
	</g>
</g>
<g>
	<g transform="translate(61.602032, 83.531795)">
		<g>
			<path class="st1" d="M41.2-26.1c0,1.9-0.3,3.6-0.8,5.1s-1.5,2.8-2.9,3.9c-1.4,1.1-3.3,1.9-5.8,2.5c-2.4,0.6-5.6,0.9-9.3,0.9
				c-3.8,0-6.9-0.3-9.3-0.9c-2.5-0.6-4.4-1.4-5.8-2.5S4.9-19.5,4.4-21s-0.8-3.2-0.8-5.1v-20.7c0-1.9,0.3-3.5,0.8-5.1
				c0.5-1.5,1.5-2.8,2.9-3.9c1.4-1.1,3.3-1.9,5.8-2.5c2.5-0.6,5.6-0.9,9.3-0.9c3.8,0,6.9,0.3,9.3,0.9c2.4,0.6,4.4,1.4,5.8,2.5
				c1.4,1.1,2.4,2.4,2.9,3.9c0.5,1.5,0.8,3.2,0.8,5.1V-26.1z M17.3-28.3c0,0.8,0.3,1.5,0.9,2s2,0.8,4.2,0.8s3.6-0.3,4.2-0.8
				s0.9-1.2,0.9-2v-16.3c0-0.8-0.3-1.4-0.9-2s-2-0.8-4.2-0.8s-3.6,0.3-4.2,0.8s-0.9,1.2-0.9,2V-28.3z"/>
		</g>
	</g>
</g>
<g>
	<g transform="translate(95.103842, 83.531795)">
		<g>
			<path class="st1" d="M35.6-14.6H16.5c-0.8,0-1.3-0.2-1.7-0.5c-0.3-0.4-0.5-1-0.5-1.7v-7.1c0-0.8,0.2-1.3,0.5-1.7
				c0.3-0.3,0.9-0.5,1.7-0.5h16.3c0.5,0,0.9-0.2,1.2-0.5c0.3-0.3,0.4-0.8,0.4-1.2c0-0.7-0.1-1.2-0.4-1.5s-0.7-0.5-1.2-0.5l-9.1-1.3
				c-2.8-0.4-5.1-1.3-6.8-2.8s-2.6-4-2.6-7.4v-6.4c0-3.4,1.1-6.1,3.3-7.9s5.3-2.8,9.2-2.8h17c0.8,0,1.3,0.2,1.7,0.5
				c0.3,0.3,0.5,0.9,0.5,1.6v7.2c0,0.8-0.2,1.3-0.5,1.7c-0.3,0.3-0.9,0.5-1.7,0.5H29.7c-0.5,0-0.9,0.2-1.2,0.5
				c-0.3,0.3-0.4,0.8-0.4,1.3s0.1,1,0.4,1.4s0.7,0.6,1.2,0.6l9,1.2c2.8,0.4,5.1,1.3,6.8,2.8c1.7,1.4,2.6,3.9,2.6,7.3v6.4
				c0,3.4-1.1,6.1-3.4,7.9C42.6-15.6,39.5-14.6,35.6-14.6z"/>
		</g>
	</g>
</g>
<g>
	<g transform="translate(134.878719, 83.531795)">
		<g>
			<path class="st1" d="M62-14.6H42.9c-5,0-8.8-1-11.2-3S28-22.7,28-26.9v-18.9c0-4.2,1.2-7.3,3.7-9.3c2.4-2,6.2-3,11.2-3h15.2
				c0.8,0,1.3,0.2,1.6,0.5s0.5,0.9,0.5,1.6v7.3c0,0.8-0.2,1.3-0.5,1.7c-0.3,0.3-0.9,0.5-1.6,0.5H45.5c-1.3,0-2.2,0.3-2.8,0.8
				s-0.9,1.2-0.9,2.2V-29c0,1,0.2,1.7,0.7,2.2s1.2,0.7,2.1,0.7h5.9v-9.5c0-0.8,0.2-1.3,0.5-1.6s0.9-0.5,1.7-0.5h9.4
				c0.8,0,1.3,0.2,1.6,0.5s0.5,0.9,0.5,1.6v18.8c0,0.8-0.2,1.3-0.5,1.7C63.3-14.8,62.8-14.6,62-14.6z"/>
		</g>
	</g>
</g>
<g>
	<g transform="translate(167.062272, 83.531795)">
		<g>
			<path class="st1" d="M69.7-14.6H41.6c-0.8,0-1.3-0.2-1.7-0.5c-0.3-0.3-0.5-0.9-0.5-1.7v-39.3c0-0.8,0.2-1.3,0.5-1.6
				s0.9-0.5,1.7-0.5h28.1c0.8,0,1.3,0.2,1.7,0.5c0.3,0.3,0.5,0.9,0.5,1.6v7.1c0,0.8-0.2,1.3-0.5,1.7c-0.3,0.3-0.9,0.5-1.7,0.5H53
				v4.7h11.8c0.8,0,1.3,0.2,1.6,0.5c0.3,0.3,0.5,0.9,0.5,1.7v6.5c0,0.8-0.2,1.3-0.5,1.7c-0.3,0.3-0.9,0.5-1.6,0.5H53v5.2h16.7
				c0.8,0,1.3,0.2,1.7,0.5c0.3,0.3,0.5,0.9,0.5,1.7v7.1c0,0.8-0.2,1.3-0.5,1.7C71-14.8,70.4-14.6,69.7-14.6z"/>
		</g>
	</g>
</g>
<g>
	<g transform="translate(196.791149, 83.531795)">
		<g>
			<path class="st1" d="M60.9-14.6h-9.4c-0.8,0-1.3-0.2-1.7-0.5c-0.3-0.4-0.5-1-0.5-1.7v-39.3c0-0.8,0.2-1.3,0.5-1.6
				s0.9-0.5,1.7-0.5h9.4c0.8,0,1.3,0.2,1.7,0.5c0.3,0.3,0.5,0.9,0.5,1.6V-43h10.1v-13.1c0-0.8,0.2-1.3,0.5-1.6s0.9-0.5,1.7-0.5h9.4
				c0.8,0,1.3,0.2,1.7,0.5c0.3,0.3,0.5,0.9,0.5,1.6v39.3c0,0.8-0.2,1.3-0.5,1.7c-0.3,0.3-0.9,0.5-1.7,0.5h-9.4
				c-0.8,0-1.3-0.2-1.7-0.5c-0.3-0.3-0.5-0.9-0.5-1.7v-13.5H63.1v13.5c0,0.8-0.2,1.3-0.5,1.7C62.2-14.8,61.6-14.6,60.9-14.6z"/>
		</g>
	</g>
</g>
<g>
	<g transform="translate(231.293012, 83.531795)">
		<g>
			<path class="st1" d="M81.4-14.6h-9.8c-0.8,0-1.3-0.2-1.7-0.5c-0.3-0.3-0.5-0.9-0.5-1.7v-29.8h-8.9c-0.8,0-1.3-0.2-1.7-0.5
				c-0.3-0.3-0.5-0.9-0.5-1.7v-7.3c0-0.8,0.2-1.3,0.5-1.6s0.9-0.5,1.7-0.5h32c0.8,0,1.3,0.2,1.7,0.5c0.3,0.3,0.5,0.9,0.5,1.6v7.3
				c0,0.8-0.2,1.3-0.5,1.7c-0.3,0.3-0.9,0.5-1.7,0.5h-8.9v29.8c0,0.8-0.2,1.3-0.5,1.7C82.7-14.8,82.2-14.6,81.4-14.6z"/>
		</g>
	</g>
</g>
<g>
	<g transform="translate(261.112811, 83.531795)">
		<g>
			<path class="st1" d="M81.8-35.6h-8.7c-1,0-1.7-0.1-2-0.4c-0.3-0.3-0.5-1-0.5-2L70-55.8c0-1.1,0.1-1.7,0.4-2c0.3-0.3,1-0.5,2-0.5
				h10c1,0,1.7,0.2,2,0.5c0.3,0.3,0.4,1,0.4,2L84.3-38c0,1.1-0.2,1.7-0.5,2S82.8-35.6,81.8-35.6z"/>
		</g>
	</g>
</g>
<g>
	<g transform="translate(277.295488, 83.531795)">
		<g>
			<path class="st1" d="M96.4-14.6H77.2c-0.8,0-1.3-0.2-1.7-0.5C75.2-15.4,75-16,75-16.8v-7.1c0-0.8,0.2-1.3,0.5-1.7
				c0.3-0.3,0.9-0.5,1.7-0.5h16.3c0.5,0,0.9-0.2,1.2-0.5c0.3-0.3,0.4-0.8,0.4-1.2c0-0.7-0.1-1.2-0.4-1.5s-0.7-0.5-1.2-0.5l-9.1-1.3
				c-2.8-0.4-5.1-1.3-6.8-2.8c-1.7-1.5-2.6-3.9-2.6-7.3v-6.4c0-3.4,1.1-6.1,3.3-7.9c2.2-1.8,5.3-2.8,9.2-2.8h17
				c0.8,0,1.3,0.2,1.7,0.5c0.3,0.3,0.5,0.9,0.5,1.6v7.2c0,0.8-0.2,1.3-0.5,1.7c-0.3,0.3-0.9,0.5-1.7,0.5H90.4
				c-0.5,0-0.9,0.2-1.2,0.5c-0.3,0.3-0.4,0.8-0.4,1.3s0.1,1,0.4,1.4s0.7,0.6,1.2,0.6l9,1.2c2.8,0.4,5.1,1.3,6.8,2.8
				c1.7,1.4,2.6,3.9,2.6,7.3v6.4c0,3.4-1.1,6.1-3.4,7.9C103.3-15.6,100.3-14.6,96.4-14.6z"/>
		</g>
	</g>
</g>
<g>
	<g transform="translate(28.824948, 84.636331)">
		<g>
			<path class="st2" d="M26.3-14.3H-4.6c-0.8,0-1.3-0.2-1.7-0.5c-0.3-0.3-0.5-0.9-0.5-1.7v-39.3c0-0.8,0.2-1.3,0.5-1.6
				s0.9-0.5,1.7-0.5h9.4c0.8,0,1.3,0.2,1.7,0.5C6.8-57.1,7-56.5,7-55.8v30h8.3v-9.8c0-0.8,0.2-1.3,0.5-1.7c0.3-0.3,0.9-0.5,1.7-0.5
				h8.8c0.8,0,1.3,0.2,1.7,0.5c0.3,0.3,0.5,0.9,0.5,1.7v19.1c0,0.8-0.2,1.3-0.5,1.7C27.7-14.4,27.1-14.3,26.3-14.3z"/>
		</g>
	</g>
</g>
<g>
	<g transform="translate(60.417563, 84.636331)">
		<g>
			<path class="st2" d="M40.8-25.7c0,1.9-0.3,3.6-0.8,5.1s-1.5,2.8-2.9,3.9c-1.4,1.1-3.3,1.9-5.8,2.5c-2.4,0.6-5.6,0.9-9.3,0.9
				c-3.8,0-6.9-0.3-9.3-0.9c-2.5-0.7-4.4-1.5-5.8-2.6S4.5-19.2,4-20.7s-0.8-3.2-0.8-5.1v-20.7c0-1.9,0.3-3.5,0.8-5.1
				c0.5-1.5,1.5-2.8,2.9-3.9s3.3-1.9,5.8-2.5c2.4-0.5,5.6-0.8,9.3-0.8c3.8,0,6.9,0.3,9.3,0.9s4.4,1.4,5.8,2.5
				c1.4,1.1,2.4,2.4,2.9,3.9c0.5,1.5,0.8,3.2,0.8,5.1V-25.7z M16.9-27.9c0,0.8,0.3,1.5,0.9,2c0.6,0.5,2,0.8,4.2,0.8s3.6-0.3,4.2-0.8
				s0.9-1.2,0.9-2v-16.3c0-0.8-0.3-1.4-0.9-2S24.2-47,22-47s-3.6,0.3-4.2,0.8s-0.9,1.2-0.9,2V-27.9z"/>
		</g>
	</g>
</g>
<g>
	<g transform="translate(93.919373, 84.636331)">
		<g>
			<path class="st2" d="M35.2-14.3H16.1c-0.8,0-1.3-0.2-1.7-0.5c-0.3-0.3-0.5-0.9-0.5-1.7v-7.1c0-0.8,0.2-1.3,0.5-1.7
				c0.3-0.3,0.9-0.5,1.7-0.5h16.3c0.5,0,0.9-0.2,1.2-0.5c0.3-0.3,0.4-0.8,0.4-1.2c0-0.7-0.1-1.2-0.4-1.5s-0.7-0.5-1.2-0.5l-9.1-1.3
				c-2.8-0.4-5.1-1.3-6.8-2.8s-2.6-3.9-2.6-7.3v-6.4c0-3.4,1.1-6.1,3.3-7.9s5.3-2.8,9.2-2.8h17c0.8,0,1.3,0.2,1.7,0.5
				c0.3,0.3,0.5,0.9,0.5,1.6v7.2c0,0.8-0.2,1.3-0.5,1.7c-0.3,0.3-0.9,0.5-1.7,0.5H29.3c-0.5,0-0.9,0.2-1.2,0.5
				c-0.3,0.3-0.4,0.8-0.4,1.3s0.1,1,0.4,1.4s0.7,0.6,1.2,0.6l9,1.2c2.8,0.4,5.1,1.3,6.8,2.8c1.7,1.4,2.6,3.9,2.6,7.3v6.4
				c0,3.4-1.1,6.1-3.4,7.9C42.2-15.2,39.1-14.3,35.2-14.3z"/>
		</g>
	</g>
</g>
<g>
	<g transform="translate(133.69425, 84.636331)">
		<g>
			<path class="st2" d="M61.6-14.3H42.5c-5,0-8.8-1-11.2-3s-3.7-5.1-3.7-9.3v-18.9c0-4.2,1.2-7.3,3.7-9.3c2.4-2,6.2-3,11.2-3h15.2
				c0.8,0,1.3,0.2,1.6,0.5s0.5,0.9,0.5,1.6v7.3c0,0.8-0.2,1.3-0.5,1.7c-0.3,0.3-0.9,0.5-1.6,0.5H45.1c-1.3,0-2.2,0.3-2.8,0.8
				s-0.9,1.2-0.9,2.2v14.5c0,1,0.2,1.7,0.7,2.2s1.2,0.7,2.1,0.7h5.9v-9.5c0-0.8,0.2-1.3,0.5-1.6s0.9-0.5,1.7-0.5h9.4
				c0.8,0,1.3,0.2,1.6,0.5s0.5,0.9,0.5,1.6v18.7c0,0.8-0.2,1.3-0.5,1.7C62.9-14.4,62.4-14.3,61.6-14.3z"/>
		</g>
	</g>
</g>
<g>
	<g transform="translate(165.877803, 84.636331)">
		<g>
			<path class="st2" d="M69.3-14.3H41.2c-0.8,0-1.3-0.2-1.7-0.5c-0.3-0.3-0.5-0.9-0.5-1.7v-39.3c0-0.8,0.2-1.3,0.5-1.6
				s0.9-0.5,1.7-0.5h28.1c0.8,0,1.3,0.2,1.7,0.5c0.3,0.3,0.5,0.9,0.5,1.6v7.1c0,0.8-0.2,1.3-0.5,1.7c-0.3,0.3-0.9,0.5-1.7,0.5H52.6
				v4.7h11.8c0.8,0,1.3,0.2,1.6,0.5c0.3,0.3,0.5,0.9,0.5,1.7v6.5c0,0.8-0.2,1.3-0.5,1.7c-0.3,0.3-0.9,0.5-1.6,0.5H52.6v5.2h16.7
				c0.8,0,1.3,0.2,1.7,0.5c0.3,0.3,0.5,0.9,0.5,1.7v7.1c0,0.8-0.2,1.3-0.5,1.7C70.6-14.4,70.1-14.3,69.3-14.3z"/>
		</g>
	</g>
</g>
<g>
	<g transform="translate(195.60668, 84.636331)">
		<g>
			<path class="st2" d="M60.5-14.3h-9.4c-0.8,0-1.3-0.2-1.7-0.5c-0.3-0.3-0.5-0.9-0.5-1.7v-39.3c0-0.8,0.2-1.3,0.5-1.6
				s0.9-0.5,1.7-0.5h9.4c0.8,0,1.3,0.2,1.7,0.5c0.3,0.3,0.5,0.9,0.5,1.6v13.1h10.1v-13.1c0-0.8,0.2-1.3,0.5-1.6s0.9-0.5,1.7-0.5h9.3
				c0.8,0,1.3,0.2,1.7,0.5c0.3,0.3,0.5,0.9,0.5,1.6v39.3c0,0.8-0.2,1.3-0.5,1.7c-0.3,0.3-0.9,0.5-1.7,0.5h-9.4
				c-0.8,0-1.3-0.2-1.7-0.5c-0.3-0.3-0.5-0.9-0.5-1.7V-30h-10v13.5c0,0.8-0.2,1.3-0.5,1.7C61.8-14.4,61.2-14.3,60.5-14.3z"/>
		</g>
	</g>
</g>
<g>
	<g transform="translate(230.108543, 84.636331)">
		<g>
			<path class="st2" d="M81-14.3h-9.8c-0.8,0-1.3-0.2-1.7-0.5c-0.3-0.3-0.5-0.9-0.5-1.7v-29.8h-8.9c-0.8,0-1.3-0.2-1.7-0.5
				c-0.3-0.3-0.5-0.9-0.5-1.7v-7.3c0-0.8,0.2-1.3,0.5-1.6s0.9-0.5,1.7-0.5h32c0.8,0,1.3,0.2,1.7,0.5c0.3,0.3,0.5,0.9,0.5,1.6v7.3
				c0,0.8-0.2,1.3-0.5,1.7c-0.3,0.3-0.9,0.5-1.7,0.5h-8.9v29.8c0,0.8-0.2,1.3-0.5,1.7C82.3-14.4,81.8-14.3,81-14.3z"/>
		</g>
	</g>
</g>
<g>
	<g transform="translate(259.928342, 84.636331)">
		<g>
			<path class="st2" d="M81.4-35.2h-8.7c-1,0-1.7-0.1-2-0.4c-0.3-0.3-0.5-1-0.5-2l-0.5-17.8c0-1.1,0.1-1.7,0.4-2s1-0.5,2-0.5h10
				c1,0,1.7,0.2,2,0.5s0.4,1,0.4,2L84-37.6c0,1.1-0.2,1.7-0.5,2C83.1-35.3,82.4-35.2,81.4-35.2z"/>
		</g>
	</g>
</g>
<g>
	<g transform="translate(276.111019, 84.636331)">
		<g>
			<path class="st2" d="M96-14.3H76.8c-0.8,0-1.3-0.2-1.7-0.5c-0.3-0.3-0.5-0.9-0.5-1.7v-7.1c0-0.8,0.2-1.3,0.5-1.7
				c0.3-0.3,0.9-0.5,1.7-0.5h16.3c0.5,0,0.9-0.2,1.2-0.5c0.3-0.3,0.4-0.8,0.4-1.2c0-0.7-0.1-1.2-0.4-1.5s-0.7-0.5-1.2-0.5L84-30.8
				c-2.8-0.4-5.1-1.3-6.8-2.8c-1.7-1.5-2.6-3.9-2.6-7.3v-6.4c0-3.4,1.1-6.1,3.3-7.9c2.2-1.8,5.3-2.8,9.2-2.8h17
				c0.8,0,1.3,0.2,1.7,0.5c0.3,0.3,0.5,0.9,0.5,1.6v7.2c0,0.8-0.2,1.3-0.5,1.7c-0.3,0.3-0.9,0.5-1.7,0.5H90c-0.5,0-0.9,0.2-1.2,0.5
				c-0.3,0.3-0.4,0.8-0.4,1.3s0.1,1,0.4,1.4s0.7,0.6,1.2,0.6l9,1.2c2.8,0.4,5.1,1.3,6.8,2.8c1.7,1.4,2.6,3.9,2.6,7.3v6.4
				c0,3.4-1.1,6.1-3.4,7.9C102.9-15.2,99.9-14.3,96-14.3z"/>
		</g>
	</g>
</g>
</svg>
