<?xml version="1.0" encoding="UTF-8"?>
<svg id="Ebene_1"
	xmlns="http://www.w3.org/2000/svg" width="22.61mm" height="19.46mm" viewBox="0 0 64.1 55.15">
	<path d="M13.99,9.78H5.44V4.89H13.99v4.89Zm24.44,19.55H5.44v-4.89H38.44v4.89Zm-19.55,19.55H5.44v-4.89h13.44v4.89ZM29.88,2.44V12.22c0,1.34-1.11,2.44-2.44,2.44h-9.78c-1.34,0-2.44-1.11-2.44-2.44V2.44c0-1.34,1.11-2.44,2.44-2.44h9.78c1.34,0,2.44,1.11,2.44,2.44Zm4.89,39.11v9.78c0,1.34-1.11,2.44-2.44,2.44h-9.78c-1.34,0-2.44-1.11-2.44-2.44v-9.78c0-1.34,1.11-2.44,2.44-2.44h9.78c1.34,0,2.44,1.11,2.44,2.44Zm29.33-31.78H31.1V4.89h33v4.89Zm0,39.11h-28.11v-4.89h28.11v4.89Zm-9.78-26.89v9.78c0,1.34-1.11,2.44-2.44,2.44h-9.78c-1.34,0-2.44-1.11-2.44-2.44v-9.78c0-1.34,1.11-2.44,2.44-2.44h9.78c1.34,0,2.44,1.11,2.44,2.44Zm9.78,7.33h-8.55v-4.89h8.55v4.89Z" style="fill:#191919;"/>
</svg>