<?xml version="1.0" encoding="UTF-8"?>
<svg id="Ebene_1"
	xmlns="http://www.w3.org/2000/svg" width="43.68mm" height="43.12mm" viewBox="0 0 123.81 122.22">
	<circle cx="61.11" cy="61.11" r="54.76" style="fill:none;"/>
	<path d="M106.93,56.24h-21.35v-4.94c0-2.56-1.02-4.87-2.71-6.55s-4.03-2.75-6.59-2.75l-9.57,.03v-2.88c.02-.47-.19-.93-.55-1.24-.66-.54-1.64-.45-2.19,.21-.24,.29-.36,.65-.35,1.02v43.93c-.09,.85,.53,1.62,1.38,1.71s1.62-.53,1.71-1.38c.01-.11,.01-.22,0-.33v-2.88l9.3,.03h.27c5.13,0,9.3-4.17,9.3-9.3v-4.94h21.35v-3.16h-21.35v-3.43h21.35v-3.16Zm-26.29-9.33c1.12,1.12,1.82,2.7,1.82,4.43v19.56c0,3.45-2.76,6.21-6.21,6.21h-9.54v-31.98h9.54c1.72,0,3.27,.66,4.39,1.78Zm-21.11-9.09c-.71-.49-1.67-.31-2.16,.39-.19,.28-.29,.61-.28,.95v2.88l-9.57-.03c-5.13,0-9.3,4.17-9.3,9.3v4.94H16.88v3.16h21.35v3.43H16.88v3.16h21.35v4.94c0,5.13,4.17,9.3,9.3,9.3l9.57-.03v2.88c-.09,.85,.53,1.62,1.38,1.71s1.62-.53,1.71-1.38c.01-.11,.01-.22,0-.33V39.15c.01-.42-.15-.83-.45-1.13-.03-.04-.07-.07-.1-.1-.03-.04-.07-.07-.1-.1Zm-2.44,7.31v31.98h-9.54c-3.45,0-6.21-2.76-6.21-6.21v-19.56c0-3.45,2.76-6.21,6.21-6.21h9.54Z" style="fill:#fff; stroke:#fff; stroke-miterlimit:10;"/>
</svg>