<?xml version="1.0" encoding="UTF-8"?>
<svg id="Ebene_1"
	xmlns="http://www.w3.org/2000/svg" width="38.64mm" height="38.64mm" viewBox="0 0 109.52 109.52">
	<circle cx="54.76" cy="54.76" r="54.76" style="fill:#260F0A;"/>
	<path d="M32.62,40.58h-8.56v-4.89h8.56v4.89Zm24.44,19.55H24.06v-4.89H57.06v4.89Zm-19.55,19.55h-13.44v-4.89h13.44v4.89Zm11-46.44v9.78c0,1.34-1.11,2.44-2.44,2.44h-9.78c-1.34,0-2.44-1.11-2.44-2.44v-9.78c0-1.34,1.11-2.44,2.44-2.44h9.78c1.34,0,2.44,1.11,2.44,2.44Zm4.89,39.11v9.78c0,1.34-1.11,2.44-2.44,2.44h-9.78c-1.34,0-2.44-1.11-2.44-2.44v-9.78c0-1.34,1.11-2.44,2.44-2.44h9.78c1.34,0,2.44,1.11,2.44,2.44Zm29.33-31.78H49.73v-4.89h33v4.89Zm0,39.11h-28.11v-4.89h28.11v4.89Zm-9.78-26.89v9.78c0,1.34-1.11,2.44-2.44,2.44h-9.78c-1.34,0-2.44-1.11-2.44-2.44v-9.78c0-1.34,1.11-2.44,2.44-2.44h9.78c1.34,0,2.44,1.11,2.44,2.44Zm9.78,7.33h-8.55v-4.89h8.55v4.89Z" style="fill:white;"/>
</svg>