<?xml version="1.0" encoding="utf-8"?>
<!-- Generator: Adobe Illustrator 26.3.1, SVG Export Plug-In . SVG Version: 6.00 Build 0)  -->
<svg version="1.1" id="Ebene_1" xmlns="http://www.w3.org/2000/svg" xmlns:xlink="http://www.w3.org/1999/xlink" x="0px" y="0px"
	 width="76.2px" height="77px" viewBox="0 0 76.2 77" style="enable-background:new 0 0 76.2 77;" xml:space="preserve" fill="white">
<g>
	<path d="M73.9,38.5c0,19.9-16.1,36-36,36S2,58.4,2,38.5s16.1-36,36-36S73.9,18.6,73.9,38.5z M18.5,45.2c-0.7-2.1-1.1-4.4-1.1-6.7
		c0-2.4,0.4-4.6,1.1-6.7L10.7,24c-2.3,4.3-3.6,9.3-3.6,14.5S8.4,48.7,10.7,53L18.5,45.2z M53.4,38.5c0-8.5-6.9-15.4-15.4-15.4
		S22.5,30,22.5,38.5S29.4,54,38,54S53.4,47.1,53.4,38.5z M23.4,11.3l7.8,7.8c2.1-0.7,4.4-1.1,6.7-1.1c2.4,0,4.6,0.4,6.7,1.1l7.8-7.8
		C48.1,9,43.2,7.7,38,7.7S27.8,9,23.4,11.3z M52.5,65.8L44.7,58c-2.1,0.7-4.3,1.1-6.7,1.1c-2.3,0-4.6-0.4-6.7-1.1l-7.8,7.8
		c4.3,2.3,9.3,3.6,14.5,3.6S48.1,68.1,52.5,65.8z M65.2,53c2.3-4.3,3.6-9.3,3.6-14.5S67.5,28.4,65.2,24l-7.8,7.8
		c0.7,2.1,1.1,4.4,1.1,6.7s-0.4,4.6-1.1,6.7L65.2,53z"/>
</g>
</svg>
