<?xml version="1.0" encoding="utf-8"?>
<!-- Generator: Adobe Illustrator 26.3.1, SVG Export Plug-In . SVG Version: 6.00 Build 0)  -->
<svg version="1.1" id="Ebene_1" xmlns="http://www.w3.org/2000/svg" xmlns:xlink="http://www.w3.org/1999/xlink" x="0px" y="0px"
	 width="69px" height="68.6px" viewBox="0 0 69 68.6" style="enable-background:new 0 0 69 68.6;" xml:space="preserve" fill="white">
<g>
	<path d="M34.9,65.6c-9.2,0-17.9-4.1-23.7-11.1c-0.4-0.5-0.4-1.3,0.1-1.7l5.5-5.5c0.3-0.2,0.6-0.4,1-0.4c0.4,0,0.7,0.2,0.9,0.5
		c3.9,5.1,9.8,8,16.2,8c11.3,0,20.6-9.2,20.6-20.6s-9.2-20.6-20.6-20.6c-5.3,0-10.2,2-14,5.5l5.5,5.5c0.8,0.7,1,1.8,0.6,2.8
		c-0.4,1-1.3,1.6-2.4,1.6h-18c-1.4,0-2.6-1.2-2.6-2.6V9c0-1,0.6-2,1.6-2.4c0.9-0.4,2-0.2,2.8,0.6l5.2,5.2C19.3,7,27,3.9,34.9,3.9
		c17,0,30.9,13.9,30.9,30.9S51.9,65.6,34.9,65.6z"/>
</g>
</svg>
