<?xml version="1.0" encoding="utf-8"?>
<!-- Generator: Adobe Illustrator 26.3.1, SVG Export Plug-In . SVG Version: 6.00 Build 0)  -->
<svg version="1.1" id="Ebene_1" xmlns="http://www.w3.org/2000/svg" xmlns:xlink="http://www.w3.org/1999/xlink" x="0px" y="0px"
	 width="49.9px" height="61.7px" viewBox="0 0 49.9 61.7" style="enable-background:new 0 0 49.9 61.7;" xml:space="preserve" fill="white">
<g>
	<path d="M47.8,55c0,2.1-1.7,3.9-3.9,3.9H5.4c-2.1,0-3.9-1.7-3.9-3.9V31.9c0-2.1,1.7-3.9,3.9-3.9h1.3v-7.7c0-9.9,8.1-18,18-18
		s18,8.1,18,18V28h1.3c2.1,0,3.9,1.7,3.9,3.9V55z M34.9,28v-7.7c0-5.7-4.6-10.3-10.3-10.3s-10.3,4.6-10.3,10.3V28H34.9z"/>
</g>
</svg>
