<?xml version="1.0" encoding="utf-8"?>
<!-- Generator: Adobe Illustrator 26.3.1, SVG Export Plug-In . SVG Version: 6.00 Build 0)  -->
<svg version="1.1" id="Ebene_1" xmlns="http://www.w3.org/2000/svg" xmlns:xlink="http://www.w3.org/1999/xlink" x="0px" y="0px"
	 width="89.9px" height="61.4px" viewBox="0 0 89.9 61.4" style="enable-background:new 0 0 89.9 61.4;" xml:space="preserve" fill="white">
<g>
	<path d="M84.1,53.4c0,1.4-1.2,2.6-2.6,2.6h-72C8.2,56,7,54.8,7,53.4V7.1c0-1.4,1.2-2.6,2.6-2.6h72c1.4,0,2.6,1.2,2.6,2.6V53.4z
		 M79,20c-5.7,0-10.3-4.6-10.3-10.3H22.4c0,5.7-4.6,10.3-10.3,10.3v20.6c5.7,0,10.3,4.6,10.3,10.3h46.3c0-5.7,4.6-10.3,10.3-10.3V20
		z M45.6,47c-8.4,0-12.9-9.4-12.9-16.7s4.4-16.7,12.9-16.7c8.4,0,12.9,9.4,12.9,16.7S54,47,45.6,47z M53.3,40.5v-3.9h-5.1v-18h-4.6
		l-5.9,5.5l3.1,3.2c1-0.8,1.6-1.3,2.2-2.3H43v11.6h-5.1v3.9H53.3z"/>
</g>
</svg>
