<?xml version="1.0" encoding="utf-8"?>
<!-- Generator: Adobe Illustrator 26.3.1, SVG Export Plug-In . SVG Version: 6.00 Build 0)  -->
<svg version="1.1" id="Ebene_1" xmlns="http://www.w3.org/2000/svg" xmlns:xlink="http://www.w3.org/1999/xlink" x="0px" y="0px"
	 width="416.3px" height="159.2px" viewBox="0 0 416.3 159.2" style="enable-background:new 0 0 416.3 159.2;" xml:space="preserve"
	>
<style type="text/css">
	.st0{fill:#FF00FF;}
	.st1{fill:#00FFFF;}
	.st2{fill:#FFFFFF;}
	.st3{display:none;fill:#FFFFFF;}
	.st4{display:none;}
	.st5{display:inline;}
</style>
<rect x="-53.5" y="152.3" class="st3" width="600" height="600"/>
<rect x="-53.5" y="152.3" class="st3" width="600" height="600"/>
<rect x="-53.5" y="152.3" class="st3" width="600" height="600"/>
<g>
	<g transform="translate(112.747529, 182.569588)">
		<g>
			<path class="st0" d="M37.9-158.1h10.2c0.9,0,1.5,0.2,1.9,0.6c0.4,0.4,0.6,1,0.6,1.9v26.7c0,1.5-0.1,2.8-0.2,4.1
				c-0.1,1.2-0.5,2.7-1.1,4.4l-3.4,9.4c-0.2,0.7-0.6,1.3-1,1.8c-0.4,0.5-1,0.7-1.8,0.7H34c-0.7,0-1.4-0.2-2-0.5
				c-0.6-0.3-1-0.8-1.2-1.6l-3.2-11.2c-0.1-0.5-0.3-0.8-0.5-0.9c-0.2-0.2-0.5-0.2-0.7-0.2h-0.6c-0.3,0-0.5,0.1-0.7,0.2
				c-0.2,0.2-0.4,0.5-0.5,0.9l-3.2,11.2c-0.2,0.7-0.5,1.2-1,1.5c-0.5,0.3-1.1,0.5-1.9,0.5H9.4c-0.7,0-1.4-0.2-1.9-0.7
				c-0.5-0.5-0.9-1.1-1.1-1.8l-3.4-9.5c-0.6-1.7-0.9-3.2-1.1-4.4c-0.1-1.3-0.2-2.6-0.2-4.1v-26.5c0-0.9,0.2-1.5,0.6-1.9
				c0.4-0.4,1-0.6,1.9-0.6h10.6c0.9,0,1.5,0.2,1.9,0.6c0.4,0.4,0.6,1,0.6,1.9v25.3l4-8.7c0.4-0.8,0.9-1.3,1.4-1.6
				c0.6-0.3,1.3-0.5,2.2-0.5h2.9c0.9,0,1.6,0.2,2.2,0.5c0.6,0.3,1.1,0.9,1.5,1.6l4,8.7v-25.3c0-0.9,0.2-1.5,0.6-1.9
				C36.4-157.9,37-158.1,37.9-158.1z"/>
		</g>
	</g>
</g>
<g>
	<g transform="translate(155.597576, 182.569588)">
		<g>
			<path class="st0" d="M51-108.6H19.1c-0.9,0-1.5-0.2-1.9-0.6c-0.4-0.4-0.6-1-0.6-1.9v-44.5c0-0.9,0.2-1.5,0.6-1.9
				c0.4-0.4,1-0.6,1.9-0.6H51c0.9,0,1.5,0.2,1.9,0.6c0.4,0.4,0.6,1,0.6,1.9v8c0,0.9-0.2,1.5-0.6,1.9c-0.4,0.4-1,0.6-1.9,0.6H32v5.3
				h13.4c0.9,0,1.5,0.2,1.9,0.6c0.4,0.4,0.6,1,0.6,1.9v7.4c0,0.9-0.2,1.5-0.6,1.9c-0.4,0.4-1,0.6-1.9,0.6H32v5.9h19
				c0.9,0,1.5,0.2,1.9,0.6c0.4,0.4,0.6,1,0.6,1.9v8c0,0.9-0.2,1.5-0.6,1.9C52.5-108.8,51.8-108.6,51-108.6z"/>
		</g>
	</g>
</g>
<g>
	<g transform="translate(189.320711, 182.569588)">
		<g>
			<path class="st0" d="M56.7-108.6H30.3c-0.9,0-1.5-0.2-1.9-0.6c-0.4-0.4-0.6-1-0.6-1.9v-44.5c0-0.9,0.2-1.5,0.6-1.9
				c0.4-0.4,1-0.6,1.9-0.6h21.9c4.5,0,7.8,0.9,10,2.6c2.2,1.7,3.2,4.4,3.2,7.9v3.3c0,1.9-0.3,3.5-1,4.7c-0.7,1.2-1.7,2.1-3.1,2.7
				c2.9,0.3,5.1,1.3,6.5,3c1.4,1.7,2.1,4.3,2.1,7.6v6.3c0,3.8-1.1,6.7-3.3,8.5C64.6-109.5,61.3-108.6,56.7-108.6z M43.3-146.4v7.4
				h5.9c0.9,0,1.5-0.2,1.9-0.7c0.4-0.5,0.7-1.1,0.7-2.1v-1.9c0-0.9-0.2-1.6-0.7-2.1c-0.4-0.5-1.1-0.7-1.9-0.7H43.3z M43.3-128.4v8.1
				h8.9c0.9,0,1.5-0.2,2-0.7c0.4-0.5,0.7-1.1,0.7-2.1v-2.7c0-0.9-0.2-1.6-0.7-2c-0.4-0.4-1.1-0.6-2-0.6H43.3z"/>
		</g>
	</g>
</g>
<g>
	<g transform="translate(226.704926, 182.569588)">
		<g>
			<path class="st0" d="M41.4-121.6h17.3c1.1,0,1.8-0.2,2.1-0.6c0.3-0.4,0.5-0.9,0.5-1.5v-1.9c0-0.5-0.2-1-0.5-1.4
				c-0.3-0.4-1-0.6-2.1-0.6H47c-0.9,0-1.5-0.2-1.9-0.6c-0.4-0.4-0.6-1-0.6-1.9v-7.4c0-0.9,0.2-1.5,0.6-1.9c0.4-0.4,1-0.6,1.9-0.6
				h7.2c1.1,0,1.8-0.2,2.1-0.6c0.3-0.4,0.5-0.9,0.5-1.4v-1c0-0.5-0.2-1-0.5-1.4c-0.3-0.4-1-0.6-2.1-0.6H41.4c-0.9,0-1.5-0.2-1.9-0.6
				c-0.4-0.4-0.6-1-0.6-1.9v-8.2c0-0.9,0.2-1.5,0.6-1.9c0.4-0.4,1-0.6,1.9-0.6h19.2c3.8,0,6.6,0.9,8.5,2.6c1.9,1.8,2.8,4.2,2.8,7.2
				v4c0,1.8-0.3,3.3-0.9,4.5c-0.6,1.3-1.6,2.2-3.1,2.9c3.2,0.4,5.5,1.4,6.8,3c1.3,1.6,1.9,4,1.9,7v6.9c0,3.5-1.1,6.3-3.4,8.4
				c-2.2,2-5.6,3.1-10,3.1H41.4c-0.9,0-1.5-0.2-1.9-0.6c-0.4-0.4-0.6-1-0.6-1.9v-8c0-0.9,0.2-1.5,0.6-1.9
				C39.9-121.4,40.5-121.6,41.4-121.6z"/>
		</g>
	</g>
</g>
<g>
	<g transform="translate(115.434749, 180.06371)">
		<g>
			<path class="st1" d="M38.8-158.9H49c0.9,0,1.5,0.2,1.9,0.6c0.4,0.4,0.6,1,0.6,1.9v26.7c0,1.5-0.1,2.8-0.2,4.1
				c-0.1,1.2-0.5,2.7-1.1,4.4l-3.4,9.4c-0.2,0.7-0.6,1.3-1,1.8c-0.4,0.5-1,0.7-1.8,0.7h-9.1c-0.7,0-1.4-0.2-2-0.5
				c-0.6-0.3-1-0.8-1.2-1.6l-3.2-11.2c-0.1-0.5-0.3-0.8-0.5-0.9c-0.2-0.2-0.5-0.2-0.7-0.2h-0.6c-0.3,0-0.5,0.1-0.7,0.2
				c-0.2,0.2-0.4,0.5-0.5,0.9l-3.2,11.2c-0.2,0.7-0.5,1.2-1,1.5c-0.5,0.3-1.1,0.5-1.9,0.5h-9.1c-0.7,0-1.4-0.2-1.9-0.7
				c-0.5-0.5-0.9-1.1-1.1-1.8l-3.4-9.5c-0.6-1.7-0.9-3.2-1.1-4.4c-0.1-1.3-0.2-2.6-0.2-4.1v-26.5c0-0.9,0.2-1.5,0.6-1.9
				c0.4-0.4,1-0.6,1.9-0.6h10.6c0.9,0,1.5,0.2,1.9,0.6c0.4,0.4,0.6,1,0.6,1.9v25.3l4-8.7c0.4-0.8,0.9-1.3,1.4-1.6
				c0.6-0.3,1.3-0.5,2.2-0.5h2.9c0.9,0,1.6,0.2,2.2,0.5c0.6,0.3,1.1,0.9,1.5,1.6l4,8.7v-25.3c0-0.9,0.2-1.5,0.6-1.9
				C37.3-158.7,37.9-158.9,38.8-158.9z"/>
		</g>
	</g>
</g>
<g>
	<g transform="translate(158.284795, 180.06371)">
		<g>
			<path class="st1" d="M51.9-109.4H20c-0.9,0-1.5-0.2-1.9-0.6c-0.4-0.4-0.6-1-0.6-1.9v-44.5c0-0.9,0.2-1.5,0.6-1.9
				c0.4-0.4,1-0.6,1.9-0.6h31.9c0.9,0,1.5,0.2,1.9,0.6c0.4,0.4,0.6,1,0.6,1.9v8c0,0.9-0.2,1.5-0.6,1.9c-0.4,0.4-1,0.6-1.9,0.6h-19
				v5.3h13.4c0.9,0,1.5,0.2,1.9,0.6c0.4,0.4,0.6,1,0.6,1.9v7.4c0,0.9-0.2,1.5-0.6,1.9c-0.4,0.4-1,0.6-1.9,0.6H32.9v5.9h19
				c0.9,0,1.5,0.2,1.9,0.6c0.4,0.4,0.6,1,0.6,1.9v8c0,0.9-0.2,1.5-0.6,1.9C53.4-109.6,52.7-109.4,51.9-109.4z"/>
		</g>
	</g>
</g>
<g>
	<g transform="translate(192.00793, 180.06371)">
		<g>
			<path class="st1" d="M57.6-109.4H31.2c-0.9,0-1.5-0.2-1.9-0.6c-0.4-0.4-0.6-1-0.6-1.9v-44.5c0-0.9,0.2-1.5,0.6-1.9
				c0.4-0.4,1-0.6,1.9-0.6h21.9c4.5,0,7.8,0.9,10,2.6c2.2,1.7,3.2,4.4,3.2,7.9v3.3c0,1.9-0.3,3.5-1,4.7c-0.7,1.2-1.7,2.1-3.1,2.7
				c2.9,0.3,5.1,1.3,6.5,3c1.4,1.7,2.1,4.3,2.1,7.6v6.3c0,3.8-1.1,6.7-3.3,8.5C65.5-110.3,62.1-109.4,57.6-109.4z M44.2-147.2v7.4
				h5.9c0.9,0,1.5-0.2,1.9-0.7c0.4-0.5,0.7-1.1,0.7-2.1v-1.9c0-0.9-0.2-1.6-0.7-2.1c-0.4-0.5-1.1-0.7-1.9-0.7H44.2z M44.2-129.2v8.1
				h8.9c0.9,0,1.5-0.2,2-0.7c0.4-0.5,0.7-1.1,0.7-2.1v-2.7c0-0.9-0.2-1.6-0.7-2c-0.4-0.4-1.1-0.6-2-0.6H44.2z"/>
		</g>
	</g>
</g>
<g>
	<g transform="translate(229.392145, 180.06371)">
		<g>
			<path class="st1" d="M42.3-122.4h17.2c1.1,0,1.8-0.2,2.1-0.6c0.3-0.4,0.5-0.9,0.5-1.5v-1.9c0-0.5-0.2-1-0.5-1.4
				c-0.3-0.4-1-0.6-2.1-0.6H47.9c-0.9,0-1.5-0.2-1.9-0.6c-0.4-0.4-0.6-1-0.6-1.9v-7.4c0-0.9,0.2-1.5,0.6-1.9c0.4-0.4,1-0.6,1.9-0.6
				h7.2c1.1,0,1.8-0.2,2.1-0.6c0.3-0.4,0.5-0.9,0.5-1.4v-1c0-0.5-0.2-1-0.5-1.4c-0.3-0.4-1-0.6-2.1-0.6H42.3c-0.9,0-1.5-0.2-1.9-0.6
				c-0.4-0.4-0.6-1-0.6-1.9v-8.2c0-0.9,0.2-1.5,0.6-1.9c0.4-0.4,1-0.6,1.9-0.6h19.2c3.8,0,6.6,0.9,8.5,2.6c1.9,1.8,2.8,4.2,2.8,7.2
				v4c0,1.8-0.3,3.3-0.9,4.5c-0.6,1.3-1.6,2.2-3.1,2.9c3.2,0.4,5.5,1.4,6.8,3c1.3,1.6,1.9,4,1.9,7v6.9c0,3.5-1.1,6.3-3.4,8.4
				c-2.2,2-5.6,3.1-10,3.1H42.3c-0.9,0-1.5-0.2-1.9-0.6c-0.4-0.4-0.6-1-0.6-1.9v-8c0-0.9,0.2-1.5,0.6-1.9
				C40.8-122.2,41.4-122.4,42.3-122.4z"/>
		</g>
	</g>
</g>
<g>
	<g transform="translate(114.091139, 181.316649)">
		<g>
			<path class="st2" d="M38.3-158.5h10.2c0.9,0,1.5,0.2,1.9,0.6c0.4,0.4,0.6,1,0.6,1.9v26.7c0,1.5-0.1,2.8-0.2,4.1
				c-0.1,1.2-0.5,2.7-1.1,4.4l-3.4,9.4c-0.2,0.7-0.6,1.3-1,1.8c-0.4,0.5-1,0.7-1.8,0.7h-9.1c-0.7,0-1.4-0.2-2-0.5
				c-0.6-0.3-1-0.8-1.2-1.6l-3.2-11.2c-0.1-0.5-0.3-0.8-0.5-0.9c-0.2-0.2-0.5-0.2-0.7-0.2h-0.6c-0.3,0-0.5,0.1-0.7,0.2
				c-0.2,0.2-0.4,0.5-0.5,0.9l-3.2,11.2c-0.2,0.7-0.5,1.2-1,1.5c-0.5,0.3-1.1,0.5-1.9,0.5H9.9c-0.7,0-1.4-0.2-1.9-0.7
				c-0.5-0.5-0.9-1.1-1.1-1.8l-3.4-9.5c-0.6-1.7-0.9-3.2-1.1-4.4c-0.1-1.3-0.2-2.6-0.2-4.1V-156c0-0.9,0.2-1.5,0.6-1.9
				c0.4-0.4,1-0.6,1.9-0.6h10.6c0.9,0,1.5,0.2,1.9,0.6c0.4,0.4,0.6,1,0.6,1.9v25.3l4-8.7c0.4-0.8,0.9-1.3,1.4-1.6
				c0.6-0.3,1.3-0.5,2.2-0.5h2.9c0.9,0,1.6,0.2,2.2,0.5c0.6,0.3,1.1,0.9,1.5,1.6l4,8.7V-156c0-0.9,0.2-1.5,0.6-1.9
				C36.8-158.3,37.4-158.5,38.3-158.5z"/>
		</g>
	</g>
</g>
<g>
	<g transform="translate(156.941185, 181.316649)">
		<g>
			<path class="st2" d="M51.4-109H19.5c-0.9,0-1.5-0.2-1.9-0.6c-0.4-0.4-0.6-1-0.6-1.9V-156c0-0.9,0.2-1.5,0.6-1.9
				c0.4-0.4,1-0.6,1.9-0.6h31.9c0.9,0,1.5,0.2,1.9,0.6c0.4,0.4,0.6,1,0.6,1.9v8c0,0.9-0.2,1.5-0.6,1.9c-0.4,0.4-1,0.6-1.9,0.6h-19
				v5.3h13.4c0.9,0,1.5,0.2,1.9,0.6c0.4,0.4,0.6,1,0.6,1.9v7.4c0,0.9-0.2,1.5-0.6,1.9c-0.4,0.4-1,0.6-1.9,0.6H32.5v5.9h19
				c0.9,0,1.5,0.2,1.9,0.6c0.4,0.4,0.6,1,0.6,1.9v8c0,0.9-0.2,1.5-0.6,1.9C52.9-109.2,52.3-109,51.4-109z"/>
		</g>
	</g>
</g>
<g>
	<g transform="translate(190.664321, 181.316649)">
		<g>
			<path class="st2" d="M57.2-109H30.8c-0.9,0-1.5-0.2-1.9-0.6c-0.4-0.4-0.6-1-0.6-1.9V-156c0-0.9,0.2-1.5,0.6-1.9
				c0.4-0.4,1-0.6,1.9-0.6h21.9c4.5,0,7.8,0.9,10,2.6c2.2,1.7,3.2,4.4,3.2,7.9v3.3c0,1.9-0.3,3.5-1,4.7c-0.7,1.2-1.7,2.1-3.1,2.7
				c2.9,0.3,5.1,1.3,6.5,3c1.4,1.7,2.1,4.3,2.1,7.6v6.3c0,3.8-1.1,6.7-3.3,8.5C65.1-109.9,61.7-109,57.2-109z M43.8-146.8v7.4h5.9
				c0.9,0,1.5-0.2,1.9-0.7c0.4-0.5,0.7-1.1,0.7-2.1v-1.9c0-0.9-0.2-1.6-0.7-2.1c-0.4-0.5-1.1-0.7-1.9-0.7H43.8z M43.8-128.8v8.1h8.9
				c0.9,0,1.5-0.2,2-0.7c0.4-0.5,0.7-1.1,0.7-2.1v-2.7c0-0.9-0.2-1.6-0.7-2c-0.4-0.4-1.1-0.6-2-0.6H43.8z"/>
		</g>
	</g>
</g>
<g>
	<g transform="translate(228.048535, 181.316649)">
		<g>
			<path class="st2" d="M41.9-122h17.2c1.1,0,1.8-0.2,2.1-0.6c0.3-0.4,0.5-0.9,0.5-1.5v-1.9c0-0.5-0.2-1-0.5-1.4
				c-0.3-0.4-1-0.6-2.1-0.6H47.4c-0.9,0-1.5-0.2-1.9-0.6c-0.4-0.4-0.6-1-0.6-1.9v-7.4c0-0.9,0.2-1.5,0.6-1.9c0.4-0.4,1-0.6,1.9-0.6
				h7.2c1.1,0,1.8-0.2,2.1-0.6c0.3-0.4,0.5-0.9,0.5-1.4v-1c0-0.5-0.2-1-0.5-1.4c-0.3-0.4-1-0.6-2.1-0.6H41.9c-0.9,0-1.5-0.2-1.9-0.6
				c-0.4-0.4-0.6-1-0.6-1.9v-8.2c0-0.9,0.2-1.5,0.6-1.9c0.4-0.4,1-0.6,1.9-0.6H61c3.8,0,6.6,0.9,8.5,2.6c1.9,1.8,2.8,4.2,2.8,7.2v4
				c0,1.8-0.3,3.3-0.9,4.5c-0.6,1.3-1.6,2.2-3.1,2.9c3.2,0.4,5.5,1.4,6.8,3c1.3,1.6,1.9,4,1.9,7v6.9c0,3.5-1.1,6.3-3.4,8.4
				c-2.2,2-5.6,3.1-10,3.1H41.9c-0.9,0-1.5-0.2-1.9-0.6c-0.4-0.4-0.6-1-0.6-1.9v-8c0-0.9,0.2-1.5,0.6-1.9
				C40.4-121.8,41-122,41.9-122z"/>
		</g>
	</g>
</g>
<g>
	<g transform="translate(76.297476, 233.615615)">
		<g>
			<path class="st0" d="M25.7-141.1H36c0.9,0,1.5,0.2,1.9,0.6c0.4,0.4,0.6,1,0.6,1.9v26.7c0,1.5-0.1,2.8-0.2,4.1
				c-0.1,1.2-0.5,2.7-1.1,4.4L33.8-94c-0.2,0.7-0.6,1.3-1,1.8c-0.4,0.5-1,0.7-1.8,0.7h-9.1c-0.7,0-1.4-0.2-2-0.5
				c-0.6-0.3-1-0.8-1.2-1.6l-3.2-11.2c-0.1-0.5-0.3-0.8-0.5-0.9c-0.2-0.2-0.5-0.2-0.7-0.2h-0.6c-0.3,0-0.5,0.1-0.7,0.2
				c-0.2,0.2-0.4,0.5-0.5,0.9L9.2-93.6c-0.2,0.7-0.5,1.2-1,1.5c-0.5,0.3-1.1,0.5-1.9,0.5h-9.1c-0.7,0-1.4-0.2-1.9-0.7
				c-0.5-0.5-0.9-1.1-1.1-1.8l-3.4-9.5c-0.6-1.7-0.9-3.2-1.1-4.4c-0.1-1.3-0.2-2.6-0.2-4.1v-26.5c0-0.9,0.2-1.5,0.6-1.9
				c0.4-0.4,1-0.6,1.9-0.6H2.6c0.9,0,1.5,0.2,1.9,0.6c0.4,0.4,0.6,1,0.6,1.9v25.3l4-8.7c0.4-0.8,0.9-1.3,1.4-1.6
				c0.6-0.3,1.3-0.5,2.2-0.5h2.9c0.9,0,1.6,0.2,2.2,0.5c0.6,0.3,1.1,0.9,1.5,1.6l4,8.7v-25.3c0-0.9,0.2-1.5,0.6-1.9
				C24.2-140.9,24.8-141.1,25.7-141.1z"/>
		</g>
	</g>
</g>
<g>
	<g transform="translate(119.147522, 233.615615)">
		<g>
			<path class="st0" d="M22.4-126.6l-3.2,10.5H30l-3.2-10.5c-0.2-0.4-0.4-0.7-0.6-0.9c-0.2-0.2-0.5-0.3-0.7-0.3h-1.7
				c-0.3,0-0.5,0.1-0.7,0.3C22.8-127.3,22.6-127,22.4-126.6z M18.5-94c0,0.9-0.2,1.5-0.6,1.9c-0.4,0.4-1,0.6-1.9,0.6H5.9
				c-0.9,0-1.5-0.2-1.9-0.6c-0.4-0.4-0.6-1-0.6-1.9v-18.1c0-1.4,0.2-2.9,0.6-4.7c0.4-1.8,1.1-3.9,2-6.3l6-15.6
				c0.3-0.8,0.7-1.3,1.3-1.7c0.6-0.4,1.3-0.6,2.2-0.6h18.5c0.9,0,1.6,0.2,2.2,0.6c0.6,0.4,1,0.9,1.3,1.7l6,15.6
				c0.9,2.4,1.6,4.5,2,6.3c0.4,1.8,0.7,3.4,0.7,4.7V-94c0,0.9-0.2,1.5-0.6,1.9c-0.4,0.4-1,0.6-1.9,0.6H33.3c-0.9,0-1.6-0.2-2-0.6
				c-0.4-0.4-0.6-1-0.6-1.9v-9.6H18.5V-94z"/>
		</g>
	</g>
</g>
<g>
	<g transform="translate(156.789553, 233.615615)">
		<g>
			<path class="st0" d="M54.5-91.6h-35c-0.9,0-1.5-0.2-1.9-0.6c-0.4-0.4-0.6-1-0.6-1.9v-44.5c0-0.9,0.2-1.5,0.6-1.9
				c0.4-0.4,1-0.6,1.9-0.6h10.6c0.9,0,1.5,0.2,1.9,0.6c0.4,0.4,0.6,1,0.6,1.9v34H42v-11.1c0-0.9,0.2-1.5,0.6-1.9
				c0.4-0.4,1-0.6,1.9-0.6h10c0.9,0,1.5,0.2,1.9,0.6c0.4,0.4,0.6,1,0.6,1.9V-94c0,0.9-0.2,1.5-0.6,1.9C56-91.8,55.3-91.6,54.5-91.6z
				"/>
		</g>
	</g>
</g>
<g>
	<g transform="translate(192.626832, 233.615615)">
		<g>
			<path class="st0" d="M66.4-91.6h-35c-0.9,0-1.5-0.2-1.9-0.6c-0.4-0.4-0.6-1-0.6-1.9v-44.5c0-0.9,0.2-1.5,0.6-1.9
				c0.4-0.4,1-0.6,1.9-0.6h10.6c0.9,0,1.5,0.2,1.9,0.6c0.4,0.4,0.6,1,0.6,1.9v34H54v-11.1c0-0.9,0.2-1.5,0.6-1.9
				c0.4-0.4,1-0.6,1.9-0.6h10c0.9,0,1.5,0.2,1.9,0.6c0.4,0.4,0.6,1,0.6,1.9V-94c0,0.9-0.2,1.5-0.6,1.9
				C67.9-91.8,67.3-91.6,66.4-91.6z"/>
		</g>
	</g>
</g>
<g>
	<g transform="translate(228.464111, 233.615615)">
		<g>
			<path class="st0" d="M75.3-91.6H43.4c-0.9,0-1.5-0.2-1.9-0.6c-0.4-0.4-0.6-1-0.6-1.9v-44.5c0-0.9,0.2-1.5,0.6-1.9
				c0.4-0.4,1-0.6,1.9-0.6h31.9c0.9,0,1.5,0.2,1.9,0.6c0.4,0.4,0.6,1,0.6,1.9v8c0,0.9-0.2,1.5-0.6,1.9c-0.4,0.4-1,0.6-1.9,0.6h-19
				v5.3h13.4c0.9,0,1.5,0.2,1.9,0.6c0.4,0.4,0.6,1,0.6,1.9v7.4c0,0.9-0.2,1.5-0.6,1.9c-0.4,0.4-1,0.6-1.9,0.6H56.3v5.9h19
				c0.9,0,1.5,0.2,1.9,0.6c0.4,0.4,0.6,1,0.6,1.9v8c0,0.9-0.2,1.5-0.6,1.9C76.8-91.8,76.1-91.6,75.3-91.6z"/>
		</g>
	</g>
</g>
<g>
	<g transform="translate(262.187247, 233.615615)">
		<g>
			<path class="st0" d="M75.5-91.6H64.4c-0.9,0-1.5-0.2-1.9-0.6c-0.4-0.4-0.6-1-0.6-1.9v-33.8H51.8c-0.9,0-1.5-0.2-1.9-0.6
				c-0.4-0.4-0.6-1-0.6-1.9v-8.3c0-0.9,0.2-1.5,0.6-1.9c0.4-0.4,1-0.6,1.9-0.6h36.3c0.9,0,1.5,0.2,1.9,0.6c0.4,0.4,0.6,1,0.6,1.9
				v8.3c0,0.9-0.2,1.5-0.6,1.9c-0.4,0.4-1,0.6-1.9,0.6H78V-94c0,0.9-0.2,1.5-0.6,1.9C77-91.8,76.4-91.6,75.5-91.6z"/>
		</g>
	</g>
</g>
<g>
	<g transform="translate(78.984695, 231.109736)">
		<g>
			<path class="st1" d="M26.6-141.9h10.2c0.9,0,1.5,0.2,1.9,0.6c0.4,0.4,0.6,1,0.6,1.9v26.7c0,1.5-0.1,2.8-0.2,4.1
				c-0.1,1.2-0.5,2.7-1.1,4.4l-3.4,9.4c-0.2,0.7-0.6,1.3-1,1.8c-0.4,0.5-1,0.7-1.8,0.7h-9.1c-0.7,0-1.4-0.2-2-0.5
				c-0.6-0.3-1-0.8-1.2-1.6l-3.2-11.2c-0.1-0.5-0.3-0.8-0.5-0.9c-0.2-0.2-0.5-0.2-0.7-0.2h-0.6c-0.3,0-0.5,0.1-0.7,0.2
				c-0.2,0.2-0.4,0.5-0.5,0.9l-3.2,11.2c-0.2,0.7-0.5,1.2-1,1.5c-0.5,0.3-1.1,0.5-1.9,0.5h-9.1c-0.7,0-1.4-0.2-1.9-0.7
				c-0.5-0.5-0.9-1.1-1.1-1.8l-3.4-9.5c-0.6-1.7-0.9-3.2-1.1-4.4c-0.1-1.3-0.2-2.6-0.2-4.1v-26.5c0-0.9,0.2-1.5,0.6-1.9
				c0.4-0.4,1-0.6,1.9-0.6H3.5c0.9,0,1.5,0.2,1.9,0.6c0.4,0.4,0.6,1,0.6,1.9v25.3l4-8.7c0.4-0.8,0.9-1.3,1.4-1.6
				c0.6-0.3,1.3-0.5,2.2-0.5h2.9c0.9,0,1.6,0.2,2.2,0.5c0.6,0.3,1.1,0.9,1.5,1.6l4,8.7v-25.3c0-0.9,0.2-1.5,0.6-1.9
				C25.1-141.7,25.7-141.9,26.6-141.9z"/>
		</g>
	</g>
</g>
<g>
	<g transform="translate(121.834741, 231.109736)">
		<g>
			<path class="st1" d="M23.3-127.5L20.1-117h10.8l-3.2-10.5c-0.2-0.4-0.4-0.7-0.6-0.9c-0.2-0.2-0.5-0.3-0.7-0.3h-1.7
				c-0.3,0-0.5,0.1-0.7,0.3C23.7-128.2,23.5-127.9,23.3-127.5z M19.4-94.9c0,0.9-0.2,1.5-0.6,1.9c-0.4,0.4-1,0.6-1.9,0.6H6.8
				c-0.9,0-1.5-0.2-1.9-0.6c-0.4-0.4-0.6-1-0.6-1.9V-113c0-1.4,0.2-2.9,0.6-4.7c0.4-1.8,1.1-3.9,2-6.3l6-15.6
				c0.3-0.8,0.7-1.3,1.3-1.7c0.6-0.4,1.3-0.6,2.2-0.6H35c0.9,0,1.6,0.2,2.2,0.6c0.6,0.4,1,0.9,1.3,1.7l6,15.6c0.9,2.4,1.6,4.5,2,6.3
				c0.4,1.8,0.7,3.4,0.7,4.7v18.1c0,0.9-0.2,1.5-0.6,1.9c-0.4,0.4-1,0.6-1.9,0.6H34.2c-0.9,0-1.6-0.2-2-0.6c-0.4-0.4-0.6-1-0.6-1.9
				v-9.6H19.4V-94.9z"/>
		</g>
	</g>
</g>
<g>
	<g transform="translate(159.476772, 231.109736)">
		<g>
			<path class="st1" d="M55.4-92.4h-35c-0.9,0-1.5-0.2-1.9-0.6c-0.4-0.4-0.6-1-0.6-1.9v-44.5c0-0.9,0.2-1.5,0.6-1.9
				c0.4-0.4,1-0.6,1.9-0.6H31c0.9,0,1.5,0.2,1.9,0.6c0.4,0.4,0.6,1,0.6,1.9v34h9.4v-11.1c0-0.9,0.2-1.5,0.6-1.9
				c0.4-0.4,1-0.6,1.9-0.6h10c0.9,0,1.5,0.2,1.9,0.6c0.4,0.4,0.6,1,0.6,1.9v21.6c0,0.9-0.2,1.5-0.6,1.9
				C56.9-92.6,56.2-92.4,55.4-92.4z"/>
		</g>
	</g>
</g>
<g>
	<g transform="translate(195.314051, 231.109736)">
		<g>
			<path class="st1" d="M67.3-92.4h-35c-0.9,0-1.5-0.2-1.9-0.6c-0.4-0.4-0.6-1-0.6-1.9v-44.5c0-0.9,0.2-1.5,0.6-1.9
				c0.4-0.4,1-0.6,1.9-0.6H43c0.9,0,1.5,0.2,1.9,0.6c0.4,0.4,0.6,1,0.6,1.9v34h9.4v-11.1c0-0.9,0.2-1.5,0.6-1.9
				c0.4-0.4,1-0.6,1.9-0.6h10c0.9,0,1.5,0.2,1.9,0.6c0.4,0.4,0.6,1,0.6,1.9v21.6c0,0.9-0.2,1.5-0.6,1.9
				C68.8-92.6,68.2-92.4,67.3-92.4z"/>
		</g>
	</g>
</g>
<g>
	<g transform="translate(231.15133, 231.109736)">
		<g>
			<path class="st1" d="M76.2-92.4H44.3c-0.9,0-1.5-0.2-1.9-0.6c-0.4-0.4-0.6-1-0.6-1.9v-44.5c0-0.9,0.2-1.5,0.6-1.9
				c0.4-0.4,1-0.6,1.9-0.6h31.9c0.9,0,1.5,0.2,1.9,0.6c0.4,0.4,0.6,1,0.6,1.9v8c0,0.9-0.2,1.5-0.6,1.9c-0.4,0.4-1,0.6-1.9,0.6h-19
				v5.3h13.4c0.9,0,1.5,0.2,1.9,0.6c0.4,0.4,0.6,1,0.6,1.9v7.4c0,0.9-0.2,1.5-0.6,1.9c-0.4,0.4-1,0.6-1.9,0.6H57.2v5.9h19
				c0.9,0,1.5,0.2,1.9,0.6c0.4,0.4,0.6,1,0.6,1.9v8c0,0.9-0.2,1.5-0.6,1.9C77.7-92.6,77-92.4,76.2-92.4z"/>
		</g>
	</g>
</g>
<g>
	<g transform="translate(264.874466, 231.109736)">
		<g>
			<path class="st1" d="M76.4-92.4H65.3c-0.9,0-1.5-0.2-1.9-0.6c-0.4-0.4-0.6-1-0.6-1.9v-33.8H52.7c-0.9,0-1.5-0.2-1.9-0.6
				c-0.4-0.4-0.6-1-0.6-1.9v-8.3c0-0.9,0.2-1.5,0.6-1.9c0.4-0.4,1-0.6,1.9-0.6H89c0.9,0,1.5,0.2,1.9,0.6c0.4,0.4,0.6,1,0.6,1.9v8.3
				c0,0.9-0.2,1.5-0.6,1.9c-0.4,0.4-1,0.6-1.9,0.6H78.9v33.8c0,0.9-0.2,1.5-0.6,1.9C77.9-92.6,77.3-92.4,76.4-92.4z"/>
		</g>
	</g>
</g>
<g>
	<g transform="translate(77.641086, 232.362676)">
		<g>
			<path class="st2" d="M26.2-141.5h10.2c0.9,0,1.5,0.2,1.9,0.6c0.4,0.4,0.6,1,0.6,1.9v26.7c0,1.5-0.1,2.8-0.2,4.1
				c-0.1,1.2-0.5,2.7-1.1,4.4l-3.4,9.4c-0.2,0.7-0.6,1.3-1,1.8c-0.4,0.5-1,0.7-1.8,0.7h-9.1c-0.7,0-1.4-0.2-2-0.5
				c-0.6-0.3-1-0.8-1.2-1.6L16-105.2c-0.1-0.5-0.3-0.8-0.5-0.9c-0.2-0.2-0.5-0.2-0.7-0.2h-0.6c-0.3,0-0.5,0.1-0.7,0.2
				c-0.2,0.2-0.4,0.5-0.5,0.9L9.7-94c-0.2,0.7-0.5,1.2-1,1.5C8.1-92.1,7.5-92,6.8-92h-9.1c-0.7,0-1.4-0.2-1.9-0.7
				c-0.5-0.5-0.9-1.1-1.1-1.8l-3.4-9.5c-0.6-1.7-0.9-3.2-1.1-4.4c-0.1-1.3-0.2-2.6-0.2-4.1V-139c0-0.9,0.2-1.5,0.6-1.9
				c0.4-0.4,1-0.6,1.9-0.6H3.1c0.9,0,1.5,0.2,1.9,0.6c0.4,0.4,0.6,1,0.6,1.9v25.3l4-8.7c0.4-0.8,0.9-1.3,1.4-1.6
				c0.6-0.3,1.3-0.5,2.2-0.5h2.9c0.9,0,1.6,0.2,2.2,0.5c0.6,0.3,1.1,0.9,1.5,1.6l4,8.7V-139c0-0.9,0.2-1.5,0.6-1.9
				C24.7-141.3,25.3-141.5,26.2-141.5z"/>
		</g>
	</g>
</g>
<g>
	<g transform="translate(120.491132, 232.362676)">
		<g>
			<path class="st2" d="M22.8-127l-3.2,10.5h10.8L27.2-127c-0.2-0.4-0.4-0.7-0.6-0.9c-0.2-0.2-0.5-0.3-0.7-0.3h-1.7
				c-0.3,0-0.5,0.1-0.7,0.3C23.2-127.8,23-127.5,22.8-127z M18.9-94.5c0,0.9-0.2,1.5-0.6,1.9c-0.4,0.4-1,0.6-1.9,0.6H6.3
				c-0.9,0-1.5-0.2-1.9-0.6c-0.4-0.4-0.6-1-0.6-1.9v-18.1c0-1.4,0.2-2.9,0.6-4.7c0.4-1.8,1.1-3.9,2-6.3l6-15.6
				c0.3-0.8,0.7-1.3,1.3-1.7c0.6-0.4,1.3-0.6,2.2-0.6h18.5c0.9,0,1.6,0.2,2.2,0.6c0.6,0.4,1,0.9,1.3,1.7l6,15.6
				c0.9,2.4,1.6,4.5,2,6.3c0.4,1.8,0.7,3.4,0.7,4.7v18.1c0,0.9-0.2,1.5-0.6,1.9c-0.4,0.4-1,0.6-1.9,0.6H33.8c-0.9,0-1.6-0.2-2-0.6
				c-0.4-0.4-0.6-1-0.6-1.9v-9.6H18.9V-94.5z"/>
		</g>
	</g>
</g>
<g>
	<g transform="translate(158.133163, 232.362676)">
		<g>
			<path class="st2" d="M54.9-92h-35c-0.9,0-1.5-0.2-1.9-0.6c-0.4-0.4-0.6-1-0.6-1.9V-139c0-0.9,0.2-1.5,0.6-1.9
				c0.4-0.4,1-0.6,1.9-0.6h10.6c0.9,0,1.5,0.2,1.9,0.6c0.4,0.4,0.6,1,0.6,1.9v34h9.4v-11.1c0-0.9,0.2-1.5,0.6-1.9
				c0.4-0.4,1-0.6,1.9-0.6h10c0.9,0,1.5,0.2,1.9,0.6c0.4,0.4,0.6,1,0.6,1.9v21.6c0,0.9-0.2,1.5-0.6,1.9C56.4-92.2,55.8-92,54.9-92z"
				/>
		</g>
	</g>
</g>
<g>
	<g transform="translate(193.970442, 232.362676)">
		<g>
			<path class="st2" d="M66.9-92h-35c-0.9,0-1.5-0.2-1.9-0.6c-0.4-0.4-0.6-1-0.6-1.9V-139c0-0.9,0.2-1.5,0.6-1.9
				c0.4-0.4,1-0.6,1.9-0.6h10.6c0.9,0,1.5,0.2,1.9,0.6c0.4,0.4,0.6,1,0.6,1.9v34h9.4v-11.1c0-0.9,0.2-1.5,0.6-1.9
				c0.4-0.4,1-0.6,1.9-0.6h10c0.9,0,1.5,0.2,1.9,0.6c0.4,0.4,0.6,1,0.6,1.9v21.6c0,0.9-0.2,1.5-0.6,1.9C68.4-92.2,67.7-92,66.9-92z"
				/>
		</g>
	</g>
</g>
<g>
	<g transform="translate(229.807721, 232.362676)">
		<g>
			<path class="st2" d="M75.7-92H43.8c-0.9,0-1.5-0.2-1.9-0.6c-0.4-0.4-0.6-1-0.6-1.9V-139c0-0.9,0.2-1.5,0.6-1.9
				c0.4-0.4,1-0.6,1.9-0.6h31.9c0.9,0,1.5,0.2,1.9,0.6c0.4,0.4,0.6,1,0.6,1.9v8c0,0.9-0.2,1.5-0.6,1.9c-0.4,0.4-1,0.6-1.9,0.6h-19
				v5.3h13.4c0.9,0,1.5,0.2,1.9,0.6c0.4,0.4,0.6,1,0.6,1.9v7.4c0,0.9-0.2,1.5-0.6,1.9c-0.4,0.4-1,0.6-1.9,0.6H56.7v5.9h19
				c0.9,0,1.5,0.2,1.9,0.6c0.4,0.4,0.6,1,0.6,1.9v8c0,0.9-0.2,1.5-0.6,1.9C77.2-92.2,76.6-92,75.7-92z"/>
		</g>
	</g>
</g>
<g>
	<g transform="translate(263.530856, 232.362676)">
		<g>
			<path class="st2" d="M76-92H64.8c-0.9,0-1.5-0.2-1.9-0.6c-0.4-0.4-0.6-1-0.6-1.9v-33.7H52.2c-0.9,0-1.5-0.2-1.9-0.6
				c-0.4-0.4-0.6-1-0.6-1.9v-8.3c0-0.9,0.2-1.5,0.6-1.9c0.4-0.4,1-0.6,1.9-0.6h36.3c0.9,0,1.5,0.2,1.9,0.6c0.4,0.4,0.6,1,0.6,1.9
				v8.3c0,0.9-0.2,1.5-0.6,1.9c-0.4,0.4-1,0.6-1.9,0.6H78.4v33.7c0,0.9-0.2,1.5-0.6,1.9C77.4-92.2,76.8-92,76-92z"/>
		</g>
	</g>
</g>
</svg>
