<svg
    xmlns="http://www.w3.org/2000/svg"
    xmlns:xlink="http://www.w3.org/1999/xlink" width="250" zoomAndPan="magnify" viewBox="0 0 187.5 187.499992" height="250" preserveAspectRatio="xMidYMid meet" version="1.0">
    <defs>
        <clipPath id="0ac5354a28">
            <path d="M 22.765625 42.789062 L 164.515625 42.789062 L 164.515625 144.789062 L 22.765625 144.789062 Z M 22.765625 42.789062 " clip-rule="nonzero"/>
        </clipPath>
    </defs>
    <g clip-path="url(#0ac5354a28)">
        <path fill="#000" d="M 159.65625 114.007812 L 159.65625 111.371094 C 159.65625 107.457031 156.488281 104.28125 152.582031 104.28125 L 151.152344 104.28125 C 151.230469 103.042969 151.273438 101.796875 151.273438 100.554688 C 151.273438 96.636719 150.878906 92.71875 150.101562 88.914062 C 149.34375 85.203125 148.214844 81.554688 146.742188 78.066406 C 145.296875 74.644531 143.507812 71.34375 141.425781 68.253906 C 139.367188 65.195312 137 62.320312 134.390625 59.707031 C 131.785156 57.09375 128.914062 54.722656 125.863281 52.65625 C 122.78125 50.570312 119.488281 48.777344 116.074219 47.328125 C 112.59375 45.855469 108.953125 44.722656 105.25 43.960938 C 101.453125 43.183594 97.546875 42.789062 93.640625 42.789062 C 89.730469 42.789062 85.824219 43.183594 82.027344 43.960938 C 78.324219 44.722656 74.683594 45.855469 71.207031 47.328125 C 67.789062 48.777344 64.496094 50.570312 61.414062 52.65625 C 58.363281 54.722656 55.496094 57.09375 52.886719 59.707031 C 50.28125 62.320312 47.914062 65.195312 45.851562 68.253906 C 43.769531 71.34375 41.980469 74.644531 40.539062 78.066406 C 39.066406 81.554688 37.933594 85.203125 37.179688 88.914062 C 36.402344 92.71875 36.007812 96.636719 36.007812 100.554688 C 36.007812 101.796875 36.046875 103.042969 36.125 104.28125 L 34.695312 104.28125 C 30.789062 104.28125 27.621094 107.457031 27.621094 111.371094 L 27.621094 114.007812 C 24.863281 114.527344 22.773438 116.957031 22.773438 119.875 L 22.773438 129.191406 C 22.773438 132.109375 24.863281 134.539062 27.621094 135.0625 L 27.621094 137.695312 C 27.621094 141.613281 30.789062 144.785156 34.695312 144.785156 L 45.402344 144.785156 C 49.308594 144.785156 52.476562 141.613281 52.476562 137.695312 L 52.476562 111.371094 C 52.476562 107.457031 49.308594 104.28125 45.402344 104.28125 L 42.773438 104.28125 C 42.683594 103.050781 42.636719 101.808594 42.636719 100.554688 C 42.636719 72.367188 65.515625 49.433594 93.640625 49.433594 C 121.761719 49.433594 144.644531 72.367188 144.644531 100.554688 C 144.644531 101.808594 144.597656 103.050781 144.507812 104.28125 L 141.878906 104.28125 C 137.972656 104.28125 134.804688 107.457031 134.804688 111.371094 L 134.804688 137.695312 C 134.804688 141.613281 137.972656 144.785156 141.878906 144.785156 L 152.585938 144.785156 C 156.492188 144.785156 159.65625 141.613281 159.65625 137.695312 L 159.65625 135.0625 C 162.417969 134.539062 164.507812 132.113281 164.507812 129.191406 L 164.507812 119.875 C 164.511719 116.960938 162.425781 114.535156 159.660156 114.011719 Z M 159.65625 114.007812 " fill-opacity="1" fill-rule="nonzero"/>
    </g>
</svg>