<svg
    xmlns="http://www.w3.org/2000/svg"
    xmlns:xlink="http://www.w3.org/1999/xlink" width="250" zoomAndPan="magnify" viewBox="0 0 187.5 187.499992" height="250" preserveAspectRatio="xMidYMid meet" version="1.0">
    <defs>
        <clipPath id="cf125fbd86">
            <path d="M 37.699219 130 L 149.449219 130 L 149.449219 168.871094 L 37.699219 168.871094 Z M 37.699219 130 " clip-rule="nonzero"/>
        </clipPath>
        <clipPath id="9e9815bc02">
            <path d="M 37.699219 28.621094 L 149.449219 28.621094 L 149.449219 141 L 37.699219 141 Z M 37.699219 28.621094 " clip-rule="nonzero"/>
        </clipPath>
    </defs>
    <g clip-path="url(#cf125fbd86)">
        <path fill="#000" d="M 135.296875 137.765625 C 135.394531 137.230469 135.476562 136.695312 135.476562 136.148438 C 135.476562 134.136719 134.6875 132.21875 133.371094 130.402344 C 122.714844 139.769531 108.8125 145.496094 93.574219 145.496094 C 78.335938 145.496094 64.433594 139.769531 53.777344 130.402344 C 52.460938 132.21875 51.667969 134.136719 51.667969 136.148438 C 51.667969 136.695312 51.753906 137.230469 51.851562 137.765625 C 43.074219 141.070312 37.703125 145.402344 37.703125 150.171875 C 37.703125 160.5 62.714844 168.871094 93.574219 168.871094 C 124.433594 168.871094 149.445312 160.5 149.445312 150.171875 C 149.445312 145.402344 144.074219 141.070312 135.296875 137.765625 Z M 135.296875 137.765625 " fill-opacity="1" fill-rule="nonzero"/>
    </g>
    <g clip-path="url(#9e9815bc02)">
        <path fill="#000" d="M 93.574219 28.621094 C 62.71875 28.621094 37.703125 53.742188 37.703125 84.722656 C 37.703125 115.703125 62.71875 140.824219 93.574219 140.824219 C 124.429688 140.824219 149.445312 115.703125 149.445312 84.722656 C 149.445312 53.742188 124.429688 28.621094 93.574219 28.621094 Z M 126.15625 124.402344 C 122.023438 127.824219 117.328125 130.566406 112.257812 132.566406 C 106.464844 134.851562 100.175781 136.148438 93.574219 136.148438 C 86.972656 136.148438 80.679688 134.851562 74.890625 132.566406 C 69.820312 130.566406 65.121094 127.824219 60.992188 124.402344 C 49.613281 114.972656 42.355469 100.703125 42.355469 84.722656 C 42.355469 56.328125 65.289062 33.296875 93.574219 33.296875 C 121.859375 33.296875 144.789062 56.328125 144.789062 84.722656 C 144.789062 100.703125 137.535156 114.972656 126.15625 124.402344 Z M 126.15625 124.402344 " fill-opacity="1" fill-rule="nonzero"/>
    </g>
    <path fill="#000" d="M 47.011719 84.722656 L 51.667969 84.722656 C 51.667969 61.484375 70.429688 42.648438 93.574219 42.648438 L 93.574219 37.972656 C 67.859375 37.972656 47.011719 58.902344 47.011719 84.722656 Z M 47.011719 84.722656 " fill-opacity="1" fill-rule="nonzero"/>
</svg>