<svg
    xmlns="http://www.w3.org/2000/svg"
    xmlns:xlink="http://www.w3.org/1999/xlink" width="250" zoomAndPan="magnify" viewBox="0 0 187.5 187.499992" height="250" preserveAspectRatio="xMidYMid meet" version="1.0">
    <defs>
        <clipPath id="a0652fb0ce">
            <path d="M 44 30 L 150 30 L 150 154 L 44 154 Z M 44 30 " clip-rule="nonzero"/>
        </clipPath>
        <clipPath id="d739de6f4a">
            <path d="M 65.859375 13.746094 L 168.511719 53.964844 L 121.449219 174.074219 L 18.800781 133.855469 Z M 65.859375 13.746094 " clip-rule="nonzero"/>
        </clipPath>
        <clipPath id="186217e006">
            <path d="M 65.859375 13.746094 L 168.511719 53.964844 L 121.449219 174.074219 L 18.800781 133.855469 Z M 65.859375 13.746094 " clip-rule="nonzero"/>
        </clipPath>
        <clipPath id="0031b87c19">
            <path d="M 65.773438 13.96875 L 172.257812 55.691406 L 125.371094 175.355469 L 18.886719 133.632812 Z M 65.773438 13.96875 " clip-rule="nonzero"/>
        </clipPath>
        <clipPath id="42d481f48d">
            <path d="M 65.773438 13.96875 L 168.464844 54.207031 L 121.578125 173.867188 L 18.886719 133.632812 Z M 65.773438 13.96875 " clip-rule="nonzero"/>
        </clipPath>
    </defs>
    <g clip-path="url(#a0652fb0ce)">
        <g clip-path="url(#d739de6f4a)">
            <g clip-path="url(#186217e006)">
                <g clip-path="url(#0031b87c19)">
                    <g clip-path="url(#42d481f48d)">
                        <path fill="#FF9C00" d="M 121.011719 40.5625 C 123.445312 41.457031 124.703125 44.164062 123.800781 46.621094 C 123.667969 46.957031 123.503906 47.277344 123.308594 47.585938 L 100.832031 81.683594 C 99.445312 83.796875 99.996094 86.652344 102.121094 88.042969 C 103.777344 89.152344 105.949219 89.042969 107.515625 87.789062 L 137.253906 63.8125 C 139.292969 62.1875 142.257812 62.5 143.886719 64.523438 C 145.519531 66.570312 145.183594 69.539062 143.152344 71.191406 L 110.628906 97.382812 C 106.367188 100.816406 105.683594 107.058594 109.101562 111.324219 C 111.160156 113.902344 114.382812 115.28125 117.6875 114.976562 L 130.828125 113.769531 C 134.15625 113.457031 137.089844 115.914062 137.375 119.246094 C 137.683594 122.582031 135.222656 125.527344 131.902344 125.824219 L 112.988281 127.558594 C 108.050781 128.011719 103.433594 130.246094 100.003906 133.851562 L 93.375 140.828125 C 83.632812 151.046875 67.46875 151.453125 57.292969 141.707031 C 49.921875 134.660156 47.46875 123.878906 51.027344 114.296875 L 55.507812 102.226562 C 56.484375 99.585938 56.917969 96.769531 56.765625 93.976562 L 54.765625 55.488281 C 54.652344 53.613281 56.085938 52.019531 57.953125 51.902344 C 59.832031 51.8125 61.421875 53.242188 61.515625 55.109375 L 62.953125 82.882812 C 63.074219 85.414062 65.230469 87.355469 67.757812 87.230469 C 69.8125 87.128906 71.535156 85.667969 72 83.652344 L 82.371094 38.863281 C 83.035156 36.332031 85.605469 34.816406 88.128906 35.476562 C 90.546875 36.117188 92.046875 38.515625 91.542969 40.972656 L 83.863281 74.1875 C 83.292969 76.679688 84.828125 79.128906 87.292969 79.691406 C 89.144531 80.109375 91.078125 79.34375 92.121094 77.75 L 115.441406 42.386719 C 116.660156 40.550781 118.96875 39.800781 121.011719 40.5625 Z M 122.609375 36.238281 C 118.566406 34.75 114.011719 36.238281 111.628906 39.871094 L 88.316406 75.21875 L 96.015625 41.996094 C 97.175781 36.980469 94.074219 31.972656 89.074219 30.820312 C 84.054688 29.664062 79.0625 32.808594 77.902344 37.824219 L 67.539062 82.636719 L 66.078125 54.875 C 65.847656 50.46875 62.101562 47.097656 57.707031 47.339844 C 53.3125 47.582031 49.9375 51.34375 50.171875 55.746094 L 52.195312 94.226562 C 52.300781 96.40625 51.964844 98.585938 51.21875 100.640625 L 46.738281 112.710938 C 40.921875 128.339844 48.859375 145.703125 64.425781 151.472656 C 75.6875 155.65625 88.355469 152.707031 96.667969 143.984375 L 103.308594 137.035156 C 105.960938 134.222656 109.558594 132.492188 113.398438 132.148438 L 132.308594 130.414062 C 138.148438 129.867188 142.460938 124.683594 141.933594 118.835938 C 141.417969 112.992188 136.242188 108.671875 130.40625 109.214844 L 117.265625 110.421875 C 114.359375 110.6875 111.765625 108.535156 111.511719 105.605469 C 111.347656 103.828125 112.089844 102.078125 113.46875 100.960938 L 145.992188 74.769531 C 149.957031 71.46875 150.507812 65.597656 147.222656 61.636719 C 144.015625 57.777344 138.339844 57.171875 134.390625 60.246094 L 104.636719 84.214844 L 127.113281 50.117188 C 129.949219 45.816406 128.777344 40.042969 124.492188 37.207031 C 123.921875 36.8125 123.28125 36.484375 122.609375 36.238281 " fill-opacity="1" fill-rule="nonzero"/>
                    </g>
                </g>
            </g>
        </g>
    </g>
</svg>