<?xml version="1.0" encoding="UTF-8"?>
<svg width="32px" height="23px" viewBox="0 0 32 23" version="1.1" xmlns="http://www.w3.org/2000/svg" xmlns:xlink="http://www.w3.org/1999/xlink">
    <!-- Generator: Sketch 63.1 (92452) - https://sketch.com -->
    <title>Path</title>
    <desc>Created with Sketch.</desc>
    <g id="Symbols" stroke="none" stroke-width="1" fill="none" fill-rule="evenodd">
        <g id="Button/next" transform="translate(-23.000000, -27.000000)" fill="#FFFFFF" fill-rule="nonzero">
            <path d="M44.205,28.007 C43.776,27.563 43.062,27.563 42.618,28.007 C42.189,28.436 42.189,29.15 42.618,29.578 L50.665,37.625 L24.111,37.625 C23.492,37.626 23,38.118 23,38.737 C23,39.356 23.492,39.864 24.111,39.864 L50.665,39.864 L42.618,47.896 C42.189,48.34 42.189,49.055 42.618,49.483 C43.062,49.927 43.777,49.927 44.205,49.483 L54.157,39.531 C54.601,39.102 54.601,38.388 54.157,37.96 L44.205,28.007 Z" id="Path"></path>
        </g>
    </g>
</svg>