<?xml version="1.0" encoding="utf-8"?>
<!-- Generator: Adobe Illustrator 27.3.1, SVG Export Plug-In . SVG Version: 6.00 Build 0)  -->
<svg version="1.1" id="Ebene_1" xmlns="http://www.w3.org/2000/svg" xmlns:xlink="http://www.w3.org/1999/xlink" x="0px" y="0px"
	 viewBox="0 0 266.3 256.9" style="enable-background:new 0 0 266.3 256.9;" xml:space="preserve">
<style type="text/css">
	.st0{fill:#FFFFFF;}
	.st1{fill:#243047;}
</style>
<g>
	<g>
		<g>
			<g>
				<path class="st0" d="M215.8,66.9c-0.2,10.2-3.3,19.7-8.6,27.5c11.4,15.4,18.2,34.5,18.2,55.1c0,51.1-41.5,92.6-92.6,92.6
					s-92.6-41.5-92.6-92.6c0-20.6,6.8-39.7,18.2-55.1c-5.4-8-8.6-17.7-8.7-28.1c-3.4,1.5-7.1,2.3-11,2.3
					c-15.4,0-27.8-12.5-27.8-27.8c0-15.4,12.5-27.8,27.8-27.8c11.7,0,21.6,7.2,25.8,17.3c8.9-9,21.2-14.5,34.8-14.5
					c12.9,0,24.7,1.6,33.5,9.9c8.8-8.2,20.6-9.9,33.5-9.9c13,0,24.9,5.1,33.8,13.5c4.4-9.6,14.1-16.3,25.3-16.3
					c15.4,0,27.8,12.5,27.8,27.8c0,15.4-12.5,27.8-27.8,27.8C222,68.5,218.8,67.9,215.8,66.9z"/>
				<g>
					<path class="st0" d="M213.3,66.9c-0.2,9.4-3.1,18.5-8.3,26.3c-0.5,0.7-0.5,1.9,0,2.5c9,12.2,15,26.6,17,41.7
						c1.8,13.2,0.6,26.9-3.4,39.6C215,188.3,209,199,201.2,208c-7.9,9.2-17.5,16.7-28.3,22.1c-11,5.5-23.2,8.7-35.5,9.3
						c-12.6,0.6-25.2-1.3-37-5.8c-11.1-4.2-21.4-10.8-30-19.1c-8.7-8.4-15.7-18.4-20.5-29.5c-5-11.4-7.4-24-7.3-36.4
						c0.1-15.3,4.2-30.5,11.8-43.8c1.8-3.2,3.8-6.2,6-9.2c0.5-0.7,0.5-1.9,0-2.5c-5.3-8-8.2-17.3-8.3-26.9c0-2.1-2.1-2.9-3.8-2.2
						c-7.8,3.3-17,2.3-24-2.5c-6-4.1-10.2-10.9-10.9-18.2c-0.8-7.7,1.9-15.4,7.4-20.8c5.5-5.4,13.3-8,20.9-7.1
						c8.8,1.1,16.8,7.1,20.2,15.3c0.7,1.7,2.7,2.6,4.2,1.1c6.6-6.5,14.9-11,24-12.9c4.7-0.9,9.5-1,14.2-0.8c4.6,0.2,9.3,0.7,13.7,2
						c4.8,1.4,9.2,3.7,12.8,7c1,0.9,2.5,0.9,3.5,0c6.5-6,15.2-8.2,23.9-8.9c9.3-0.7,18.6,0,27.2,4c4.6,2.2,8.9,5,12.6,8.5
						c1.1,1,3.2,1,3.9-0.5c3.4-7.3,9.8-12.7,17.8-14.5c7.4-1.6,15.4,0.2,21.3,5c5.8,4.7,9.3,11.8,9.5,19.2
						c0.1,7.5-3.1,14.7-8.7,19.7c-7,6.1-16.8,7.7-25.5,4.6c-1.3-0.5-2.7,0.5-3.1,1.7c-0.4,1.4,0.5,2.6,1.7,3.1
						c9.1,3.2,19.6,1.9,27.5-3.7c7.3-5.2,12-13.2,12.9-22.1c0.9-8.8-2.4-17.8-8.6-24.1c-6.3-6.3-15.3-9.7-24.2-8.9
						c-10.7,1-20.3,7.6-24.9,17.4c1.3-0.2,2.6-0.3,3.9-0.5c-7.3-6.9-16.5-11.7-26.4-13.4c-5.2-0.9-10.5-0.9-15.7-0.6
						c-4.9,0.3-9.8,0.9-14.5,2.4c-5.3,1.6-10.1,4.3-14.1,8c1.2,0,2.4,0,3.5,0c-7.6-7-17.5-9.7-27.7-10.3c-5.4-0.4-10.7-0.4-16,0.5
						c-5,0.8-9.9,2.4-14.5,4.7c-5.1,2.5-9.7,5.9-13.7,9.9c1.4,0.4,2.8,0.7,4.2,1.1c-3.7-8.9-11.2-15.8-20.6-18.2
						C37,9,27.2,11.2,19.8,17C12.7,22.6,8.4,31.3,8.3,40.4c-0.1,9,3.9,17.9,10.9,23.7c9,7.3,21,8.9,31.7,4.4
						c-1.3-0.7-2.5-1.4-3.8-2.2c0.1,10.4,3.2,20.7,9,29.4c0-0.8,0-1.7,0-2.5c-9.4,12.7-15.5,27.6-17.6,43.3
						c-1.9,14-0.8,28.4,3.5,41.8c3.9,12.2,10.2,23.5,18.5,33.2c8.2,9.5,18.3,17.5,29.6,23.1c11.7,5.9,24.6,9.2,37.7,9.9
						c13.1,0.7,26.4-1.4,38.7-6.1c11.9-4.6,22.9-11.5,32.1-20.3c9.1-8.7,16.5-19.3,21.4-30.9c5.2-12.2,7.9-25.4,7.8-38.6
						c-0.1-16.1-4.4-32-12.3-46c-1.9-3.3-3.9-6.5-6.2-9.5c0,0.8,0,1.7,0,2.5c5.7-8.5,8.8-18.6,9-28.8
						C218.4,63.6,213.4,63.6,213.3,66.9z"/>
				</g>
			</g>
			<g>
				<path class="st1" d="M132.7,246.5c-53.5,0-97-43.5-97-97c0-19.9,6-39,17.3-55.3c-4-6.7-6.5-14.2-7.4-22C43.3,72.7,41,73,38.6,73
					C20.9,73,6.4,58.5,6.4,40.7S20.9,8.5,38.6,8.5c11.1,0,21.2,5.6,27,14.7c9.5-7.7,21.2-11.8,33.5-11.8c11.1,0,23.5,1.1,33.5,8.5
					c10-7.4,22.5-8.5,33.5-8.5c11.8,0,23.2,3.9,32.6,11.1c6-8.6,15.9-13.9,26.5-13.9c17.8,0,32.3,14.5,32.3,32.3S243.1,73,225.4,73
					c-1.8,0-3.7-0.2-5.5-0.5c-0.9,7.7-3.4,15.1-7.4,21.7c11.3,16.3,17.3,35.3,17.3,55.3C229.8,203,186.2,246.5,132.7,246.5z
					 M49.7,61.8c0.8,0,1.7,0.2,2.4,0.7c1.2,0.8,2,2.2,2,3.7c0,9.2,2.8,18.1,7.9,25.7c1.1,1.6,1,3.6-0.1,5.1
					c-11.3,15.3-17.3,33.4-17.3,52.5c0,48.6,39.6,88.2,88.2,88.2s88.2-39.6,88.2-88.2c0-19.1-6-37.2-17.3-52.5
					c-1.1-1.5-1.2-3.6-0.1-5.1c5-7.4,7.7-16.1,7.9-25.1c0-1.4,0.7-2.8,1.9-3.6c1.2-0.8,2.7-1,4-0.5c2.6,0.9,5.3,1.4,8,1.4
					c12.9,0,23.4-10.5,23.4-23.4s-10.5-23.4-23.4-23.4c-9.1,0-17.5,5.4-21.3,13.7c-0.6,1.3-1.8,2.2-3.2,2.5
					c-1.4,0.3-2.9-0.1-3.9-1.1c-8.4-7.9-19.3-12.3-30.7-12.3c-11,0-22.3,1-30.5,8.7c-1.7,1.6-4.3,1.6-6,0
					c-8.2-7.6-19.5-8.7-30.5-8.7c-11.9,0-23.2,4.7-31.7,13.2c-1,1-2.6,1.5-4,1.2c-1.5-0.3-2.7-1.3-3.2-2.7
					C56.7,23,48.2,17.3,38.6,17.3c-12.9,0-23.4,10.5-23.4,23.4s10.5,23.4,23.4,23.4c3.2,0,6.3-0.6,9.3-1.9
					C48.5,62,49.1,61.8,49.7,61.8z"/>
				<g>
					<path class="st0" d="M132.7,244c-12.7,0-25.5-2.5-37.2-7.6c-11.4-5-21.8-12.1-30.5-21c-8.6-8.8-15.5-19.3-20-30.7
						c-4.9-12.2-7.2-25.3-6.7-38.5c0.5-16.1,5.2-31.9,13.6-45.7c1-1.7,2.2-3.4,3.3-5.1c0.5-0.7,0.4-1.8,0-2.5
						c-3.8-6.3-6.2-13.4-7.1-20.8c-0.2-1.7-1.4-2.8-3.2-2.4c-8.6,1.8-17.7-0.2-24.6-5.7C14,59.2,9.7,51.6,9,43.5
						c-0.7-8.2,1.9-16.4,7.4-22.5c5.4-6,13.1-9.8,21.2-10c10.3-0.3,20.3,4.7,25.9,13.4c1,1.5,2.6,1.5,3.9,0.5
						c7-5.6,15.5-9.3,24.5-10.6c4.3-0.6,8.8-0.6,13.1-0.4c4.3,0.2,8.6,0.7,12.8,1.8c4.9,1.2,9.5,3.3,13.6,6.3c0.6,0.5,1.9,0.5,2.5,0
						c7.1-5.2,15.7-7.4,24.5-7.9c8.9-0.6,17.6-0.1,25.9,3.1c4.7,1.8,9.1,4.3,13.2,7.4c1.1,0.9,2.7,0.1,3.4-0.9
						c5.2-7.4,13.8-12.2,22.8-12.6c8.1-0.4,16.1,2.5,22,8.1c5.8,5.5,9.2,13.2,9.3,21.2c0.1,8-3.1,15.8-8.8,21.5
						c-6.7,6.6-16.4,9.8-25.7,8.2c-1.7-0.3-3,0.7-3.2,2.4c-0.9,7.2-3.3,14.2-7,20.5c-0.4,0.7-0.5,1.8,0,2.5
						c9.2,13.2,15,28.6,16.5,44.7c1.3,13.6-0.3,27.2-4.7,40.1c-4,11.6-10.4,22.5-18.5,31.7c-8.2,9.3-18.2,17-29.4,22.5
						c-11.4,5.6-23.9,8.8-36.5,9.5C136,244,134.4,244,132.7,244c-3.2,0-3.2,5,0,5c13.6,0,27-2.8,39.5-8.2
						c11.9-5.1,22.8-12.7,31.8-21.9c9.1-9.4,16.4-20.5,21.2-32.7c5.1-12.7,7.4-26.5,7-40.2c-0.6-16.8-5.4-33.4-14.1-47.8
						c-1.1-1.8-2.2-3.5-3.4-5.3c0,0.8,0,1.7,0,2.5c4.2-7.1,6.7-14.9,7.7-23c-1.1,0.8-2.1,1.6-3.2,2.4c10.1,1.7,20.2-0.9,28.1-7.3
						c7.2-5.8,11.7-14.5,12.6-23.7c0.9-9.5-2.3-19-8.6-26.1c-6.1-7-15-11.2-24.3-11.7c-12-0.6-23.6,5.3-30.4,15.1
						c1.1-0.3,2.3-0.6,3.4-0.9c-7.8-5.9-17-9.7-26.6-10.9c-4.6-0.6-9.2-0.6-13.8-0.3c-4.6,0.2-9.1,0.8-13.6,1.9
						c-5.2,1.3-10.2,3.6-14.6,6.8c0.8,0,1.7,0,2.5,0c-7.9-5.8-17.7-8-27.4-8.7C97,8.4,87.4,9.1,78.4,12.8c-5.3,2.1-10.1,5-14.5,8.5
						c1.3,0.2,2.6,0.3,3.9,0.5C62,12.9,52.4,7.1,41.7,6.1c-9.7-0.9-19.4,2.5-26.6,9C8.1,21.6,4,30.8,3.9,40.4
						c-0.1,9.5,3.9,18.9,10.8,25.5c8.4,8,20.2,11.2,31.6,8.8c-1.1-0.8-2.1-1.6-3.2-2.4c1,8.2,3.5,16.1,7.7,23.3c0-0.8,0-1.7,0-2.5
						c-9.6,13.9-15.5,30-17.1,46.8c-1.4,14.1,0.2,28.5,4.8,41.9c4.3,12.4,11,23.9,19.7,33.8c8.6,9.7,19.1,17.7,30.7,23.4
						c12.1,5.9,25.3,9.4,38.7,10.1c1.7,0.1,3.4,0.1,5.1,0.1C136,249,136,244,132.7,244z"/>
					<path class="st0" d="M49.7,64.3c1.8,0.1,1.9,1.6,1.9,3c0.1,2.2,0.3,4.3,0.6,6.4c0.6,4.1,1.8,8,3.4,11.8
						c0.8,1.9,1.7,3.7,2.8,5.5c0.7,1.2,2.2,2.6,1.7,4.1c-0.3,0.8-1,1.4-1.4,2.1c-0.6,0.9-1.2,1.7-1.8,2.6c-1.1,1.7-2.2,3.5-3.2,5.2
						c-7.9,14.1-12,30.2-11.6,46.4c0.3,13.3,3.5,26.3,9.4,38.2c5.6,11.4,13.7,21.6,23.5,29.7c9.9,8.2,21.5,14.3,34,17.7
						c13,3.5,26.7,4.1,40,1.7c12.7-2.3,24.9-7.4,35.5-14.7c10.5-7.3,19.4-16.7,26-27.7c6.8-11.2,11-23.9,12.5-36.9
						c1.7-15.5-0.7-31.4-6.8-45.7c-1.6-3.7-3.5-7.4-5.6-10.9c-1.1-1.8-2.2-3.5-3.4-5.2c-0.8-1.1-2.3-2.5-1.8-3.9
						c0.3-0.8,0.9-1.5,1.4-2.2c0.6-0.9,1.1-1.9,1.6-2.8c1-1.9,1.9-3.9,2.6-5.9c1.5-3.9,2.3-8,2.7-12.2c0.1-1,0.2-2,0.2-3
						c0-0.7,0-1.4,0.4-2c1.1-1.4,2.8-0.4,4.1,0c3.9,1.1,8,1.2,11.9,0.5c6.6-1.2,12.4-5.2,16.3-10.6c4-5.6,5.4-12.6,4.3-19.3
						c-1.1-6.6-4.9-12.5-10.3-16.5c-5.6-4.1-12.7-5.7-19.5-4.6c-7,1.1-13.4,5.4-17.3,11.3c-0.5,0.7-0.9,1.4-1.3,2.2
						c-0.4,0.7-0.6,1.5-1.2,2.1c-1.1,1-2.2,0.2-3.1-0.6c-2.9-2.7-6.2-5-9.8-6.9c-7-3.7-14.8-5.6-22.7-5.5c-7.8,0-15.7,0.6-22.9,3.7
						c-1.7,0.7-3.3,1.6-4.8,2.6c-0.8,0.6-1.6,1.2-2.4,1.8c-0.6,0.5-1.2,1.2-1.9,1.6c-1.4,0.7-2.4-0.5-3.3-1.3
						c-1.5-1.2-3.1-2.3-4.7-3.3c-6.8-3.8-14.8-4.8-22.5-5c-8-0.2-15.6,0.8-22.9,4c-3.5,1.5-6.8,3.5-9.8,5.9c-1.6,1.2-3,2.7-4.5,4
						c-0.9,0.7-2.2,0.8-2.9-0.2c-0.5-0.6-0.7-1.4-1-2.1c-0.4-0.8-0.8-1.6-1.3-2.3c-0.9-1.5-2.1-2.9-3.3-4.2
						c-2.5-2.6-5.4-4.6-8.7-5.9c-12.8-5.4-28.1,0.8-33.6,13.5c-2.7,6.3-2.9,13.6-0.3,20c2.5,6.1,7.3,11.3,13.4,14
						c3.1,1.4,6.3,2.1,9.6,2.3c2.1,0.1,4.2-0.1,6.2-0.5c1-0.2,1.9-0.4,2.8-0.7C47.6,65,48.6,64.4,49.7,64.3c3.2-0.2,3.2-5.2,0-5
						c-2.2,0.1-4.1,1.2-6.3,1.7c-1.9,0.4-3.8,0.6-5.8,0.5c-3-0.1-5.9-0.9-8.6-2.3c-5.2-2.7-9.1-7.6-10.6-13.3
						c-3.1-11.9,5.2-24.4,17.4-26c6.2-0.8,12.6,1.2,17.2,5.6c1.2,1.1,2.2,2.3,3.1,3.7c0.9,1.4,1.5,3,2.3,4.4c2.1,3.7,7.1,4.6,10.4,2
						c1.5-1.2,2.8-2.6,4.3-3.9c1.4-1.1,2.9-2.1,4.4-3c3.1-1.9,6.4-3.3,9.9-4.3c7.2-2.1,14.9-2,22.2-1.2c3.5,0.4,7.1,1.2,10.4,2.5
						c1.6,0.6,3.1,1.5,4.6,2.4c1.6,1,2.8,2.4,4.3,3.4c1.6,1,3.7,1.3,5.6,0.8c1.9-0.5,3.2-2,4.7-3.2c2.9-2.2,6.1-3.6,9.6-4.6
						c3.5-1,7.1-1.4,10.7-1.7c3.8-0.2,7.6-0.3,11.3,0.1c7.4,0.8,14.4,3.7,20.4,8c1.5,1.1,2.8,2.4,4.2,3.5c1.7,1.4,3.9,2,6,1.5
						c4-0.9,4.9-4.8,7-7.7c3.7-5.1,9.9-8.3,16.2-8.4c6-0.1,11.8,2.3,15.9,6.7c4.2,4.5,6.1,10.6,5.4,16.6c-0.6,5.7-3.8,11.2-8.5,14.5
						c-5.5,3.9-12.5,5-19,2.9c-2.1-0.7-4.1-0.8-6.1,0.2c-1.7,0.9-3.1,2.6-3.5,4.5c-0.4,2-0.3,4.1-0.5,6.1c-0.2,1.9-0.6,3.8-1.1,5.7
						c-1,3.8-2.5,7.5-4.4,10.9c-1,1.7-2.4,3.3-2.7,5.4c-0.3,2.2,0.4,4,1.6,5.7c9.2,12.6,14.9,27.7,16.2,43.3
						c1.1,13.3-0.9,26.6-5.8,39c-4.5,11.2-11.4,21.5-20.1,29.9c-8.7,8.5-19.3,15.1-30.8,19.1c-12.1,4.3-25,5.8-37.8,4.5
						c-12.3-1.3-24.3-5.4-34.9-11.7c-10.4-6.2-19.4-14.7-26.3-24.6c-7.1-10.2-11.9-21.9-14.1-34.2c-2.5-14.3-1.3-29.3,3.5-43.1
						c2.6-7.4,6.2-14.3,10.7-20.7c1.2-1.8,2.5-3.3,2.7-5.5c0.2-2.1-0.8-3.7-1.9-5.5c-2.1-3.3-3.7-6.8-4.8-10.6
						c-1.1-3.6-1.7-7.3-1.9-11.1c-0.1-2-0.1-3.8-1.3-5.5c-1.3-1.9-3.4-2.8-5.7-2.9C46.4,59.2,46.4,64.2,49.7,64.3z"/>
				</g>
			</g>
		</g>
		<g>
			<g>
				<path class="st0" d="M204.9,145c0-16.1-5.3-30.9-14.2-42.9c4.3-6.3,6.7-13.9,6.7-22.1c0-21.6-17.3-39.2-38.6-39.2
					c-10.1,0-19.3,3.9-26.1,10.3c-6.9-6.4-16.1-10.3-26.1-10.3C85.3,40.7,68,58.3,68,79.9c0,8.2,2.5,15.8,6.7,22.1
					c-8.9,12-14.2,26.9-14.2,42.9c0,39.9,32.3,72.2,72.2,72.2C172.6,217.1,204.9,184.8,204.9,145z"/>
				<g>
					<path class="st0" d="M207.4,145c0-15.8-5.1-31.4-14.5-44.2c0,0.8,0,1.7,0,2.5c9.1-13.6,9.4-31.9,0.7-45.7
						c-7.8-12.3-21.8-20-36.4-19.3c-9.8,0.4-19,4.4-26.2,11c1.2,0,2.4,0,3.5,0c-6.4-5.9-14.3-9.6-22.9-10.7
						c-7.5-1-15.2,0.3-22.1,3.5c-13.2,6-22.1,19-23.7,33.3c-1.1,9.7,1.4,19.8,6.8,27.9c0-0.8,0-1.7,0-2.5
						c-12.5,17-17.2,38.9-12.9,59.6c3.6,17.2,13.4,32.8,27.3,43.5c14.2,11,32.1,16.6,50,15.6c17.8-1,34.9-8.5,47.8-20.9
						c12.8-12.4,20.8-29.2,22.4-47C207.3,149.4,207.4,147.2,207.4,145c0-3.2-5-3.2-5,0c0,16.7-6.1,33.1-17.1,45.7
						c-10.9,12.5-26.1,20.8-42.5,23.3c-16.6,2.5-33.9-1.4-48-10.5c-13.7-8.9-24-22.6-28.7-38.1c-5.6-18.5-3.2-38.9,6.6-55.6
						c1.3-2.2,2.7-4.3,4.2-6.4c0.5-0.7,0.4-1.9,0-2.5c-8.1-12.1-8.5-28.1-0.8-40.5c6.8-10.9,19-17.4,31.8-17
						c8.6,0.3,16.8,3.8,23.1,9.6c1,0.9,2.5,0.9,3.5,0c10.5-9.7,26.4-12.5,39.4-6.3c11.4,5.4,19.5,16.6,20.9,29.2
						c0.9,8.9-1.2,17.7-6.2,25.1c-0.4,0.7-0.5,1.9,0,2.5c8.9,12.1,13.8,26.6,13.8,41.7C202.4,148.2,207.4,148.2,207.4,145z"/>
				</g>
			</g>
			<g>
				<path class="st1" d="M132.7,221.6c-42.2,0-76.6-34.4-76.6-76.6c0-15.5,4.6-30.4,13.3-43.1c-3.8-6.7-5.9-14.2-5.9-22
					c0-24,19.3-43.6,43.1-43.6c9.5,0,18.6,3.2,26.1,9c7.5-5.8,16.6-9,26.1-9c23.7,0,43.1,19.6,43.1,43.6c0,7.8-2,15.3-5.9,22
					c8.7,12.7,13.3,27.6,13.3,43.1C209.3,187.2,175,221.6,132.7,221.6z M106.6,45.1c-18.9,0-34.2,15.6-34.2,34.7
					c0,7.1,2.1,13.8,6,19.6c1.1,1.6,1,3.6-0.1,5.1C69.6,116.4,65,130.3,65,145c0,37.4,30.4,67.7,67.7,67.7
					c37.4,0,67.7-30.4,67.7-67.7c0-14.6-4.6-28.6-13.3-40.3c-1.1-1.5-1.2-3.6-0.1-5.1c3.9-5.8,6-12.6,6-19.6
					c0-19.2-15.3-34.7-34.2-34.7c-8.6,0-16.8,3.2-23.1,9.1c-1.7,1.6-4.3,1.6-6,0C123.4,48.4,115.2,45.1,106.6,45.1z"/>
				<g>
					<path class="st0" d="M132.7,219.1c-19.9,0-39.1-8.1-52.9-22.3c-14-14.3-21.6-33.8-21.1-53.7c0.4-14.3,4.9-28.1,12.9-39.9
						c0.5-0.7,0.4-1.8,0-2.5c-7.6-13.3-7.3-30,0.9-42.9c7.1-11.2,19.5-18.4,32.7-18.8c9.5-0.3,18.7,2.8,26.3,8.6
						c0.6,0.5,1.9,0.5,2.5,0C146.2,38,163,36,176.8,43c11.9,6,20.2,17.7,22.2,30.9c1.4,9.2-0.5,18.6-5.1,26.7
						c-0.4,0.7-0.5,1.8,0,2.5c13.2,19.4,16.5,44.2,8.8,66.4c-6.4,18.3-20.2,33.6-37.6,42.1C155.1,216.5,143.9,219,132.7,219.1
						c-3.2,0-3.2,5,0,5c21.1,0,41.7-8.7,56.5-23.8c14.9-15.2,23.2-36.2,22.6-57.5c-0.4-15-5.1-29.7-13.6-42.2c0,0.8,0,1.7,0,2.5
						c8.4-14.8,8.2-33.6-0.9-48c-8-12.7-22-20.8-37-21.3c-10.3-0.3-20.6,3-28.8,9.3c0.8,0,1.7,0,2.5,0
						c-13.7-10.5-32.5-12.1-47.9-4.4c-13.2,6.7-22.6,19.9-24.6,34.6c-1.4,10.3,0.6,20.8,5.7,29.8c0-0.8,0-1.7,0-2.5
						C53.4,121,49.8,147.5,58,170.8c6.8,19.6,21.4,36.1,40,45.2c10.8,5.3,22.7,8,34.7,8.1C136,224.1,136,219.1,132.7,219.1z"/>
					<path class="st0" d="M106.6,42.6C89.8,42.7,74.9,54.7,71,71c-2.3,9.4-0.8,19.6,4.1,28c0.5,0.8,1.5,1.9,1.6,2.9
						c0.1,0.9-0.6,1.5-1,2.2c-1.5,2.1-2.9,4.2-4.1,6.4c-2.5,4.4-4.5,9-5.9,13.8c-5.3,17.1-3.7,35.9,4.2,51.9
						c7,14.2,19,25.9,33.4,32.6c15.1,7,32.5,8.4,48.5,3.9c15.6-4.4,29.2-14.2,38.5-27.4c9.7-13.7,14.1-30.9,12.3-47.6
						c-1.1-10.1-4.3-19.8-9.5-28.5c-0.6-1-1.2-1.9-1.8-2.8c-0.7-1.1-1.7-2.1-2.3-3.2c-0.3-0.6-0.3-1.2,0-1.8
						c0.6-1.2,1.4-2.3,2.1-3.4c2.5-4.6,3.9-9.6,4.3-14.8c1.4-17-9.3-33.3-25.5-38.5c-8.8-2.8-18.4-2.1-26.7,1.9
						c-2.2,1-4.3,2.3-6.2,3.8c-0.9,0.7-1.8,1.5-2.7,2.2c-0.6,0.5-1.1,0.8-1.9,0.7c-0.9-0.2-1.5-1-2.1-1.5c-1-0.9-2.1-1.7-3.3-2.5
						c-1.9-1.3-4-2.4-6.2-3.4C116.3,43.7,111.5,42.7,106.6,42.6c-3.2,0-3.2,5,0,5c4.5,0,9.1,1,13.2,2.9c2.1,1,4,2.2,5.9,3.5
						c1.8,1.4,3.3,3.2,5.6,3.7c2.6,0.6,4.8-0.4,6.8-2.2c1.7-1.5,3.5-2.8,5.4-3.9c3.9-2.2,8.2-3.6,12.6-4c7.7-0.6,15.3,1.5,21.6,6.1
						c5.9,4.3,10.1,10.8,11.9,17.8c2.3,8.6,0.8,18-3.9,25.5c-1.3,2.1-2.3,4.3-1.5,6.8c0.7,2.3,2.6,4.3,3.9,6.3
						c2.5,4,4.6,8.3,6.2,12.7c5.6,15.9,5,33.8-2.1,49.1c-6.3,13.7-17.2,24.8-30.7,31.5c-13.9,6.8-30.1,8.4-45,4.5
						c-14.4-3.7-27.4-12.5-36.2-24.5c-9.4-12.8-13.8-28.6-12.5-44.4c0.8-9.4,3.7-18.6,8.4-26.8c1.2-2.1,2.6-4.2,4-6.2
						c1.4-2,1.9-4.4,1-6.7c-0.4-1.1-1.2-2-1.8-3c-0.6-1.1-1.2-2.2-1.8-3.4c-1-2.2-1.7-4.5-2.1-6.8C72.5,71,81.1,54.9,95.8,49.6
						c3.5-1.3,7.1-1.9,10.8-1.9C109.8,47.6,109.8,42.6,106.6,42.6z"/>
				</g>
			</g>
		</g>
	</g>
	<g>
		<g>
			<g>
				<path class="st1" d="M164.3,67.7c-7.5,0-13.6,6.1-13.6,13.6c0,7.5,6.1,13.6,13.6,13.6c7.5,0,13.6-6.1,13.6-13.6
					C177.8,73.8,171.8,67.7,164.3,67.7z"/>
				<g>
					<path class="st0" d="M164.3,65.2c-6.8,0.1-12.7,4.3-15.1,10.6c-2.3,6.1-0.4,13.5,4.7,17.7c5.3,4.3,12.8,5.1,18.7,1.5
						c5.8-3.5,8.7-10.4,7.4-17C178.6,70.6,171.7,65.3,164.3,65.2c-3.2,0-3.2,5,0,5c4.5,0.1,8.9,2.9,10.4,7.2
						c1.6,4.5,0.2,9.6-3.5,12.5c-3.6,2.9-8.7,3.1-12.6,0.7c-3.9-2.3-6-7.1-5.1-11.5c1.1-5.2,5.6-8.9,10.9-9
						C167.5,70.1,167.5,65.1,164.3,65.2z"/>
				</g>
			</g>
		</g>
		<g>
			<g>
				<path class="st1" d="M99.7,67.7c-7.5,0-13.6,6.1-13.6,13.6c0,7.5,6.1,13.6,13.6,13.6s13.6-6.1,13.6-13.6
					C113.3,73.8,107.2,67.7,99.7,67.7z"/>
				<g>
					<path class="st0" d="M99.7,65.2C93,65.3,87,69.4,84.6,75.8c-2.3,6.1-0.4,13.5,4.7,17.7c5.3,4.3,12.8,5.1,18.7,1.5
						c5.8-3.5,8.7-10.4,7.4-17C114,70.6,107.2,65.3,99.7,65.2c-3.2,0-3.2,5,0,5c4.5,0.1,8.9,2.9,10.4,7.2c1.6,4.5,0.2,9.6-3.5,12.5
						c-3.6,2.9-8.7,3.1-12.6,0.7c-3.9-2.3-6-7.1-5.1-11.5c1.1-5.2,5.6-8.9,10.9-9C102.9,70.1,103,65.1,99.7,65.2z"/>
				</g>
			</g>
		</g>
	</g>
	<g>
		<g>
			<g>
				<path class="st1" d="M132.5,116c0,2.9-2.5,5.3-5.6,5.3c-3.1,0-5.6-2.4-5.6-5.3c0-2.9,2.5-5.3,5.6-5.3
					C130,110.7,132.5,113.1,132.5,116z"/>
				<g>
					<path class="st0" d="M130,116c0,0.1-0.1,0.4,0,0.5c0,0,0.1-0.6,0-0.2c-0.1,0.2-0.1,0.5-0.2,0.7c-0.1,0.4,0.1-0.1,0.1-0.2
						c-0.1,0.1-0.1,0.2-0.2,0.3c-0.1,0.2-0.3,0.4-0.4,0.7c0.2-0.4,0.3-0.3,0.1-0.1c-0.1,0.1-0.2,0.2-0.3,0.3
						c-0.1,0.1-0.1,0.1-0.2,0.2c-0.4,0.4,0.5-0.3,0,0c-0.2,0.1-0.4,0.2-0.6,0.4c-0.1,0-0.3,0.1-0.3,0.2c0.1,0,0.2-0.1,0.3-0.1
						c-0.1,0-0.2,0.1-0.3,0.1c-0.2,0.1-0.5,0.1-0.8,0.2c-0.3,0.1,0-0.1,0.2,0c-0.1,0-0.3,0-0.4,0c-0.2,0-0.5,0-0.7,0
						c-0.6,0,0.6,0.1,0,0c-0.2,0-0.3-0.1-0.5-0.1c-0.1,0-0.2-0.1-0.3-0.1c-0.1,0-0.5-0.2-0.1,0c0.4,0.2-0.1,0-0.1-0.1
						c-0.1,0-0.2-0.1-0.3-0.1c-0.1-0.1-0.3-0.2-0.4-0.2c-0.3-0.2,0-0.1,0.2,0.1c-0.1-0.2-0.5-0.5-0.6-0.6c-0.2-0.2,0-0.2,0.1,0.2
						c0-0.1-0.1-0.2-0.2-0.3c-0.1-0.2-0.2-0.4-0.3-0.6c-0.2-0.4,0.1,0.4,0.1,0.1c0-0.1-0.1-0.2-0.1-0.4c0-0.1,0-0.2-0.1-0.3
						c0-0.1,0-0.2-0.1-0.3c0,0.4,0.1,0.5,0,0.3c0-0.2,0-0.5,0-0.7c0-0.5-0.1,0.6,0,0.1c0-0.1,0-0.2,0.1-0.3c0-0.1,0.1-0.2,0.1-0.4
						c0.1-0.3,0.2-0.3-0.1,0.1c0.1-0.2,0.2-0.4,0.3-0.6c0.1-0.1,0.2-0.2,0.2-0.4c0,0.1-0.4,0.4-0.1,0.2c0.2-0.2,0.3-0.3,0.5-0.5
						c0.3-0.3-0.1,0.1-0.2,0.1c0.1,0,0.3-0.2,0.4-0.3c0.2-0.1,0.6-0.2,0.7-0.4c-0.2,0.2-0.5,0.2-0.1,0.1c0.1,0,0.2-0.1,0.4-0.1
						c0.1,0,0.2-0.1,0.3-0.1c0.1,0,0.1,0,0.2,0c0.3,0,0.2,0-0.2,0c0.1,0.1,0.6,0,0.7,0c0.1,0,0.3,0,0.4,0c0.5,0-0.6-0.1,0,0
						c0.3,0.1,0.6,0.2,0.9,0.2c0.2,0.1,0.3,0.2-0.2-0.1c0.1,0.1,0.3,0.1,0.4,0.2c0.1,0.1,0.2,0.1,0.3,0.2c0.1,0,0.1,0.1,0.2,0.1
						c0.2,0.2,0.2,0.1-0.2-0.1c0.1,0.2,0.4,0.4,0.5,0.5c0,0,0.1,0.1,0.1,0.1c0.2,0.2,0.1,0.1-0.1-0.2c0,0.1,0.2,0.3,0.2,0.4
						c0.1,0.2,0.2,0.5,0.3,0.6c-0.3-0.4-0.1-0.3,0,0c0,0.1,0.1,0.3,0.1,0.4C130,115.7,130,115.8,130,116c0-0.5,0-0.6,0-0.3
						C130,115.8,130,115.9,130,116c0,1.3,1.1,2.6,2.5,2.5c1.3-0.1,2.5-1.1,2.5-2.5c-0.1-3.4-2.3-6.3-5.5-7.4c-3-1-6.7-0.1-8.8,2.4
						c-2.1,2.5-2.6,6.2-0.7,9.1c1.9,2.9,5.3,4.2,8.7,3.5c3.6-0.7,6.3-4,6.3-7.6c0-1.3-1.2-2.6-2.5-2.5
						C131.2,113.5,130.1,114.6,130,116z"/>
				</g>
			</g>
		</g>
		<g>
			<g>
				<path class="st1" d="M142.7,116c0,2.9-2.5,5.3-5.6,5.3c-3.1,0-5.6-2.4-5.6-5.3c0-2.9,2.5-5.3,5.6-5.3
					C140.2,110.7,142.7,113.1,142.7,116z"/>
				<g>
					<path class="st0" d="M140.2,116c0,0.1-0.1,0.4,0,0.5c0,0,0.1-0.6,0-0.2c-0.1,0.2-0.1,0.5-0.2,0.7c-0.1,0.4,0.1-0.1,0.1-0.2
						c-0.1,0.1-0.1,0.2-0.2,0.3c-0.1,0.2-0.3,0.4-0.4,0.7c0.2-0.4,0.3-0.3,0.1-0.1c-0.1,0.1-0.2,0.2-0.3,0.3
						c-0.1,0.1-0.1,0.1-0.2,0.2c-0.4,0.4,0.5-0.3,0,0c-0.2,0.1-0.4,0.2-0.6,0.4c-0.1,0-0.3,0.1-0.3,0.2c0.1,0,0.2-0.1,0.3-0.1
						c-0.1,0-0.2,0.1-0.3,0.1c-0.2,0.1-0.5,0.1-0.8,0.2c-0.3,0.1,0-0.1,0.2,0c-0.1,0-0.3,0-0.4,0c-0.2,0-0.5,0-0.7,0
						c-0.6,0,0.6,0.1,0,0c-0.2,0-0.3-0.1-0.5-0.1c-0.1,0-0.2-0.1-0.3-0.1c-0.1,0-0.5-0.2-0.1,0c0.4,0.2-0.1,0-0.1-0.1
						c-0.1,0-0.2-0.1-0.3-0.1c-0.1-0.1-0.3-0.2-0.4-0.2c-0.3-0.2,0-0.1,0.2,0.1c-0.1-0.2-0.5-0.5-0.6-0.6c-0.2-0.2,0-0.2,0.1,0.2
						c0-0.1-0.1-0.2-0.2-0.3c-0.1-0.2-0.2-0.4-0.3-0.6c-0.2-0.4,0.1,0.4,0.1,0.1c0-0.1-0.1-0.2-0.1-0.4c0-0.1,0-0.2-0.1-0.3
						c0-0.1,0-0.2-0.1-0.3c0,0.4,0.1,0.5,0,0.3c0-0.2,0-0.5,0-0.7c0-0.5-0.1,0.6,0,0.1c0-0.1,0-0.2,0.1-0.3c0-0.1,0.1-0.2,0.1-0.4
						c0.1-0.3,0.2-0.3-0.1,0.1c0.1-0.2,0.2-0.4,0.3-0.6c0.1-0.1,0.2-0.2,0.2-0.4c0,0.1-0.4,0.4-0.1,0.2c0.2-0.2,0.3-0.3,0.5-0.5
						c0.3-0.3-0.1,0.1-0.2,0.1c0.1,0,0.3-0.2,0.4-0.3c0.2-0.1,0.6-0.2,0.7-0.4c-0.2,0.2-0.5,0.2-0.1,0.1c0.1,0,0.2-0.1,0.4-0.1
						c0.1,0,0.2-0.1,0.3-0.1c0.1,0,0.1,0,0.2,0c0.3,0,0.2,0-0.2,0c0.1,0.1,0.6,0,0.7,0c0.1,0,0.3,0,0.4,0c0.5,0-0.6-0.1,0,0
						c0.3,0.1,0.6,0.2,0.9,0.2c0.2,0.1,0.3,0.2-0.2-0.1c0.1,0.1,0.3,0.1,0.4,0.2c0.1,0.1,0.2,0.1,0.3,0.2c0.1,0,0.1,0.1,0.2,0.1
						c0.2,0.2,0.2,0.1-0.2-0.1c0.1,0.2,0.4,0.4,0.5,0.5c0,0,0.1,0.1,0.1,0.1c0.2,0.2,0.1,0.1-0.1-0.2c0,0.1,0.2,0.3,0.2,0.4
						c0.1,0.2,0.2,0.5,0.3,0.6c-0.3-0.4-0.1-0.3,0,0c0,0.1,0.1,0.3,0.1,0.4C140.2,115.7,140.2,115.8,140.2,116c0-0.5,0-0.6,0-0.3
						C140.2,115.8,140.2,115.9,140.2,116c0,1.3,1.1,2.6,2.5,2.5c1.3-0.1,2.5-1.1,2.5-2.5c-0.1-3.4-2.3-6.3-5.5-7.4
						c-3-1-6.7-0.1-8.8,2.4c-2.1,2.5-2.6,6.2-0.7,9.1c1.9,2.9,5.3,4.2,8.7,3.5c3.6-0.7,6.3-4,6.3-7.6c0-1.3-1.2-2.6-2.5-2.5
						C141.3,113.5,140.2,114.6,140.2,116z"/>
				</g>
			</g>
		</g>
	</g>
	<g>
		<g>
			<path class="st0" d="M86.2,146.8c0,26.2,20.5,47.5,45.8,47.5c25.3,0,45.8-21.3,45.8-47.5H86.2z"/>
			<g>
				<path class="st0" d="M83.7,146.8c0,10.2,3,20.4,8.9,28.9c5.7,8.2,13.7,14.6,23,18.1c19,7.2,41,0.8,53.6-15
					c7.3-9.1,11.2-20.4,11.2-32c0-1.4-1.1-2.5-2.5-2.5c-3,0-6.1,0-9.1,0c-7.3,0-14.6,0-21.9,0c-8.8,0-17.6,0-26.5,0
					c-7.6,0-15.3,0-22.9,0c-3.7,0-7.5-0.1-11.2,0c-0.1,0-0.1,0-0.2,0c-3.2,0-3.2,5,0,5c3,0,6.1,0,9.1,0c7.3,0,14.6,0,21.9,0
					c8.8,0,17.6,0,26.5,0c7.6,0,15.3,0,22.9,0c2.5,0,5.1,0,7.6,0c1.2,0,2.4,0.1,3.6,0c0.1,0,0.1,0,0.2,0c-0.8-0.8-1.7-1.7-2.5-2.5
					c-0.1,18.2-11,35.6-28.2,42.2c-8.6,3.3-18.1,3.7-27,1.1c-8.6-2.5-16-7.8-21.6-14.7c-6.5-8-9.8-18.3-9.9-28.6
					C88.7,143.6,83.7,143.6,83.7,146.8z"/>
			</g>
		</g>
		<g>
			<path class="st1" d="M132,198.7c-27.7,0-50.3-23.3-50.3-51.9c0-2.4,2-4.4,4.4-4.4h91.7c2.4,0,4.4,2,4.4,4.4
				C182.3,175.4,159.7,198.7,132,198.7z M90.8,151.2c2.1,21.7,19.8,38.6,41.2,38.6c21.4,0,39.1-17,41.2-38.6H90.8z"/>
			<g>
				<path class="st0" d="M132,196.2c-11.1,0-21.9-4-30.3-11.2c-8.5-7.3-14.3-17.4-16.5-28.4c-0.6-2.8-0.9-5.7-0.9-8.5
					c0-1.5,0.1-3.1,2-3.2c0.9-0.1,1.9,0,2.8,0c5.3,0,10.6,0,16,0c8,0,15.9,0,23.9,0c8.3,0,16.5,0,24.8,0c6.2,0,12.4,0,18.6,0
					c1.6,0,3.1,0,4.7,0c0.3,0,0.6,0,0.9,0c2,0.1,2,1.8,1.9,3.4c-0.3,11.2-4.4,22.4-11.7,30.9c-7.2,8.5-17,14.3-27.9,16.3
					C137.5,196,134.7,196.2,132,196.2c-3.2,0-3.2,5,0,5c12.3,0,24.1-4.5,33.5-12.4c9.2-7.8,15.7-18.8,18.1-30.6
					c0.7-3.2,1-6.4,1.2-9.7c0.1-1.8,0.1-3.5-0.8-5.1c-0.9-1.5-2.3-2.7-3.9-3.2c-1.3-0.4-2.7-0.4-4.1-0.4c-5.3,0-10.5,0-15.8,0
					c-8.3,0-16.5,0-24.8,0c-8.6,0-17.2,0-25.8,0c-6.2,0-12.5,0-18.7,0c-1.4,0-2.8,0-4.2,0c-0.9,0-1.8,0.1-2.7,0.4
					c-1.6,0.6-3,1.8-3.8,3.3c-0.8,1.6-0.8,3.4-0.8,5.2c0.4,12.4,5.1,24.5,13.1,34c7.7,9.1,18.7,15.6,30.5,17.7
					c3,0.5,6.1,0.8,9.1,0.8C135.2,201.2,135.2,196.2,132,196.2z"/>
				<path class="st0" d="M88.3,151.2c1.8,17.3,13,32.7,29.5,38.7c16.3,5.9,35,0.7,46.4-12.2c6.6-7.4,10.4-16.6,11.5-26.5
					c0.1-1.3-1.3-2.5-2.5-2.5c-9.3,0-18.5,0-27.8,0c-14.8,0-29.6,0-44.4,0c-3.4,0-6.8,0-10.2,0c-3.2,0-3.2,5,0,5
					c9.3,0,18.5,0,27.8,0c14.8,0,29.6,0,44.4,0c3.4,0,6.8,0,10.2,0c-0.8-0.8-1.7-1.7-2.5-2.5c-1.5,15-11.6,28.8-26,33.9
					c-14.6,5.2-30.9,0.7-41.2-10.7c-5.7-6.4-9.3-14.6-10.2-23.2c-0.1-1.3-1.1-2.5-2.5-2.5C89.6,148.7,88.2,149.9,88.3,151.2z"/>
			</g>
		</g>
	</g>
</g>
</svg>
