<svg width="37px" height="31px" viewBox="0 0 37 31" version="1.1" xmlns="http://www.w3.org/2000/svg" xmlns:xlink="http://www.w3.org/1999/xlink">
    <g id="Screens" stroke="none" stroke-width="1" fill="none" fill-rule="evenodd" stroke-linecap="round" stroke-linejoin="round">
        <g id="Home_Helen" transform="translate(-52.000000, -409.000000)" stroke="#260F0A" stroke-width="1.14">
            <g id="Group-13" transform="translate(53.000000, 410.000000)">
                <path d="M13.6079521,16.3366183 C13.6079521,19.2569183 11.5774726,21.6238017 9.07185616,21.6238017 C6.56671918,21.6238017 4.53576027,19.2569183 4.53576027,16.3366183 C4.53576027,13.4163183 6.56671918,11.0489517 9.07185616,11.0489517 C11.5774726,11.0489517 13.6079521,13.4163183 13.6079521,16.3366183 Z" id="Stroke-1"></path>
                <path d="M5.8510411,20.0992233 C2.42775342,20.8276067 0.000287671233,22.65654 0.000287671233,24.79674 L0.000287671233,28.7489567 L18.3062466,28.7489567 L18.3062466,24.79674 C18.3062466,22.6270567 15.8116575,20.7783067 12.3145342,20.0702233" id="Stroke-3"></path>
                <path d="M18.3814247,4.83333333e-05 L8.0770411,4.83333333e-05 C7.40820548,4.83333333e-05 6.86594521,0.546215 6.86594521,1.220465 L6.86594521,7.06058167 C6.86594521,7.73483167 7.40820548,8.28099833 8.0770411,8.28099833 L12.7958082,8.28099833 C14.5362192,9.68798167 17.4613562,12.0587317 17.4373836,12.082415 L17.4373836,8.28099833 L18.3814247,8.28099833 C19.0502603,8.28099833 19.5920411,7.73483167 19.5920411,7.06058167 L19.5920411,1.220465 C19.5920411,0.546215 19.0502603,4.83333333e-05 18.3814247,4.83333333e-05 Z" id="Stroke-5"></path>
                <path d="M30.0722877,13.6894017 C30.0722877,16.6097017 28.0418082,18.976585 25.5361918,18.976585 C23.0310548,18.976585 21.0000959,16.6097017 21.0000959,13.6894017 C21.0000959,10.7691017 23.0310548,8.401735 25.5361918,8.401735 C28.0418082,8.401735 30.0722877,10.7691017 30.0722877,13.6894017 Z" id="Stroke-7"></path>
                <path d="M18.3107055,26.1019333 L34.7702945,26.1019333 L34.7702945,22.1492333 C34.7702945,19.97955 32.2761849,18.1308 28.7790616,17.4227167" id="Stroke-9"></path>
                <path d="M22.3153767,17.4519583 C19.1059247,18.1353917 16.7714726,19.7850083 16.4919521,21.7526583" id="Stroke-11"></path>
            </g>
        </g>
    </g>
</svg>