<?xml version="1.0" encoding="UTF-8"?>
<svg width="23px" height="23px" viewBox="0 0 23 23" version="1.1" xmlns="http://www.w3.org/2000/svg" xmlns:xlink="http://www.w3.org/1999/xlink">
    <!-- Generator: Sketch 54.1 (76490) - https://sketchapp.com -->
    <title>Group 3</title>
    <desc>Created with Sketch.</desc>
    <g id="Navigation" stroke="none" stroke-width="1" fill="none" fill-rule="evenodd">
        <g id="Navi_home" transform="translate(-97.000000, -32.000000)" stroke="#D7D7D7" stroke-width="1.5">
            <g id="Group" transform="translate(0.000000, 15.000000)">
                <g id="Group-3" transform="translate(98.000000, 18.000000)">
                    <g id="Group-13">
                        <g id="Group-4" transform="translate(4.400000, 5.000000)" stroke-linecap="round" stroke-linejoin="round">
                            <path d="M8.59431401,3.4001554 C8.59431401,5.27801088 7.31190601,6.8 5.72941151,6.8 C4.14721982,6.8 2.86450901,5.27801088 2.86450901,3.4001554 C2.86450901,1.52229992 4.14721982,-2.26485497e-14 5.72941151,-2.26485497e-14 C7.31190601,-2.26485497e-14 8.59431401,1.52229992 8.59431401,3.4001554 Z" id="Stroke-1"></path>
                            <path d="M3.69521269,5.98361444 C1.53313627,6.46920333 -3.99680289e-14,7.68849222 -3.99680289e-14,9.11529222 L-3.99680289e-14,11.7501033 L11.5616583,11.7501033 L11.5616583,9.11529222 C11.5616583,7.66883667 9.98612833,6.43633667 7.77741889,5.96428111" id="Stroke-3"></path>
                        </g>
                        <rect id="Rectangle" stroke-linejoin="round" fill-rule="nonzero" x="0" y="0" width="20.5" height="20.5"></rect>
                        <g id="Group-2" transform="translate(2.800000, 0.000000)" fill-rule="nonzero" stroke-linecap="round">
                            <path d="M14.5,-6.66133815e-15 L14.5,2.402294" id="Path-8"></path>
                            <path d="M9.83333333,-6.66133815e-15 L9.83333333,2.402294" id="Path-8-Copy"></path>
                            <path d="M5.16666667,-6.66133815e-15 L5.16666667,2.402294" id="Path-8-Copy-2"></path>
                            <path d="M0.5,-6.66133815e-15 L0.5,2.402294" id="Path-8-Copy-3"></path>
                        </g>
                    </g>
                </g>
            </g>
        </g>
    </g>
</svg>