<?xml version="1.0" encoding="utf-8"?>
<!-- Generator: Adobe Illustrator 27.5.0, SVG Export Plug-In . SVG Version: 6.00 Build 0)  -->
<svg version="1.1" id="Ebene_1" xmlns="http://www.w3.org/2000/svg" xmlns:xlink="http://www.w3.org/1999/xlink" x="0px" y="0px"
	 viewBox="0 0 23.1 22.6" style="enable-background:new 0 0 23.1 22.6;" xml:space="preserve">
<style type="text/css">
	.st0{fill:#ffffff;}
	.st1{fill:none;stroke:#ffffff;stroke-miterlimit:10;}
	.st2{fill:#ffffff;}
</style>
<path class="st0" d="M6.4,4.9h1.5c0.1,0,0.2,0.1,0.2,0.2c0,0.4,0.3,0.8,0.8,0.8s0.8-0.3,0.8-0.8c0-1-0.8-1.7-1.7-1.7H7.7V3.1
	c0-0.4-0.3-0.8-0.8-0.8S6.2,2.7,6.2,3.1v0.3c-1.1,0.1-2,1.1-2,2.2c0,1.2,1,2.2,2.2,2.2h1c0.4,0,0.7,0.3,0.7,0.8S7.8,9.4,7.4,9.4H5.9
	c-0.1,0-0.2-0.1-0.2-0.2c0-0.4-0.3-0.8-0.8-0.8S4.2,8.7,4.2,9.1c0,1,0.8,1.8,1.8,1.8h0.2v0.2c0,0.4,0.3,0.8,0.8,0.8s0.8-0.3,0.8-0.8
	v-0.3c1.1-0.1,2-1.1,2-2.2c0-1.2-1-2.2-2.2-2.2h-1C6,6.4,5.7,6,5.7,5.6S6,4.9,6.4,4.9z"/>
<g>
	<path class="st2" d="M15.4,15.6l0,0.4h2.3c0.1,0,0.2,0,0.3,0c0.1,0,0.1,0.1,0.2,0.2c0.1,0.1,0.1,0.2,0.1,0.4c0,0.2,0,0.3,0,0.4
		c0,0.1-0.1,0.1-0.1,0.2c-0.1,0.1-0.2,0.1-0.4,0.1h-2.1c0.1,0.3,0.3,0.6,0.4,0.7c0.2,0.1,0.4,0.2,0.6,0.2H18c0.3,0,0.5,0,0.6,0.1
		c0.1,0.1,0.2,0.2,0.3,0.3c0,0.1,0.1,0.3,0.1,0.5s0,0.4-0.1,0.5s-0.1,0.2-0.2,0.3c-0.1,0.1-0.4,0.1-0.6,0.1h-1.4
		c-0.4,0-0.8-0.1-1.2-0.2c-0.3-0.2-0.6-0.3-0.8-0.5c-0.2-0.2-0.4-0.5-0.6-0.8c-0.2-0.3-0.3-0.7-0.4-1.2h-0.5c-0.2,0-0.3,0-0.4-0.1
		c-0.1-0.1-0.2-0.2-0.2-0.5c0-0.2,0-0.4,0.1-0.5c0.1-0.1,0.1-0.1,0.2-0.2c0.1,0,0.2,0,0.3,0h0.3c0-0.1,0-0.2,0-0.4v-0.2h-0.3
		c-0.2,0-0.3,0-0.4-0.1c-0.1-0.1-0.2-0.2-0.2-0.5c0-0.2,0-0.4,0.1-0.5c0.1-0.1,0.1-0.1,0.2-0.2c0.1,0,0.2,0,0.3,0h0.4
		c0.1-0.5,0.3-1,0.5-1.4c0.2-0.4,0.5-0.7,0.8-0.8c0.5-0.3,1.1-0.5,1.7-0.5H18c0.2,0,0.3,0,0.4,0c0.1,0,0.2,0,0.3,0.1
		c0.1,0.1,0.2,0.2,0.2,0.3c0,0.1,0.1,0.3,0.1,0.5s0,0.4-0.1,0.5s-0.1,0.2-0.2,0.3c-0.1,0.1-0.2,0.1-0.3,0.1c-0.1,0-0.2,0-0.4,0h-1.3
		c-0.5,0-0.8,0.3-1,0.8h2.1c0.3,0,0.5,0.1,0.5,0.3c0,0.1,0,0.2,0,0.3s0,0.2,0,0.3c0,0.1-0.1,0.1-0.1,0.2c-0.1,0.1-0.2,0.1-0.4,0.1
		h-2.3L15.4,15.6z"/>
</g>
<circle class="st1" cx="6.9" cy="6.9" r="5.8"/>
<circle class="st1" cx="16.3" cy="15.7" r="5.8"/>
<path class="st2" d="M10.2,19.3c0-0.4-0.4-0.7-0.8-0.7l-1,0c-1.2,0-2.3-1-2.3-2.2l0-0.2l0.7,0.7c0.3,0.3,0.8,0.3,1.1,0
	s0.3-0.8,0-1.1l-2-2c-0.1-0.1-0.2-0.1-0.2-0.2c-0.2-0.1-0.4-0.1-0.6,0c-0.1,0-0.2,0.1-0.2,0.2l-2,2c-0.1,0.2-0.2,0.3-0.2,0.5
	c0,0.2,0.1,0.4,0.2,0.5c0.3,0.3,0.8,0.3,1.1,0l0.7-0.7l0,0.2c0,2.1,1.7,3.7,3.8,3.7l1,0C9.9,20,10.2,19.7,10.2,19.3L10.2,19.3z"/>
<path class="st2" d="M13.4,3.6c0,0.4,0.3,0.7,0.8,0.7l1,0c1.2,0,2.3,1,2.3,2.2l0,0.2l-0.7-0.7c-0.3-0.3-0.8-0.3-1.1,0
	c-0.1,0.2-0.2,0.3-0.2,0.5c0,0.2,0.1,0.4,0.2,0.5l2,2c0.1,0.1,0.2,0.1,0.2,0.2c0.2,0.1,0.4,0.1,0.6,0c0.1,0,0.2-0.1,0.2-0.2l2-2
	c0.3-0.3,0.3-0.8,0-1.1s-0.8-0.3-1.1,0l-0.7,0.7l0-0.2c0-2.1-1.7-3.7-3.8-3.7l-1,0C13.7,2.9,13.3,3.2,13.4,3.6L13.4,3.6z"/>
</svg>
