<?xml version="1.0" encoding="utf-8"?>
<!-- Generator: Adobe Illustrator 25.3.1, SVG Export Plug-In . SVG Version: 6.00 Build 0)  -->
<svg version="1.1" id="Ebene_1" xmlns="http://www.w3.org/2000/svg" xmlns:xlink="http://www.w3.org/1999/xlink" x="0px" y="0px"
	 viewBox="0 0 52 52" style="enable-background:new 0 0 52 52;" xml:space="preserve">
<style type="text/css">
	.st0{fill:#733122;}
</style>
<g id="surface1">
	<path class="st0" d="M26.1,50.7c-6.6,0-12.8-2.6-17.5-7.2C4,38.8,1.4,32.6,1.4,26S4,13.2,8.7,8.6c4.7-4.7,10.9-7.2,17.5-7.2
		s12.8,2.6,17.5,7.2c4.7,4.7,7.2,10.9,7.2,17.5s-2.6,12.8-7.2,17.5C38.9,48.2,32.7,50.7,26.1,50.7z M26.1,2.8
		c-6.2,0-12,2.4-16.4,6.8S2.9,19.8,2.9,26s2.4,12,6.8,16.4s10.2,6.8,16.4,6.8s12-2.4,16.4-6.8s6.8-10.2,6.8-16.4s-2.4-12-6.8-16.4
		S32.3,2.8,26.1,2.8z"/>
</g>
<g>
	<g>
		<g>
			<path class="st0" d="M17.3,15c-1,0-1.9-0.8-1.9-1.9c0-1,0.9-1.9,1.9-1.9c1,0,1.8,0.9,1.8,1.9C19.1,14.2,18.3,15,17.3,15z
				 M15.9,19.1h2.6v15.2h-2.6V19.1z"/>
			<path class="st0" d="M29.8,18.8c2.3,0,4.4,1.2,5.4,2.7v-10h2.6v22.9h-2.6V32c-1,1.5-3.1,2.7-5.4,2.7c-4.3,0-7.5-3.6-7.5-7.9
				C22.3,22.4,25.5,18.8,29.8,18.8z M30.2,21.2c-3.1,0-5.2,2.4-5.2,5.5c0,3.1,2.1,5.5,5.2,5.5s5.2-2.4,5.2-5.5
				C35.4,23.6,33.3,21.2,30.2,21.2z"/>
		</g>
		<g>
			<rect x="15.7" y="38.5" class="st0" width="22.4" height="2.1"/>
		</g>
	</g>
</g>
</svg>
