
<svg width="27px" height="31px" viewBox="0 0 27 31" version="1.1" xmlns="http://www.w3.org/2000/svg" xmlns:xlink="http://www.w3.org/1999/xlink">
    <g id="Screens" stroke="#F2F2F2" stroke-width="1" fill="none" fill-rule="evenodd" stroke-linecap="round" stroke-linejoin="round">
        <g id="Home_Helen" transform="translate(-180.000000, -499.000000)" stroke="#F2F2F2" stroke-width="1.2">
            <g id="Group-2" transform="translate(181.500000, 500.000000)">
                <polygon id="Stroke-1" points="21.6366904 29 2.36330962 29 0 7 24 7"></polygon>
                <path d="M6,10 L6,6.3975 C6,2.864375 8.68672463,0 12,0 C15.3138615,0 18,2.864375 18,6.3975 L18,10" id="Stroke-3"></path>
            </g>
        </g>
    </g>
</svg>