<svg xmlns="http://www.w3.org/2000/svg" xmlns:xlink="http://www.w3.org/1999/xlink" width="50" zoomAndPan="magnify" viewBox="0 0 375 375" height="500" preserveAspectRatio="xMidYMid meet" version="1.0">
   <defs>
      <clipPath id="edd2da4ab5">
         <path d="M 9.671875 9.671875 L 365.171875 9.671875 L 365.171875 365.171875 L 9.671875 365.171875 Z M 9.671875 9.671875 " clip-rule="nonzero"/>
      </clipPath>
      <clipPath id="ca543d5e58">
         <path d="M 78 87.289062 L 298.523438 87.289062 L 298.523438 286 L 78 286 Z M 78 87.289062 " clip-rule="nonzero"/>
      </clipPath>
   </defs>
   <rect x="-37.5" width="450" fill="none" y="-37.499999" height="449.999989" fill-opacity="1"/>
   <rect x="-37.5" width="450" fill="none" y="-37.499999" height="449.999989" fill-opacity="1"/>
   <g clip-path="url(#edd2da4ab5)">
      <path fill="none" d="M 365.171875 187.421875 C 365.171875 190.328125 365.101562 193.238281 364.957031 196.144531 C 364.8125 199.046875 364.601562 201.949219 364.316406 204.84375 C 364.03125 207.738281 363.675781 210.625 363.246094 213.503906 C 362.820312 216.378906 362.324219 219.246094 361.753906 222.097656 C 361.1875 224.953125 360.550781 227.789062 359.84375 230.609375 C 359.136719 233.433594 358.363281 236.234375 357.515625 239.019531 C 356.671875 241.804688 355.761719 244.5625 354.78125 247.304688 C 353.800781 250.042969 352.753906 252.753906 351.640625 255.441406 C 350.527344 258.128906 349.347656 260.789062 348.105469 263.417969 C 346.859375 266.046875 345.554688 268.644531 344.183594 271.210938 C 342.8125 273.777344 341.378906 276.308594 339.882812 278.804688 C 338.386719 281.296875 336.832031 283.753906 335.214844 286.171875 C 333.597656 288.59375 331.925781 290.96875 330.191406 293.304688 C 328.457031 295.644531 326.667969 297.9375 324.824219 300.183594 C 322.976562 302.433594 321.078125 304.636719 319.125 306.789062 C 317.171875 308.945312 315.167969 311.050781 313.109375 313.109375 C 311.050781 315.167969 308.945312 317.171875 306.789062 319.125 C 304.636719 321.078125 302.433594 322.976562 300.183594 324.824219 C 297.9375 326.667969 295.644531 328.457031 293.304688 330.191406 C 290.96875 331.925781 288.59375 333.597656 286.171875 335.214844 C 283.753906 336.832031 281.296875 338.386719 278.804688 339.882812 C 276.308594 341.378906 273.777344 342.8125 271.210938 344.183594 C 268.644531 345.554688 266.046875 346.859375 263.417969 348.105469 C 260.789062 349.347656 258.128906 350.527344 255.441406 351.640625 C 252.753906 352.753906 250.042969 353.800781 247.304688 354.78125 C 244.5625 355.761719 241.804688 356.671875 239.019531 357.515625 C 236.234375 358.363281 233.433594 359.136719 230.609375 359.84375 C 227.789062 360.550781 224.953125 361.1875 222.097656 361.753906 C 219.246094 362.324219 216.378906 362.820312 213.503906 363.246094 C 210.625 363.675781 207.738281 364.03125 204.84375 364.316406 C 201.949219 364.601562 199.046875 364.8125 196.144531 364.957031 C 193.238281 365.101562 190.328125 365.171875 187.421875 365.171875 C 184.511719 365.171875 181.605469 365.101562 178.699219 364.957031 C 175.792969 364.8125 172.894531 364.601562 170 364.316406 C 167.101562 364.03125 164.21875 363.675781 161.339844 363.246094 C 158.460938 362.820312 155.597656 362.324219 152.742188 361.753906 C 149.890625 361.1875 147.054688 360.550781 144.230469 359.84375 C 141.410156 359.136719 138.605469 358.363281 135.824219 357.515625 C 133.039062 356.671875 130.277344 355.761719 127.539062 354.78125 C 124.800781 353.800781 122.085938 352.753906 119.398438 351.640625 C 116.710938 350.527344 114.054688 349.347656 111.421875 348.105469 C 108.792969 346.859375 106.195312 345.554688 103.628906 344.183594 C 101.066406 342.8125 98.535156 341.378906 96.039062 339.882812 C 93.542969 338.386719 91.085938 336.832031 88.667969 335.214844 C 86.25 333.597656 83.871094 331.925781 81.535156 330.191406 C 79.199219 328.457031 76.90625 326.667969 74.65625 324.824219 C 72.410156 322.976562 70.207031 321.078125 68.050781 319.125 C 65.894531 317.171875 63.789062 315.167969 61.734375 313.109375 C 59.675781 311.050781 57.671875 308.945312 55.71875 306.789062 C 53.761719 304.636719 51.863281 302.433594 50.019531 300.183594 C 48.171875 297.9375 46.382812 295.644531 44.652344 293.304688 C 42.917969 290.96875 41.242188 288.59375 39.628906 286.171875 C 38.011719 283.753906 36.457031 281.296875 34.960938 278.800781 C 33.464844 276.308594 32.03125 273.777344 30.660156 271.210938 C 29.289062 268.644531 27.980469 266.046875 26.738281 263.417969 C 25.492188 260.789062 24.316406 258.128906 23.203125 255.441406 C 22.089844 252.753906 21.042969 250.042969 20.0625 247.304688 C 19.082031 244.5625 18.167969 241.804688 17.324219 239.019531 C 16.480469 236.234375 15.703125 233.433594 14.996094 230.609375 C 14.292969 227.789062 13.652344 224.953125 13.085938 222.097656 C 12.519531 219.246094 12.023438 216.378906 11.59375 213.503906 C 11.167969 210.625 10.8125 207.738281 10.527344 204.84375 C 10.242188 201.949219 10.027344 199.046875 9.886719 196.144531 C 9.742188 193.238281 9.671875 190.328125 9.671875 187.421875 C 9.671875 184.511719 9.742188 181.605469 9.886719 178.699219 C 10.027344 175.792969 10.242188 172.894531 10.527344 170 C 10.8125 167.101562 11.167969 164.21875 11.59375 161.339844 C 12.023438 158.460938 12.519531 155.597656 13.085938 152.742188 C 13.652344 149.890625 14.292969 147.054688 14.996094 144.230469 C 15.703125 141.410156 16.480469 138.605469 17.324219 135.824219 C 18.167969 133.039062 19.082031 130.277344 20.0625 127.539062 C 21.042969 124.800781 22.089844 122.085938 23.203125 119.398438 C 24.316406 116.710938 25.492188 114.054688 26.738281 111.421875 C 27.980469 108.792969 29.289062 106.195312 30.660156 103.628906 C 32.03125 101.066406 33.464844 98.535156 34.960938 96.039062 C 36.457031 93.542969 38.011719 91.085938 39.628906 88.667969 C 41.242188 86.25 42.917969 83.871094 44.652344 81.535156 C 46.382812 79.199219 48.171875 76.90625 50.019531 74.65625 C 51.863281 72.410156 53.761719 70.207031 55.71875 68.050781 C 57.671875 65.894531 59.675781 63.789062 61.734375 61.734375 C 63.789062 59.675781 65.894531 57.671875 68.050781 55.71875 C 70.207031 53.761719 72.410156 51.863281 74.65625 50.019531 C 76.90625 48.171875 79.199219 46.382812 81.535156 44.652344 C 83.871094 42.917969 86.25 41.242188 88.667969 39.628906 C 91.085938 38.011719 93.542969 36.457031 96.039062 34.960938 C 98.535156 33.464844 101.066406 32.03125 103.628906 30.660156 C 106.195312 29.289062 108.792969 27.980469 111.421875 26.738281 C 114.054688 25.492188 116.710938 24.316406 119.398438 23.203125 C 122.085938 22.089844 124.800781 21.042969 127.539062 20.0625 C 130.277344 19.082031 133.039062 18.167969 135.824219 17.324219 C 138.605469 16.480469 141.410156 15.703125 144.230469 14.996094 C 147.054688 14.292969 149.890625 13.652344 152.742188 13.085938 C 155.597656 12.519531 158.460938 12.023438 161.339844 11.59375 C 164.21875 11.167969 167.101562 10.8125 170 10.527344 C 172.894531 10.242188 175.792969 10.027344 178.699219 9.886719 C 181.605469 9.742188 184.511719 9.671875 187.421875 9.671875 C 190.328125 9.671875 193.238281 9.742188 196.144531 9.886719 C 199.046875 10.027344 201.949219 10.242188 204.84375 10.527344 C 207.738281 10.8125 210.625 11.167969 213.503906 11.59375 C 216.378906 12.023438 219.246094 12.519531 222.097656 13.085938 C 224.953125 13.652344 227.789062 14.292969 230.609375 14.996094 C 233.433594 15.703125 236.234375 16.480469 239.019531 17.324219 C 241.804688 18.167969 244.5625 19.082031 247.304688 20.0625 C 250.042969 21.042969 252.753906 22.089844 255.441406 23.203125 C 258.128906 24.316406 260.789062 25.492188 263.417969 26.738281 C 266.046875 27.980469 268.644531 29.289062 271.210938 30.660156 C 273.777344 32.03125 276.308594 33.464844 278.804688 34.960938 C 281.296875 36.457031 283.753906 38.011719 286.171875 39.628906 C 288.59375 41.242188 290.96875 42.917969 293.304688 44.652344 C 295.644531 46.382812 297.9375 48.171875 300.183594 50.019531 C 302.433594 51.863281 304.636719 53.761719 306.789062 55.71875 C 308.945312 57.671875 311.050781 59.675781 313.109375 61.734375 C 315.167969 63.789062 317.171875 65.894531 319.125 68.050781 C 321.078125 70.207031 322.976562 72.410156 324.824219 74.65625 C 326.667969 76.90625 328.457031 79.199219 330.191406 81.535156 C 331.925781 83.871094 333.597656 86.25 335.214844 88.667969 C 336.832031 91.085938 338.386719 93.542969 339.882812 96.039062 C 341.378906 98.535156 342.8125 101.066406 344.183594 103.628906 C 345.554688 106.195312 346.859375 108.792969 348.105469 111.421875 C 349.347656 114.054688 350.527344 116.710938 351.640625 119.398438 C 352.753906 122.085938 353.800781 124.800781 354.78125 127.539062 C 355.761719 130.277344 356.671875 133.039062 357.515625 135.824219 C 358.363281 138.605469 359.136719 141.410156 359.84375 144.230469 C 360.550781 147.054688 361.1875 149.890625 361.753906 152.742188 C 362.324219 155.597656 362.820312 158.460938 363.246094 161.339844 C 363.675781 164.21875 364.03125 167.101562 364.316406 170 C 364.601562 172.894531 364.8125 175.792969 364.957031 178.699219 C 365.101562 181.605469 365.171875 184.511719 365.171875 187.421875 Z M 365.171875 187.421875 " fill-opacity="1" fill-rule="nonzero"/>
   </g>
   <g clip-path="url(#ca543d5e58)">
      <path fill="#260F0A" d="M 266.152344 87.742188 L 264.117188 87.742188 C 263.070312 87.742188 262.03125 87.84375 261.003906 88.039062 C 259.976562 88.234375 258.972656 88.523438 258 88.90625 C 257.027344 89.289062 256.097656 89.761719 255.210938 90.316406 C 254.324219 90.875 253.5 91.511719 252.730469 92.222656 C 251.964844 92.933594 251.273438 93.710938 250.652344 94.550781 C 250.03125 95.394531 249.496094 96.285156 249.042969 97.226562 C 248.589844 98.171875 248.226562 99.144531 247.957031 100.15625 C 247.691406 101.164062 247.515625 102.191406 247.441406 103.234375 C 237.5 107.640625 227.355469 111.515625 217.003906 114.863281 C 206.65625 118.207031 196.160156 121 185.519531 123.246094 C 174.878906 125.492188 164.148438 127.175781 153.328125 128.300781 C 142.507812 129.421875 131.660156 129.976562 120.78125 129.960938 L 117.097656 129.960938 C 115.957031 129.960938 114.820312 130.011719 113.683594 130.113281 C 112.546875 130.214844 111.417969 130.367188 110.296875 130.566406 C 109.175781 130.769531 108.0625 131.023438 106.964844 131.324219 C 105.863281 131.625 104.78125 131.972656 103.710938 132.371094 C 102.644531 132.769531 101.59375 133.214844 100.566406 133.707031 C 99.539062 134.199219 98.535156 134.734375 97.554688 135.316406 C 96.574219 135.898438 95.621094 136.523438 94.699219 137.191406 C 93.773438 137.855469 92.882812 138.5625 92.019531 139.308594 C 91.160156 140.054688 90.332031 140.839844 89.542969 141.660156 C 88.753906 142.480469 88 143.332031 87.285156 144.21875 C 86.570312 145.109375 85.898438 146.023438 85.265625 146.972656 C 84.636719 147.921875 84.046875 148.894531 83.503906 149.894531 C 82.960938 150.894531 82.460938 151.917969 82.007812 152.960938 C 81.554688 154.003906 81.148438 155.066406 80.792969 156.148438 C 80.433594 157.230469 80.128906 158.324219 79.867188 159.433594 C 79.609375 160.539062 79.398438 161.660156 79.242188 162.785156 C 79.082031 163.914062 78.972656 165.042969 78.917969 166.179688 C 78.859375 167.316406 78.851562 168.453125 78.898438 169.589844 C 78.941406 170.730469 79.039062 171.863281 79.183594 172.992188 C 79.328125 174.121094 79.527344 175.238281 79.773438 176.351562 C 80.019531 177.460938 80.316406 178.558594 80.660156 179.644531 C 81.007812 180.730469 81.398438 181.796875 81.839844 182.84375 C 82.28125 183.894531 82.769531 184.921875 83.300781 185.929688 C 83.832031 186.933594 84.410156 187.914062 85.03125 188.871094 C 85.652344 189.824219 86.316406 190.75 87.019531 191.644531 C 87.722656 192.539062 88.464844 193.402344 89.246094 194.230469 C 90.027344 195.058594 90.84375 195.851562 91.699219 196.609375 C 92.550781 197.363281 93.433594 198.082031 94.351562 198.757812 C 95.269531 199.433594 96.214844 200.070312 97.1875 200.660156 C 98.160156 201.253906 99.160156 201.800781 100.179688 202.304688 C 101.203125 202.808594 102.246094 203.265625 103.3125 203.675781 C 104.375 204.085938 105.453125 204.449219 106.550781 204.761719 L 136.84375 276.679688 C 137.203125 277.527344 137.640625 278.332031 138.160156 279.09375 C 138.675781 279.859375 139.261719 280.5625 139.917969 281.210938 C 140.574219 281.855469 141.285156 282.433594 142.058594 282.941406 C 142.828125 283.445312 143.636719 283.875 144.492188 284.222656 C 145.347656 284.570312 146.226562 284.828125 147.132812 285.003906 C 148.039062 285.179688 148.949219 285.261719 149.875 285.257812 C 150.796875 285.253906 151.707031 285.160156 152.613281 284.972656 C 153.515625 284.789062 154.390625 284.519531 155.242188 284.164062 C 156.09375 283.804688 156.898438 283.371094 157.664062 282.855469 C 158.429688 282.339844 159.132812 281.753906 159.785156 281.101562 C 160.433594 280.445312 161.011719 279.734375 161.519531 278.96875 C 162.027344 278.199219 162.457031 277.390625 162.804688 276.539062 C 163.15625 275.6875 163.417969 274.808594 163.59375 273.902344 C 163.769531 273 163.855469 272.089844 163.851562 271.167969 C 163.84375 270.246094 163.75 269.335938 163.566406 268.433594 C 163.382812 267.53125 163.113281 266.65625 162.757812 265.808594 L 147.78125 230.257812 C 148.398438 230.1875 149.007812 230.089844 149.613281 229.960938 C 150.21875 229.828125 150.816406 229.671875 151.40625 229.480469 C 151.996094 229.292969 152.574219 229.074219 153.144531 228.828125 C 153.710938 228.582031 154.265625 228.304688 154.808594 228.003906 C 155.347656 227.703125 155.871094 227.375 156.378906 227.019531 C 156.886719 226.667969 157.375 226.289062 157.847656 225.886719 C 158.316406 225.484375 158.765625 225.058594 159.195312 224.609375 C 159.621094 224.164062 160.027344 223.695312 160.40625 223.207031 C 160.789062 222.722656 161.144531 222.214844 161.472656 221.691406 C 161.804688 221.167969 162.109375 220.632812 162.382812 220.078125 C 162.660156 219.523438 162.910156 218.960938 163.128906 218.382812 C 163.351562 217.804688 163.542969 217.214844 163.703125 216.621094 C 163.863281 216.023438 163.996094 215.417969 164.097656 214.808594 C 164.199219 214.199219 164.269531 213.585938 164.308594 212.96875 C 164.347656 212.351562 164.359375 211.734375 164.335938 211.117188 C 164.316406 210.5 164.261719 209.882812 164.179688 209.269531 C 193.046875 213.289062 220.800781 221.199219 247.441406 233 C 247.515625 234.042969 247.6875 235.066406 247.957031 236.078125 C 248.226562 237.085938 248.589844 238.0625 249.042969 239.003906 C 249.496094 239.949219 250.03125 240.839844 250.652344 241.679688 C 251.273438 242.523438 251.964844 243.300781 252.730469 244.011719 C 253.5 244.722656 254.324219 245.359375 255.210938 245.914062 C 256.097656 246.472656 257.027344 246.941406 258 247.328125 C 258.972656 247.710938 259.976562 248 261.003906 248.195312 C 262.03125 248.390625 263.070312 248.488281 264.117188 248.492188 L 266.152344 248.492188 C 266.699219 248.492188 267.246094 248.464844 267.789062 248.410156 C 268.335938 248.355469 268.878906 248.273438 269.414062 248.167969 C 269.953125 248.058594 270.484375 247.925781 271.007812 247.769531 C 271.53125 247.609375 272.046875 247.425781 272.554688 247.214844 C 273.058594 247.003906 273.554688 246.773438 274.039062 246.515625 C 274.519531 246.253906 274.988281 245.976562 275.445312 245.671875 C 275.902344 245.367188 276.339844 245.042969 276.765625 244.695312 C 277.1875 244.347656 277.59375 243.980469 277.980469 243.59375 C 278.367188 243.207031 278.734375 242.800781 279.082031 242.378906 C 279.429688 241.957031 279.757812 241.519531 280.0625 241.0625 C 280.367188 240.609375 280.648438 240.140625 280.90625 239.660156 C 281.164062 239.175781 281.398438 238.683594 281.609375 238.175781 C 281.820312 237.671875 282.003906 237.15625 282.164062 236.636719 C 282.324219 236.113281 282.457031 235.582031 282.5625 235.046875 C 282.671875 234.507812 282.753906 233.96875 282.808594 233.425781 C 282.859375 232.878906 282.890625 232.335938 282.890625 231.789062 L 282.890625 104.449219 C 282.890625 103.902344 282.863281 103.355469 282.808594 102.8125 C 282.753906 102.265625 282.671875 101.726562 282.566406 101.191406 C 282.457031 100.652344 282.324219 100.125 282.164062 99.601562 C 282.003906 99.078125 281.820312 98.5625 281.609375 98.058594 C 281.398438 97.550781 281.167969 97.058594 280.90625 96.578125 C 280.648438 96.09375 280.367188 95.625 280.0625 95.171875 C 279.757812 94.714844 279.433594 94.277344 279.085938 93.855469 C 278.738281 93.433594 278.367188 93.027344 277.980469 92.640625 C 277.59375 92.253906 277.1875 91.886719 276.765625 91.539062 C 276.339844 91.191406 275.902344 90.867188 275.445312 90.5625 C 274.992188 90.257812 274.519531 89.976562 274.039062 89.71875 C 273.554688 89.460938 273.058594 89.226562 272.554688 89.019531 C 272.046875 88.808594 271.53125 88.625 271.007812 88.464844 C 270.484375 88.308594 269.953125 88.171875 269.414062 88.066406 C 268.878906 87.960938 268.335938 87.878906 267.789062 87.824219 C 267.246094 87.769531 266.699219 87.742188 266.152344 87.742188 Z M 193.765625 129.410156 C 212.15625 125.113281 230.027344 119.242188 247.378906 111.789062 L 247.378906 224.445312 C 230.027344 216.992188 212.15625 211.117188 193.765625 206.824219 Z M 185.957031 205.105469 C 182.234375 204.335938 178.496094 203.652344 174.75 203.015625 L 174.75 133.21875 C 178.496094 132.582031 182.234375 131.898438 185.957031 131.128906 Z M 86.679688 168.117188 C 86.679688 167.121094 86.730469 166.132812 86.828125 165.140625 C 86.925781 164.152344 87.074219 163.171875 87.269531 162.195312 C 87.464844 161.222656 87.707031 160.257812 87.996094 159.308594 C 88.285156 158.355469 88.621094 157.421875 89.003906 156.503906 C 89.386719 155.585938 89.8125 154.6875 90.28125 153.8125 C 90.75 152.9375 91.261719 152.085938 91.816406 151.257812 C 92.371094 150.433594 92.960938 149.636719 93.59375 148.867188 C 94.226562 148.097656 94.894531 147.363281 95.597656 146.660156 C 96.304688 145.957031 97.039062 145.289062 97.808594 144.660156 C 98.578125 144.027344 99.378906 143.4375 100.207031 142.886719 C 101.035156 142.332031 101.886719 141.820312 102.765625 141.351562 C 103.644531 140.882812 104.542969 140.460938 105.460938 140.078125 C 106.382812 139.695312 107.320312 139.363281 108.273438 139.074219 C 109.222656 138.785156 110.1875 138.542969 111.164062 138.347656 C 112.140625 138.152344 113.125 138.003906 114.117188 137.90625 C 115.109375 137.808594 116.101562 137.757812 117.097656 137.757812 L 120.78125 137.757812 C 136.246094 137.757812 151.632812 136.652344 166.9375 134.445312 L 166.9375 201.789062 C 151.632812 199.578125 136.25 198.476562 120.78125 198.476562 L 117.097656 198.476562 C 116.101562 198.472656 115.109375 198.425781 114.117188 198.328125 C 113.125 198.226562 112.140625 198.082031 111.164062 197.886719 C 110.1875 197.691406 109.222656 197.449219 108.273438 197.160156 C 107.320312 196.871094 106.382812 196.535156 105.460938 196.15625 C 104.542969 195.773438 103.644531 195.351562 102.765625 194.878906 C 101.886719 194.410156 101.035156 193.902344 100.207031 193.347656 C 99.378906 192.796875 98.578125 192.203125 97.808594 191.574219 C 97.039062 190.941406 96.304688 190.277344 95.597656 189.574219 C 94.894531 188.871094 94.226562 188.136719 93.59375 187.367188 C 92.960938 186.597656 92.371094 185.800781 91.816406 184.976562 C 91.261719 184.148438 90.75 183.296875 90.28125 182.421875 C 89.8125 181.542969 89.386719 180.648438 89.003906 179.730469 C 88.621094 178.8125 88.285156 177.875 87.996094 176.925781 C 87.707031 175.976562 87.464844 175.011719 87.269531 174.039062 C 87.074219 173.0625 86.925781 172.082031 86.828125 171.089844 C 86.730469 170.101562 86.679688 169.109375 86.679688 168.117188 Z M 152.21875 276.988281 C 151.84375 277.144531 151.453125 277.265625 151.050781 277.347656 C 150.648438 277.425781 150.246094 277.46875 149.835938 277.46875 C 149.425781 277.472656 149.019531 277.433594 148.617188 277.355469 C 148.214844 277.277344 147.824219 277.164062 147.445312 277.007812 C 147.066406 276.855469 146.707031 276.664062 146.363281 276.4375 C 146.019531 276.214844 145.703125 275.957031 145.414062 275.671875 C 145.121094 275.382812 144.859375 275.070312 144.632812 274.734375 C 144.402344 274.394531 144.207031 274.035156 144.046875 273.660156 L 115.628906 206.195312 C 116.121094 206.214844 116.601562 206.269531 117.097656 206.269531 L 120.78125 206.269531 C 123.609375 206.269531 126.433594 206.308594 129.253906 206.382812 L 155.554688 268.828125 C 155.714844 269.207031 155.835938 269.59375 155.917969 269.996094 C 155.996094 270.394531 156.039062 270.800781 156.042969 271.210938 C 156.042969 271.621094 156.003906 272.023438 155.925781 272.425781 C 155.847656 272.828125 155.734375 273.21875 155.578125 273.597656 C 155.421875 273.976562 155.234375 274.335938 155.007812 274.675781 C 154.78125 275.019531 154.523438 275.332031 154.238281 275.625 C 153.949219 275.914062 153.632812 276.175781 153.296875 276.40625 C 152.957031 276.632812 152.597656 276.828125 152.21875 276.988281 Z M 154.128906 218.5625 C 153.558594 219.269531 152.910156 219.894531 152.179688 220.4375 C 151.453125 220.980469 150.667969 221.421875 149.824219 221.765625 C 148.980469 222.105469 148.109375 222.335938 147.207031 222.457031 C 146.304688 222.574219 145.402344 222.578125 144.5 222.464844 L 137.871094 206.734375 C 143.917969 207.058594 149.9375 207.558594 155.921875 208.234375 C 156.230469 209.101562 156.425781 209.992188 156.507812 210.90625 C 156.585938 211.820312 156.546875 212.730469 156.390625 213.636719 C 156.230469 214.539062 155.960938 215.410156 155.578125 216.246094 C 155.195312 217.078125 154.710938 217.851562 154.128906 218.5625 Z M 275.078125 231.789062 C 275.078125 232.371094 275.019531 232.953125 274.90625 233.523438 C 274.789062 234.097656 274.621094 234.65625 274.394531 235.195312 C 274.171875 235.734375 273.894531 236.25 273.570312 236.734375 C 273.246094 237.21875 272.875 237.671875 272.460938 238.082031 C 272.046875 238.496094 271.59375 238.867188 271.109375 239.191406 C 270.621094 239.515625 270.105469 239.789062 269.566406 240.015625 C 269.023438 240.238281 268.464844 240.40625 267.890625 240.523438 C 267.316406 240.636719 266.738281 240.695312 266.152344 240.695312 L 264.117188 240.695312 C 263.53125 240.695312 262.949219 240.636719 262.375 240.523438 C 261.800781 240.40625 261.242188 240.238281 260.703125 240.015625 C 260.160156 239.789062 259.648438 239.515625 259.160156 239.191406 C 258.671875 238.867188 258.222656 238.496094 257.808594 238.082031 C 257.394531 237.671875 257.023438 237.21875 256.699219 236.734375 C 256.371094 236.25 256.097656 235.734375 255.871094 235.195312 C 255.648438 234.65625 255.476562 234.097656 255.363281 233.523438 C 255.246094 232.953125 255.191406 232.371094 255.1875 231.789062 L 255.1875 104.449219 C 255.191406 103.863281 255.246094 103.285156 255.363281 102.710938 C 255.476562 102.136719 255.648438 101.582031 255.871094 101.039062 C 256.097656 100.5 256.371094 99.988281 256.695312 99.5 C 257.023438 99.015625 257.394531 98.5625 257.808594 98.152344 C 258.222656 97.738281 258.671875 97.367188 259.160156 97.042969 C 259.644531 96.71875 260.160156 96.441406 260.703125 96.21875 C 261.242188 95.996094 261.800781 95.824219 262.375 95.710938 C 262.949219 95.597656 263.53125 95.539062 264.117188 95.539062 L 266.152344 95.539062 C 266.738281 95.539062 267.316406 95.597656 267.890625 95.710938 C 268.464844 95.824219 269.023438 95.996094 269.566406 96.21875 C 270.105469 96.441406 270.621094 96.71875 271.109375 97.042969 C 271.59375 97.367188 272.046875 97.738281 272.460938 98.152344 C 272.875 98.5625 273.246094 99.015625 273.570312 99.5 C 273.894531 99.988281 274.171875 100.5 274.394531 101.039062 C 274.621094 101.582031 274.789062 102.136719 274.90625 102.710938 C 275.019531 103.285156 275.078125 103.863281 275.078125 104.449219 Z M 371.367188 156.003906 L 331.375 156.003906 C 330.578125 156.003906 329.785156 156.082031 329.003906 156.234375 C 328.222656 156.390625 327.460938 156.617188 326.722656 156.921875 C 325.988281 157.226562 325.285156 157.597656 324.625 158.039062 C 323.960938 158.484375 323.347656 158.984375 322.78125 159.546875 C 322.21875 160.109375 321.714844 160.722656 321.269531 161.382812 C 320.828125 162.042969 320.453125 162.742188 320.148438 163.480469 C 319.839844 164.214844 319.609375 164.972656 319.453125 165.753906 C 319.300781 166.53125 319.222656 167.320312 319.222656 168.117188 C 319.222656 168.914062 319.300781 169.703125 319.453125 170.480469 C 319.609375 171.261719 319.839844 172.019531 320.148438 172.757812 C 320.453125 173.492188 320.828125 174.191406 321.269531 174.851562 C 321.714844 175.511719 322.21875 176.125 322.78125 176.6875 C 323.347656 177.25 323.960938 177.753906 324.625 178.195312 C 325.285156 178.636719 325.988281 179.007812 326.722656 179.3125 C 327.460938 179.617188 328.222656 179.84375 329.003906 180 C 329.785156 180.152344 330.578125 180.230469 331.375 180.230469 L 371.367188 180.230469 C 372.164062 180.230469 372.957031 180.152344 373.738281 180 C 374.519531 179.84375 375.28125 179.617188 376.015625 179.3125 C 376.753906 179.007812 377.453125 178.636719 378.117188 178.195312 C 378.78125 177.753906 379.394531 177.25 379.960938 176.6875 C 380.523438 176.125 381.027344 175.511719 381.472656 174.851562 C 381.914062 174.191406 382.289062 173.492188 382.59375 172.757812 C 382.902344 172.019531 383.132812 171.261719 383.285156 170.480469 C 383.441406 169.703125 383.519531 168.914062 383.519531 168.117188 C 383.519531 167.320312 383.441406 166.53125 383.285156 165.753906 C 383.132812 164.972656 382.902344 164.214844 382.59375 163.480469 C 382.289062 162.742188 381.914062 162.042969 381.472656 161.382812 C 381.027344 160.722656 380.523438 160.109375 379.960938 159.546875 C 379.394531 158.984375 378.78125 158.484375 378.117188 158.039062 C 377.453125 157.597656 376.753906 157.226562 376.015625 156.921875 C 375.28125 156.617188 374.519531 156.390625 373.738281 156.234375 C 372.957031 156.082031 372.164062 156.003906 371.367188 156.003906 Z M 371.367188 172.433594 L 331.375 172.433594 C 331.089844 172.433594 330.808594 172.40625 330.527344 172.351562 C 330.25 172.296875 329.976562 172.214844 329.714844 172.109375 C 329.453125 172 329.203125 171.867188 328.964844 171.710938 C 328.730469 171.554688 328.507812 171.375 328.308594 171.171875 C 328.105469 170.972656 327.925781 170.753906 327.769531 170.519531 C 327.609375 170.28125 327.476562 170.035156 327.367188 169.773438 C 327.257812 169.507812 327.175781 169.238281 327.121094 168.960938 C 327.066406 168.683594 327.039062 168.402344 327.039062 168.117188 C 327.039062 167.832031 327.066406 167.550781 327.121094 167.273438 C 327.175781 166.996094 327.257812 166.726562 327.367188 166.464844 C 327.476562 166.199219 327.609375 165.953125 327.769531 165.714844 C 327.925781 165.480469 328.105469 165.261719 328.308594 165.0625 C 328.507812 164.859375 328.730469 164.683594 328.964844 164.523438 C 329.203125 164.367188 329.453125 164.234375 329.714844 164.125 C 329.976562 164.019531 330.25 163.9375 330.527344 163.882812 C 330.808594 163.828125 331.089844 163.800781 331.375 163.800781 L 371.367188 163.800781 C 371.652344 163.800781 371.933594 163.828125 372.214844 163.882812 C 372.492188 163.9375 372.761719 164.019531 373.027344 164.125 C 373.289062 164.234375 373.539062 164.367188 373.777344 164.523438 C 374.011719 164.683594 374.230469 164.859375 374.433594 165.0625 C 374.636719 165.261719 374.816406 165.480469 374.972656 165.714844 C 375.132812 165.953125 375.265625 166.199219 375.375 166.464844 C 375.484375 166.726562 375.566406 166.996094 375.621094 167.273438 C 375.675781 167.550781 375.703125 167.832031 375.703125 168.117188 C 375.703125 168.402344 375.675781 168.683594 375.621094 168.960938 C 375.566406 169.238281 375.484375 169.507812 375.375 169.773438 C 375.265625 170.035156 375.132812 170.28125 374.972656 170.519531 C 374.816406 170.753906 374.636719 170.972656 374.433594 171.171875 C 374.230469 171.375 374.011719 171.554688 373.777344 171.710938 C 373.539062 171.867188 373.289062 172 373.027344 172.109375 C 372.761719 172.214844 372.492188 172.296875 372.214844 172.351562 C 371.933594 172.40625 371.652344 172.433594 371.367188 172.433594 Z M 317.5625 134.230469 C 319.171875 134.230469 320.71875 133.925781 322.207031 133.3125 C 323.691406 132.699219 325.003906 131.824219 326.140625 130.6875 L 346.378906 110.488281 C 346.945312 109.925781 347.449219 109.3125 347.890625 108.652344 C 348.335938 107.992188 348.707031 107.292969 349.011719 106.558594 C 349.320312 105.824219 349.550781 105.066406 349.703125 104.285156 C 349.859375 103.503906 349.9375 102.71875 349.9375 101.921875 C 349.9375 101.125 349.859375 100.339844 349.707031 99.558594 C 349.550781 98.777344 349.320312 98.019531 349.015625 97.285156 C 348.710938 96.550781 348.335938 95.851562 347.894531 95.191406 C 347.449219 94.53125 346.949219 93.917969 346.382812 93.355469 C 345.820312 92.792969 345.207031 92.289062 344.542969 91.847656 C 343.882812 91.40625 343.179688 91.035156 342.445312 90.730469 C 341.707031 90.425781 340.949219 90.195312 340.167969 90.039062 C 339.386719 89.886719 338.597656 89.808594 337.800781 89.808594 C 337.003906 89.808594 336.214844 89.886719 335.429688 90.042969 C 334.648438 90.199219 333.890625 90.429688 333.15625 90.734375 C 332.417969 91.039062 331.71875 91.410156 331.054688 91.851562 C 330.394531 92.296875 329.78125 92.796875 329.21875 93.359375 L 308.980469 113.558594 C 308.132812 114.40625 307.421875 115.359375 306.855469 116.414062 C 306.292969 117.46875 305.890625 118.585938 305.65625 119.761719 C 305.421875 120.933594 305.363281 122.117188 305.480469 123.308594 C 305.597656 124.503906 305.886719 125.652344 306.347656 126.757812 C 306.804688 127.863281 307.417969 128.878906 308.179688 129.804688 C 308.941406 130.730469 309.820312 131.527344 310.820312 132.191406 C 311.816406 132.855469 312.890625 133.363281 314.039062 133.710938 C 315.1875 134.058594 316.363281 134.230469 317.5625 134.230469 Z M 314.503906 119.070312 L 334.738281 98.871094 C 334.941406 98.671875 335.160156 98.496094 335.394531 98.335938 C 335.632812 98.179688 335.878906 98.046875 336.144531 97.9375 C 336.40625 97.832031 336.675781 97.75 336.953125 97.695312 C 337.230469 97.640625 337.511719 97.613281 337.796875 97.613281 C 338.082031 97.613281 338.363281 97.640625 338.640625 97.695312 C 338.917969 97.75 339.1875 97.832031 339.449219 97.941406 C 339.710938 98.050781 339.960938 98.183594 340.199219 98.339844 C 340.433594 98.496094 340.652344 98.675781 340.851562 98.875 C 341.054688 99.074219 341.230469 99.292969 341.390625 99.527344 C 341.546875 99.765625 341.679688 100.011719 341.789062 100.273438 C 341.898438 100.535156 341.980469 100.804688 342.035156 101.082031 C 342.089844 101.359375 342.121094 101.640625 342.121094 101.925781 C 342.121094 102.207031 342.09375 102.488281 342.039062 102.765625 C 341.984375 103.042969 341.902344 103.3125 341.792969 103.574219 C 341.683594 103.835938 341.550781 104.085938 341.394531 104.320312 C 341.238281 104.558594 341.058594 104.773438 340.859375 104.976562 L 320.617188 125.175781 C 320.417969 125.375 320.199219 125.554688 319.960938 125.710938 C 319.726562 125.871094 319.476562 126.003906 319.214844 126.113281 C 318.953125 126.21875 318.683594 126.300781 318.402344 126.355469 C 318.125 126.414062 317.84375 126.441406 317.558594 126.441406 C 317.277344 126.441406 316.996094 126.414062 316.714844 126.355469 C 316.4375 126.300781 316.167969 126.21875 315.90625 126.109375 C 315.644531 126.003906 315.394531 125.871094 315.15625 125.710938 C 314.921875 125.554688 314.703125 125.375 314.503906 125.175781 C 314.300781 124.976562 314.121094 124.757812 313.964844 124.519531 C 313.808594 124.285156 313.671875 124.035156 313.566406 123.773438 C 313.457031 123.511719 313.375 123.242188 313.320312 122.964844 C 313.261719 122.6875 313.234375 122.40625 313.234375 122.125 C 313.234375 121.839844 313.261719 121.558594 313.320312 121.28125 C 313.375 121.003906 313.457031 120.734375 313.566406 120.472656 C 313.675781 120.210938 313.808594 119.960938 313.964844 119.726562 C 314.121094 119.488281 314.300781 119.273438 314.503906 119.070312 Z M 326.140625 205.546875 C 325.578125 204.984375 324.964844 204.484375 324.300781 204.042969 C 323.640625 203.601562 322.941406 203.226562 322.203125 202.921875 C 321.46875 202.617188 320.710938 202.390625 319.929688 202.234375 C 319.144531 202.078125 318.355469 202 317.558594 202 C 316.761719 202 315.972656 202.078125 315.191406 202.234375 C 314.410156 202.390625 313.652344 202.617188 312.917969 202.921875 C 312.179688 203.226562 311.480469 203.601562 310.820312 204.042969 C 310.15625 204.484375 309.542969 204.984375 308.980469 205.546875 C 308.417969 206.109375 307.914062 206.722656 307.472656 207.382812 C 307.027344 208.042969 306.65625 208.742188 306.351562 209.476562 C 306.042969 210.210938 305.816406 210.96875 305.660156 211.75 C 305.503906 212.527344 305.425781 213.316406 305.425781 214.113281 C 305.425781 214.90625 305.503906 215.695312 305.660156 216.472656 C 305.816406 217.253906 306.042969 218.011719 306.351562 218.746094 C 306.65625 219.480469 307.027344 220.179688 307.472656 220.839844 C 307.914062 221.5 308.417969 222.113281 308.980469 222.675781 L 329.21875 242.875 C 329.78125 243.4375 330.394531 243.941406 331.054688 244.382812 C 331.71875 244.824219 332.417969 245.195312 333.15625 245.5 C 333.890625 245.804688 334.648438 246.035156 335.429688 246.191406 C 336.214844 246.34375 337.003906 246.421875 337.800781 246.421875 C 338.597656 246.421875 339.386719 246.34375 340.167969 246.191406 C 340.949219 246.035156 341.707031 245.804688 342.441406 245.5 C 343.179688 245.195312 343.878906 244.824219 344.542969 244.382812 C 345.203125 243.941406 345.816406 243.4375 346.378906 242.875 C 346.945312 242.3125 347.445312 241.699219 347.890625 241.039062 C 348.332031 240.378906 348.707031 239.679688 349.011719 238.945312 C 349.316406 238.210938 349.546875 237.453125 349.703125 236.671875 C 349.859375 235.894531 349.933594 235.105469 349.933594 234.308594 C 349.933594 233.515625 349.859375 232.726562 349.703125 231.949219 C 349.546875 231.167969 349.316406 230.410156 349.011719 229.675781 C 348.707031 228.941406 348.332031 228.242188 347.890625 227.582031 C 347.445312 226.921875 346.945312 226.308594 346.378906 225.746094 Z M 340.859375 237.363281 C 340.65625 237.5625 340.4375 237.742188 340.203125 237.898438 C 339.964844 238.058594 339.714844 238.191406 339.453125 238.296875 C 339.191406 238.40625 338.921875 238.488281 338.644531 238.542969 C 338.363281 238.597656 338.082031 238.628906 337.800781 238.628906 C 337.515625 238.628906 337.234375 238.597656 336.957031 238.542969 C 336.675781 238.488281 336.40625 238.40625 336.144531 238.296875 C 335.882812 238.191406 335.632812 238.058594 335.394531 237.898438 C 335.160156 237.742188 334.941406 237.5625 334.738281 237.363281 L 314.503906 217.164062 C 314.300781 216.960938 314.125 216.746094 313.964844 216.507812 C 313.808594 216.273438 313.675781 216.023438 313.570312 215.761719 C 313.460938 215.5 313.378906 215.230469 313.324219 214.953125 C 313.269531 214.675781 313.242188 214.394531 313.242188 214.113281 C 313.242188 213.832031 313.269531 213.550781 313.324219 213.273438 C 313.382812 212.996094 313.464844 212.726562 313.570312 212.464844 C 313.679688 212.203125 313.8125 211.953125 313.972656 211.71875 C 314.128906 211.484375 314.308594 211.265625 314.507812 211.066406 C 314.707031 210.867188 314.925781 210.6875 315.164062 210.53125 C 315.398438 210.371094 315.648438 210.238281 315.910156 210.128906 C 316.171875 210.023438 316.441406 209.941406 316.71875 209.886719 C 316.996094 209.828125 317.277344 209.800781 317.5625 209.800781 C 317.84375 209.800781 318.125 209.828125 318.40625 209.882812 C 318.683594 209.9375 318.953125 210.019531 319.214844 210.128906 C 319.476562 210.234375 319.726562 210.367188 319.960938 210.523438 C 320.199219 210.683594 320.417969 210.859375 320.617188 211.058594 L 340.859375 231.257812 C 341.058594 231.457031 341.238281 231.675781 341.394531 231.914062 C 341.550781 232.148438 341.683594 232.398438 341.792969 232.660156 C 341.902344 232.921875 341.984375 233.191406 342.039062 233.46875 C 342.09375 233.746094 342.121094 234.027344 342.121094 234.308594 C 342.121094 234.59375 342.09375 234.875 342.039062 235.152344 C 341.984375 235.429688 341.902344 235.699219 341.792969 235.960938 C 341.683594 236.222656 341.550781 236.472656 341.394531 236.707031 C 341.238281 236.945312 341.058594 237.164062 340.859375 237.363281 Z M 340.859375 237.363281 " fill-opacity="1" fill-rule="nonzero"/>
   </g>
</svg>