
<svg width="60px" height="23px" viewBox="0 0 60 23" version="1.1" xmlns="http://www.w3.org/2000/svg" xmlns:xlink="http://www.w3.org/1999/xlink">
    <g id="Screens" stroke="#F2F2F2" stroke-width="1" fill="none" fill-rule="evenodd" stroke-linecap="round" stroke-linejoin="round">
        <g id="Home_Helen" transform="translate(-157.000000, -258.000000)" stroke="#F2F2F2" stroke-width="1.17">
            <g id="Group-13" transform="translate(158.000000, 259.000000)">
                <path d="M15.3985857,16.10175 C15.3985857,13.5438333 13.2946061,11.4706667 10.6999939,11.4706667 C8.1047898,11.4706667 6.0008102,13.5438333 6.0008102,16.10175 C6.0008102,18.6596667 8.1047898,20.7328333 10.6999939,20.7328333 C13.2946061,20.7328333 15.3985857,18.6596667 15.3985857,16.10175 Z" id="Stroke-1"></path>
                <path d="M52.2242653,16.10175 C52.2242653,13.5438333 50.1202857,11.4706667 47.5256735,11.4706667 C44.9304694,11.4706667 42.8264898,13.5438333 42.8264898,16.10175 C42.8264898,18.6596667 44.9304694,20.7328333 47.5256735,20.7328333 C50.1202857,20.7328333 52.2242653,18.6596667 52.2242653,16.10175 Z" id="Stroke-3"></path>
                <path d="M52.2017163,16.8018667 L55.8935939,16.8018667 C55.8935939,16.8018667 58.8498184,10.8425333 56.8872878,9.82811667 C52.7491653,7.68903333 47.5256143,6.69678333 44.0829,5.86961667 C41.9522878,5.81595 14.0329816,5.86961667 14.0329816,5.86961667 L10.6997571,2.85436667" id="Stroke-5"></path>
                <path d="M15.3679878,16.8018667 L42.7451714,16.8018667" id="Stroke-7"></path>
                <path d="M44.1593061,5.84330833 C44.1593061,5.84330833 38.4551837,2.58480833 35.5048776,1.66955833 C32.5551633,0.753725 29.4740612,5.83333349e-05 25.3974898,5.83333349e-05 C21.3262449,5.83333349e-05 14.7976939,0.807975 11.3005306,2.53114167 C7.80395918,4.25430833 7.47667347,4.95430833 6.49244898,5.007975 C5.50940816,5.062225 0.776489796,5.53764167 0.223714286,6.43655833 C-0.240877551,7.190225 0.162755102,14.4451417 0.162755102,14.4451417 C0.162755102,14.4451417 1.68436735,16.640225 5.83728571,16.8018083 L5.95565306,16.8018083" id="Stroke-9"></path>
                <path d="M26.4752837,0.0270666667 L26.4752837,5.85165" id="Stroke-11"></path>
            </g>
        </g>
    </g>
</svg>