<svg width="19" height="23" viewBox="0 0 19 23" fill="none" xmlns="http://www.w3.org/2000/svg">
<rect x="1" y="8" width="16.7733" height="14" stroke="white" stroke-width="1.2" stroke-linecap="round" stroke-linejoin="round"/>
<path d="M14.9963 7.89722C14.9963 7.89722 14.9963 7.36896 14.9963 6.52794C14.9963 3.47494 12.4846 1 9.38631 1C6.28803 1 3.77637 3.47494 3.77637 6.52794C3.77637 7.41654 3.77637 7.89722 3.77637 7.89722" stroke="white" stroke-width="1.2"/>
<path d="M10.1396 11.9519C9.43366 11.862 8.69267 11.9909 8.02072 12.3693C6.34775 13.3114 5.73714 15.4417 6.65691 17.1274C7.57668 18.8131 9.67854 19.4158 11.3515 18.4737C13.0245 17.5317 13.635 15.4016 12.7152 13.7159" stroke="white" stroke-width="1.2"/>
<path d="M7.99587 9.94597L10.5317 11.8009L8.75241 14.4218" stroke="white" stroke-width="1.2"/>
</svg>
