<?xml version="1.0" encoding="UTF-8"?>
<svg width="67px" height="67px" viewBox="0 0 67 67" version="1.1" xmlns="http://www.w3.org/2000/svg" xmlns:xlink="http://www.w3.org/1999/xlink">
    <!-- Generator: Sketch 55.2 (78181) - https://sketchapp.com -->
    <title>Plus-Button</title>
    <desc>Created with Sketch.</desc>
    <g id="Screens" stroke="none" stroke-width="1" fill="none" fill-rule="evenodd">
        <g id="QR-Code" transform="translate(-215.000000, -614.000000)">
            <g id="Plus-Button" transform="translate(214.923077, 613.576389)">
                <circle id="Oval" fill="currentColor" cx="33.5769227" cy="33.9236107" r="33.5"></circle>
                <path d="M50.5244752,20.689345 C50.9299857,20.689345 51.2587409,21.0180023 51.2587409,21.4236107 C51.2587409,21.8292191 50.9299857,22.1578764 50.5244752,22.1578764 L48.8111885,22.1578764 L48.8111885,23.8711632 C48.8111885,24.2767716 48.4824332,24.6054289 48.0769227,24.6054289 C47.6714123,24.6054289 47.342657,24.2767716 47.342657,23.8711632 L47.342657,22.1578764 L45.6293703,22.1578764 C45.2238598,22.1578764 44.8951046,21.8292191 44.8951046,21.4236107 C44.8951046,21.0180023 45.2238598,20.689345 45.6293703,20.689345 L47.342657,20.689345 L47.342657,18.9760583 C47.342657,18.5704499 47.6714123,18.2417925 48.0769227,18.2417925 C48.4824332,18.2417925 48.8111885,18.5704499 48.8111885,18.9760583 L48.8111885,20.689345 L50.5244752,20.689345 Z M48.0769227,14.4236107 C51.936771,14.4236107 55.0769227,17.5637624 55.0769227,21.4236107 C55.0769227,25.283459 51.936771,28.4236107 48.0769227,28.4236107 C44.2170745,28.4236107 41.0769227,25.283459 41.0769227,21.4236107 C41.0769227,17.5637624 44.2170745,14.4236107 48.0769227,14.4236107 Z M48.0769227,26.9753349 C51.1381917,26.9753349 53.6286469,24.4848797 53.6286469,21.4236107 C53.6286469,18.3623417 51.1381917,15.8718866 48.0769227,15.8718866 C45.0156538,15.8718866 42.5251986,18.3623417 42.5251986,21.4236107 C42.5251986,24.4848797 45.0156538,26.9753349 48.0769227,26.9753349 Z" id="Path-3" fill="var(--helix-link-color)" fill-rule="nonzero"></path>
                <g id="Group-13" transform="translate(19.076923, 22.423611)" stroke="var(--helix-link-color)" stroke-linecap="round" stroke-linejoin="round" stroke-width="1.824">
                    <path d="M21.4862401,8.59788509 C21.4862401,13.3028129 18.2802199,17.1161249 14.3239834,17.1161249 C10.368504,17.1161249 7.16172675,13.3028129 7.16172675,8.59788509 C7.16172675,3.89295731 10.368504,0.0788665741 14.3239834,0.0788665741 C18.2802199,0.0788665741 21.4862401,3.89295731 21.4862401,8.59788509 Z" id="Stroke-1"></path>
                    <path d="M9.23848594,14.6598598 C3.83329488,15.8333663 0.000454217736,18.7799811 0.000454217736,22.2280811 L0.000454217736,28.5955413 L28.9045999,28.5955413 L28.9045999,22.2280811 C28.9045999,18.7324802 24.9657751,15.7539385 19.4440014,14.6131376" id="Stroke-3"></path>
                </g>
            </g>
        </g>
    </g>
</svg>