<?xml version="1.0" encoding="UTF-8"?>
<svg viewBox="0 0 600 600" version="1.1" xmlns="http://www.w3.org/2000/svg" xmlns:xlink="http://www.w3.org/1999/xlink">
    <title>Qr Code</title>
    <rect x="336" y="336" width="80" height="80" rx="8" ry="8" fill="white" stroke="white"/>
    <rect x="272" y="272" width="64" height="64" rx="8" ry="8" fill="white" stroke="white"/>
    <rect x="416" y="416" width="64" height="64" rx="8" ry="8" fill="white" stroke="white"/>
    <rect x="432" y="272" width="48" height="48" rx="8" ry="8" fill="white" stroke="white"/>
    <rect x="272" y="432" width="48" height="48" rx="8" ry="8" fill="white" stroke="white"/>
    <rect x="336" y="96" width="80" height="80" rx="8" ry="8" fill="white" stroke="white"/>
    <rect x="288" y="48" width="176" height="176" rx="16" ry="16" fill="none" stroke="white" stroke-linecap="round" stroke-linejoin="round" stroke-width="16"/>
    <rect x="96" y="96" width="80" height="80" rx="8" ry="8" fill="white" stroke="white"/>
    <rect x="48" y="48" width="176" height="176" rx="16" ry="16" fill="none" stroke="white" stroke-linecap="round" stroke-linejoin="round" stroke-width="16"/>
    <rect x="96" y="336" width="80" height="80" rx="8" ry="8" fill="white" stroke="white"/>
    <rect x="48" y="288" width="176" height="176" rx="16" ry="16" fill="none" stroke="white" stroke-linecap="round" stroke-linejoin="round" stroke-width="16"/>
</svg>