<?xml version="1.0" encoding="UTF-8"?>
<svg width="78px" height="77px" viewBox="0 0 78 77" version="1.1" xmlns="http://www.w3.org/2000/svg" xmlns:xlink="http://www.w3.org/1999/xlink">
    <!-- Generator: Sketch 56.2 (81672) - https://sketch.com -->
    <title>Group</title>
    <desc>Created with Sketch.</desc>
    <g id="Screens" stroke="none" stroke-width="1" fill="none" fill-rule="evenodd">
        <g id="SignUp_Page9" transform="translate(-148.000000, -517.000000)">
            <g id="Group" transform="translate(148.821267, 517.000000)">
                <rect id="Rectangle" stroke="#BF7B54" stroke-width="3" fill="#7385FF" x="1.5" y="1.5" width="74" height="74" rx="8"></rect>
                <rect id="Rectangle" fill="#FFFFFF" x="37" y="15" width="2" height="47"></rect>
                <rect id="Rectangle" fill="#FFFFFF" x="15" y="38" width="46" height="2"></rect>
            </g>
        </g>
    </g>
</svg>