<?xml version="1.0" encoding="UTF-8"?>
<svg width="22px" height="23px" viewBox="0 0 22 23" version="1.1" xmlns="http://www.w3.org/2000/svg" xmlns:xlink="http://www.w3.org/1999/xlink">
    <!-- Generator: Sketch 54.1 (76490) - https://sketchapp.com -->
    <title>Group 12</title>
    <desc>Created with Sketch.</desc>
    <g id="Navigation" stroke="none" stroke-width="1" fill="none" fill-rule="evenodd">
        <g id="Navi_home" transform="translate(-330.000000, -31.000000)" fill-rule="nonzero" stroke="#4A4A4A" stroke-width="1.5">
            <g id="Group" transform="translate(0.000000, 15.000000)">
                <g id="Group-12" transform="translate(330.000000, 17.000000)">
                    <g id="Group-8">
                        <circle id="Oval" cx="3" cy="7.5" r="2.25"></circle>
                        <circle id="Oval-Copy-20" cx="18.5" cy="7.5" r="2.25"></circle>
                        <g id="Group-7" transform="translate(10.500000, 10.500000) rotate(180.000000) translate(-10.500000, -10.500000) translate(7.500000, 0.000000)">
                            <circle id="Oval-Copy-21" cx="3" cy="7" r="2.25"></circle>
                            <path d="M3,0 L3,4.5" id="Path-10-Copy-4" stroke-linecap="round" stroke-linejoin="round"></path>
                            <path d="M3,10 L3,20.5" id="Path-10-Copy-5" stroke-linecap="round" stroke-linejoin="round"></path>
                        </g>
                        <path d="M3,10.5 L3,21" id="Path-10-Copy" stroke-linecap="round" stroke-linejoin="round"></path>
                        <path d="M18.5,10.5 L18.5,21" id="Path-10-Copy-3" stroke-linecap="round" stroke-linejoin="round"></path>
                    </g>
                    <path d="M3,0.5 L3,5" id="Path-10" stroke-linecap="round" stroke-linejoin="round"></path>
                    <path d="M18.5,0.5 L18.5,5" id="Path-10-Copy-2" stroke-linecap="round" stroke-linejoin="round"></path>
                </g>
            </g>
        </g>
    </g>
</svg>