<?xml version="1.0" encoding="UTF-8" standalone="no"?>
<svg
   xmlns:dc="http://purl.org/dc/elements/1.1/"
   xmlns:cc="http://creativecommons.org/ns#"
   xmlns:rdf="http://www.w3.org/1999/02/22-rdf-syntax-ns#"
   xmlns:svg="http://www.w3.org/2000/svg"
   xmlns="http://www.w3.org/2000/svg"
   xmlns:sodipodi="http://sodipodi.sourceforge.net/DTD/sodipodi-0.dtd"
   xmlns:inkscape="http://www.inkscape.org/namespaces/inkscape"
   class="ionicon"
   viewBox="0 0 512 512"
   version="1.1"
   id="svg16"
   sodipodi:docname="shield.svg"
   inkscape:version="1.0.1 (c497b03c, 2020-09-10)">
  <metadata
     id="metadata22">
    <rdf:RDF>
      <cc:Work
         rdf:about="">
        <dc:format>image/svg+xml</dc:format>
        <dc:type
           rdf:resource="http://purl.org/dc/dcmitype/StillImage" />
      </cc:Work>
    </rdf:RDF>
  </metadata>
  <defs
     id="defs20" />
  <sodipodi:namedview
     pagecolor="#ffffff"
     bordercolor="#666666"
     borderopacity="1"
     objecttolerance="10"
     gridtolerance="10"
     guidetolerance="10"
     inkscape:pageopacity="0"
     inkscape:pageshadow="2"
     inkscape:window-width="954"
     inkscape:window-height="787"
     id="namedview18"
     showgrid="false"
     inkscape:zoom="1.2079656"
     inkscape:cx="290.43474"
     inkscape:cy="337.82613"
     inkscape:window-x="449"
     inkscape:window-y="44"
     inkscape:window-maximized="0"
     inkscape:current-layer="svg16" />
  <title
     id="title10">Shield Checkmark</title>
  <path
     fill="none"
     stroke="currentColor"
     stroke-linecap="round"
     stroke-linejoin="round"
     stroke-width="32"
     d="M336 176L225.2 304 176 255.8"
     id="path12" />
  <path
     d="m 456.86293,114.19549 c -89.42,-16.040005 -126.39,-27.920005 -207.1,-64.370005 -80.71,36.45 -117.68,48.33 -207.100005,64.370005 -16.2,256.76 191.680005,345.42 207.100005,351.63 15.42,-6.21 223.3,-94.87 207.1,-351.63 z"
     fill="#008000"
     stroke="currentColor"
     stroke-linecap="round"
     stroke-linejoin="round"
     stroke-width="32"
     id="path14"
     style="fill:#00cc00;fill-opacity:1" />
  <path
     style="fill:#00ff00;stroke-width:0.0792512"
     d="m 257.41817,390.61576 c 0.53395,-0.0137 1.4077,-0.0137 1.94165,0 0.53396,0.0137 0.0971,0.0249 -0.97083,0.0249 -1.06791,0 -1.50478,-0.0112 -0.97082,-0.0249 z"
     id="path62" />
  <path
     style="fill:#00ff00;stroke-width:0.0792512"
     d="m 299.17885,390.45728 c 0.55317,-0.0136 1.48041,-0.0136 2.06053,-9e-5 0.58011,0.0136 0.12752,0.0247 -1.00578,0.0247 -1.13329,4e-5 -1.60793,-0.011 -1.05475,-0.0246 z"
     id="path64" />
  <path
     style="fill:#00ff00;stroke-width:0.029964"
     d="m 301.01073,390.66987 c 0.73749,-0.004 1.94429,-0.004 2.68178,0 0.73749,0.004 0.13409,0.008 -1.34089,0.008 -1.47498,0 -2.07838,-0.004 -1.34089,-0.008 z"
     id="path66" />
  <path
     style="fill:#00ff72;stroke-width:0.809374;fill-opacity:1"
     d="M 251.02625,257.87758 V 68.514739 l 6.47499,2.802111 c 3.56124,1.541161 9.47979,4.109331 13.15233,5.707044 53.15912,23.126546 92.73054,35.567246 149.12718,46.883506 l 21.04372,4.22252 0.25107,16.09369 c 1.04031,66.68604 -17.85052,132.19689 -53.53658,185.65757 -27.0218,40.48091 -64.9489,76.47218 -107.76064,102.26044 -9.19248,5.53723 -27.13542,15.0988 -28.33391,15.0988 -0.22999,0 -0.41816,-85.21328 -0.41816,-189.36284 z"
     id="path211" />
  <path
     style="fill:#ffffff;stroke-width:0.809374"
     d="m 251.53932,298.55887 c -0.28219,-0.28219 -0.51035,-9.28466 -0.50701,-20.0055 l 0.006,-19.49243 52.30758,-41.27808 c 28.76917,-22.70294 52.98696,-41.754 53.81732,-42.33569 1.46133,-1.0237 1.50973,-0.40916 1.50973,19.16966 v 20.22726 L 307.109,255.56812 c -28.36017,22.39822 -52.34981,41.34948 -53.31031,42.11393 -0.9605,0.76444 -1.97724,1.15901 -2.25943,0.87682 z"
     id="path263" />
  <path
     style="fill:#ffffff;stroke-width:0.916168"
     d="m 217.75883,274.84264 -33.08516,-24.25198 0.9645,-18.67601 0.9645,-18.67602 32.4024,23.75331 32.40243,23.7533 v 19.18923 c 0,10.55408 -0.12685,19.18269 -0.28177,19.17469 -0.15495,-0.008 -15.17007,-10.92793 -33.3669,-24.26652 z"
     id="path265" />
</svg>
