<svg
	xmlns="http://www.w3.org/2000/svg"
	xmlns:xlink="http://www.w3.org/1999/xlink" width="30" zoomAndPan="magnify" viewBox="0 0 375 374.999991" height="30" preserveAspectRatio="xMidYMid meet" version="1.0">
	<defs>
		<clipPath id="id1">
			<path d="M 17.109375 15.710938 L 374.859375 15.710938 L 374.859375 359.210938 L 17.109375 359.210938 Z M 17.109375 15.710938 " clip-rule="nonzero"/>
		</clipPath>
	</defs>
	<path fill="white" d="M 268.792969 131.390625 C 267 123.761719 260.753906 117.871094 252.945312 116.585938 C 249.824219 104.246094 245.875 92.769531 241.132812 82.53125 C 234.902344 69.078125 227.632812 58.410156 219.648438 50.785156 C 273.34375 62.867188 315.445312 105.910156 326.164062 160.109375 C 314.015625 148.144531 293.988281 138.179688 268.792969 131.390625 Z M 289.515625 225.304688 C 285.238281 227.085938 280.71875 228.734375 276.007812 230.253906 C 273.390625 222.316406 267.691406 215.78125 260.328125 212.066406 C 260.964844 203.957031 261.292969 195.683594 261.292969 187.296875 C 261.292969 175.5625 260.640625 164.042969 259.40625 152.894531 C 263.582031 150.519531 266.796875 146.664062 268.328125 142.03125 C 275.855469 144.144531 282.964844 146.5625 289.515625 149.292969 C 314.492188 159.710938 328.820312 173.566406 328.820312 187.296875 C 328.820312 201.035156 314.492188 214.886719 289.515625 225.304688 Z M 219.648438 323.808594 C 227.632812 316.1875 234.902344 305.515625 241.132812 292.066406 C 244.125 285.605469 246.796875 278.648438 249.148438 271.300781 C 264.910156 269.835938 277.277344 256.722656 277.566406 240.648438 C 298.644531 234.015625 315.464844 225.027344 326.164062 214.488281 C 315.449219 268.6875 273.34375 311.730469 219.648438 323.808594 Z M 188.929688 327.21875 C 173.339844 327.21875 157.730469 312.820312 146.105469 287.71875 C 141.824219 278.46875 138.21875 268.132812 135.320312 257.015625 C 138.289062 255.300781 140.757812 252.832031 142.476562 249.867188 C 157.054688 251.871094 172.644531 252.964844 188.929688 252.964844 C 198.605469 252.964844 208.035156 252.578125 217.15625 251.851562 C 220.875 261.023438 228.800781 268.035156 238.542969 270.488281 C 236.511719 276.554688 234.25 282.328125 231.753906 287.71875 C 220.128906 312.820312 204.519531 327.21875 188.929688 327.21875 Z M 51.695312 214.488281 C 63.367188 225.984375 82.316406 235.632812 106.132812 242.394531 C 107.273438 252.039062 115.414062 259.527344 125.335938 259.636719 C 128.386719 271.359375 132.191406 282.277344 136.726562 292.066406 C 142.953125 305.515625 150.226562 316.1875 158.210938 323.808594 C 104.519531 311.730469 62.414062 268.6875 51.695312 214.488281 Z M 88.34375 149.292969 C 93.253906 147.246094 98.476562 145.371094 103.949219 143.671875 C 106.101562 150.859375 111.152344 156.792969 117.742188 160.121094 C 116.976562 169 116.566406 178.082031 116.566406 187.296875 C 116.566406 199.082031 117.222656 210.652344 118.46875 221.84375 C 113.679688 223.707031 109.8125 227.390625 107.710938 232.058594 C 100.851562 230.066406 94.367188 227.816406 88.34375 225.304688 C 63.363281 214.886719 49.039062 201.035156 49.039062 187.296875 C 49.039062 173.566406 63.363281 159.710938 88.34375 149.292969 Z M 158.210938 50.785156 C 150.226562 58.410156 142.953125 69.078125 136.726562 82.53125 C 132.984375 90.609375 129.742188 99.460938 127.007812 108.894531 C 114.304688 110.261719 104.230469 120.394531 102.949219 133.128906 C 80.628906 139.832031 62.84375 149.128906 51.699219 160.109375 C 62.414062 105.910156 104.519531 62.867188 158.210938 50.785156 Z M 214.902344 241.621094 C 206.421875 242.269531 197.746094 242.625 188.929688 242.625 C 173.804688 242.625 159.066406 241.640625 145.105469 239.769531 C 144.957031 230.191406 137.929688 222.296875 128.746094 220.785156 C 127.542969 209.957031 126.90625 198.738281 126.90625 187.296875 C 126.90625 179.039062 127.242188 170.902344 127.875 162.9375 C 128.5625 162.988281 129.253906 163.023438 129.953125 163.023438 C 144.941406 163.023438 157.09375 150.871094 157.09375 135.878906 C 157.09375 135.070312 157.054688 134.273438 156.984375 133.484375 C 167.339844 132.496094 178.027344 131.972656 188.929688 131.972656 C 203.160156 131.972656 217.039062 132.855469 230.257812 134.519531 C 230.226562 134.96875 230.191406 135.417969 230.191406 135.875 C 230.191406 146.53125 238.703125 155.179688 249.300781 155.425781 C 250.386719 165.753906 250.953125 176.425781 250.953125 187.296875 C 250.953125 194.628906 250.683594 201.863281 250.179688 208.964844 C 248.882812 208.804688 247.5625 208.710938 246.222656 208.710938 C 228.902344 208.710938 214.863281 222.753906 214.863281 240.074219 C 214.863281 240.59375 214.875 241.109375 214.902344 241.621094 Z M 188.929688 47.378906 C 204.519531 47.378906 220.128906 61.777344 231.753906 86.878906 C 236.050781 96.160156 239.660156 106.53125 242.566406 117.691406 C 239.035156 119.085938 236.019531 121.476562 233.84375 124.523438 C 219.707031 122.652344 204.644531 121.628906 188.929688 121.628906 C 176.875 121.628906 165.195312 122.226562 154.027344 123.347656 C 150.632812 116.835938 144.679688 111.878906 137.496094 109.800781 C 139.964844 101.621094 142.839844 93.9375 146.105469 86.878906 C 157.730469 61.777344 173.339844 47.378906 188.929688 47.378906 Z M 188.929688 37.039062 C 106.09375 37.039062 38.699219 104.445312 38.699219 187.296875 C 38.699219 270.152344 106.09375 337.558594 188.929688 337.558594 C 271.765625 337.558594 339.160156 270.152344 339.160156 187.296875 C 339.160156 104.445312 271.765625 37.039062 188.929688 37.039062 " fill-opacity="1" fill-rule="nonzero"/>
	<g clip-path="url(#id1)">
		<path fill="white" d="M 359.640625 184.722656 C 358.234375 183.328125 355.964844 183.328125 354.554688 184.722656 L 340.769531 198.328125 C 339.347656 199.730469 339.328125 202.023438 340.730469 203.445312 C 342.136719 204.871094 344.425781 204.882812 345.851562 203.480469 L 353.261719 196.164062 C 348.621094 282.546875 276.054688 351.910156 188.929688 351.910156 C 98.179688 351.910156 24.347656 278.066406 24.347656 187.296875 C 24.347656 101.359375 91.40625 29.238281 177.007812 23.113281 C 179 22.96875 180.5 21.238281 180.359375 19.242188 C 180.21875 17.246094 178.488281 15.757812 176.492188 15.890625 C 133.257812 18.984375 93.09375 38.1875 63.394531 69.960938 C 33.546875 101.894531 17.109375 143.5625 17.109375 187.296875 C 17.109375 282.058594 94.1875 359.148438 188.929688 359.148438 C 234.230469 359.148438 276.976562 341.671875 309.296875 309.933594 C 340.363281 279.425781 358.4375 239.054688 360.535156 195.777344 L 368.347656 203.480469 C 369.050781 204.175781 369.96875 204.523438 370.886719 204.523438 C 371.820312 204.523438 372.753906 204.164062 373.464844 203.445312 C 374.867188 202.023438 374.851562 199.730469 373.425781 198.328125 L 359.640625 184.722656 " fill-opacity="1" fill-rule="nonzero"/>
	</g>
</svg>