<svg xmlns="http://www.w3.org/2000/svg" width="128" height="128" viewBox="0 0 128 128">
  <title>WALLET</title>
  <g>
    <path d="M90.7,5.553H37.3A31.786,31.786,0,0,0,5.553,37.3V90.7a31.786,31.786,0,0,0,31.75,31.75H90.7a31.786,31.786,0,0,0,31.75-31.75V37.3A31.786,31.786,0,0,0,90.7,5.553ZM118.947,90.7a28.282,28.282,0,0,1-28.25,28.25H37.3A28.282,28.282,0,0,1,9.053,90.7V37.3A28.282,28.282,0,0,1,37.3,9.053H90.7a28.282,28.282,0,0,1,28.25,28.25Z"/>
    <path d="M93.09,33.75H34.91a8.76,8.76,0,0,0-8.75,8.75v43a8.76,8.76,0,0,0,8.75,8.75H93.09a8.76,8.76,0,0,0,8.75-8.75v-43A8.76,8.76,0,0,0,93.09,33.75Zm-58.18,3.5H93.09a5.256,5.256,0,0,1,5.25,5.25v3.017a8.693,8.693,0,0,0-5.25-1.767H34.91a8.693,8.693,0,0,0-5.25,1.767V42.5A5.256,5.256,0,0,1,34.91,37.25ZM98.34,55.517a8.693,8.693,0,0,0-5.25-1.767H34.91a8.693,8.693,0,0,0-5.25,1.767V52.5a5.256,5.256,0,0,1,5.25-5.25H93.09a5.256,5.256,0,0,1,5.25,5.25Zm0,8.231H84.03A12.358,12.358,0,0,0,73.063,70.29a10.254,10.254,0,0,1-18.127,0,12.358,12.358,0,0,0-10.966-6.54H29.66V62.5a5.256,5.256,0,0,1,5.25-5.25H93.09a5.256,5.256,0,0,1,5.25,5.25Zm0,21.754a5.255,5.255,0,0,1-5.25,5.25H34.91a5.255,5.255,0,0,1-5.25-5.25V67.248H43.97a8.865,8.865,0,0,1,7.873,4.678,13.753,13.753,0,0,0,24.313,0,8.866,8.866,0,0,1,7.874-4.68H98.34Z"/>
  </g>
</svg>
