<?xml version="1.0" standalone="no"?>
<!DOCTYPE svg PUBLIC "-//W3C//DTD SVG 20010904//EN"
 "http://www.w3.org/TR/2001/REC-SVG-20010904/DTD/svg10.dtd">
<svg version="1.0" xmlns="http://www.w3.org/2000/svg"
 width="3160.000000pt" height="3160.000000pt" viewBox="0 0 3160.000000 3160.000000"
 preserveAspectRatio="xMidYMid meet">

<g transform="translate(0.000000,3160.000000) scale(0.100000,-0.100000)"
fill="#000000" stroke="none">
<path d="M8990 31594 c-214 -39 -405 -93 -885 -251 -375 -123 -2036 -701
-2047 -712 -3 -3 30 -73 73 -156 365 -686 462 -884 542 -1105 95 -262 136
-475 144 -750 15 -513 -92 -1011 -462 -2140 -153 -465 -240 -760 -314 -1055
-178 -710 -251 -1292 -238 -1895 13 -573 97 -1089 282 -1720 523 -1791 1584
-3195 3201 -4237 1265 -816 2510 -1268 4209 -1528 94 -14 197 -30 229 -35 33
-5 76 -21 97 -35 149 -98 201 -474 230 -1645 13 -560 13 -3488 -1 -6210 -6
-1136 -17 -3363 -25 -4950 -8 -1587 -15 -2945 -15 -3018 l0 -132 1703 2 1702
3 3 3145 c3 3264 -11 7999 -28 9285 -20 1549 -49 2544 -80 2795 -49 381 -52
574 -11 668 29 64 72 104 145 131 83 31 166 41 420 51 252 10 353 24 646 92
972 224 2722 854 3400 1223 498 270 961 595 1430 1003 164 143 549 524 691
683 474 532 819 1045 1060 1575 401 884 604 1566 689 2314 17 151 20 241 20
666 0 523 -5 619 -56 979 -71 507 -169 932 -398 1732 -265 923 -376 1390 -442
1860 -31 216 -44 628 -25 789 36 310 134 603 298 889 25 44 100 163 167 265
200 308 228 378 187 464 -27 55 -92 102 -216 155 -165 71 -398 137 -1195 341
-261 67 -615 162 -786 211 -780 223 -924 240 -1065 128 -47 -37 -195 -231
-267 -350 -68 -113 -181 -349 -227 -473 -105 -286 -176 -609 -222 -1016 -22
-196 -25 -923 -5 -1150 30 -336 73 -660 128 -965 78 -432 219 -1007 334 -1360
577 -1773 557 -3217 -59 -4410 -229 -442 -563 -876 -897 -1165 -589 -508
-1509 -984 -2429 -1255 -607 -179 -1632 -266 -2960 -252 -1172 13 -1986 89
-2600 243 -818 205 -1506 498 -2049 871 -934 642 -1518 1530 -1745 2655 -34
165 -83 506 -102 703 -16 166 -16 614 0 770 60 590 201 1171 521 2150 516
1578 616 3038 276 4031 -57 165 -114 300 -236 551 -158 326 -250 448 -387 514
-65 32 -74 33 -198 35 -71 1 -141 0 -155 -2z"/>
<path d="M14236 27918 c-28 -46 -3626 -6778 -3626 -6786 0 -11 1495 -753 1856
-921 591 -275 871 -399 953 -421 43 -11 44 -11 83 27 198 190 900 1577 1435
2833 308 723 404 998 539 1535 124 497 114 462 124 445 4 -8 128 -343 275
-744 344 -939 499 -1328 792 -1991 296 -667 702 -1484 941 -1890 92 -155 184
-282 216 -296 20 -10 61 8 322 140 790 397 2414 1260 2467 1311 10 9 -19 67
-360 725 -870 1674 -1287 2460 -2351 4425 l-880 1625 -1386 3 -1385 2 -15 -22z"/>
<path d="M6050 13965 l0 -1505 3090 0 3090 0 -2 1503 -3 1502 -3087 3 -3088 2
0 -1505z"/>
<path d="M19200 13965 l0 -1505 3090 0 3090 0 -2 1503 -3 1502 -3087 3 -3088
2 0 -1505z"/>
<path d="M6050 9015 l0 -1505 3090 0 3090 0 -2 1503 -3 1502 -3087 3 -3088 2
0 -1505z"/>
<path d="M19200 9015 l0 -1505 3090 0 3090 0 -2 1503 -3 1502 -3087 3 -3088 2
0 -1505z"/>
<path d="M6050 4065 l0 -1505 3090 0 3090 0 -2 1503 -3 1502 -3087 3 -3088 2
0 -1505z"/>
<path d="M19200 4065 l0 -1505 3090 0 3090 0 -2 1503 -3 1502 -3087 3 -3088 2
0 -1505z"/>
</g>
</svg>
