<?xml version="1.0" encoding="UTF-8"?>
<svg width="36px" height="36px" viewBox="0 0 36 36" version="1.1" xmlns="http://www.w3.org/2000/svg" xmlns:xlink="http://www.w3.org/1999/xlink">
    <!-- Generator: Sketch 55.2 (78181) - https://sketchapp.com -->
    <title>bi</title>
    <desc>Created with Sketch.</desc>
    <g id="Screens" stroke="none" stroke-width="1" fill="none" fill-rule="evenodd">
        <g id="Marketplace" transform="translate(-33.000000, -484.000000)">
            <g id="bi" transform="translate(33.000000, 484.000000)">
                <circle id="Oval" fill="#BF7B54" cx="18" cy="18" r="18"></circle>
                <ellipse id="Oval" stroke="#FFFFFF" stroke-width="0.9" fill-rule="nonzero" cx="24.6875" cy="20.8" rx="3.8625" ry="3.75"></ellipse>
                <ellipse id="Oval-Copy-18" stroke="#FFFFFF" stroke-width="0.9" fill-rule="nonzero" cx="10.3125" cy="20.8" rx="3.8625" ry="3.75"></ellipse>
                <path d="M24.4056705,20.1 L20.7031754,13.1913731 L13.6811675,13.1913731 L10.3125,20.1 L17.6200699,20.1 L21.7075788,11 L25.2805911,11 C25.8435304,11.1536288 26.125,11.5477199 26.125,12.1822735 C26.125,13.1913731 25.2805911,13.3843578 25.2805911,13.3843578 C25.2805911,13.3843578 24.5853754,13.3843578 23.1949441,13.3843578" id="Path-11" stroke="#FFFFFF" stroke-width="0.9" stroke-linecap="round" stroke-linejoin="round" fill-rule="nonzero"></path>
                <path d="M17.5,20.1 L12.46875,11" id="Path-12" stroke="#FFFFFF" stroke-width="0.9" stroke-linecap="round" stroke-linejoin="round" fill-rule="nonzero"></path>
                <path d="M10.3125,11.05 L13.90625,11.05" id="Path-13" stroke="#FFFFFF" stroke-width="0.9" stroke-linecap="round" stroke-linejoin="round" fill-rule="nonzero"></path>
            </g>
        </g>
    </g>
</svg>