<svg width="111px" height="110px" viewBox="0 0 111 110" version="1.1" xmlns="http://www.w3.org/2000/svg" xmlns:xlink="http://www.w3.org/1999/xlink">
    <title>Screens_Update_Apr20</title>
    <defs>
        <pattern id="pattern-1" patternUnits="objectBoundingBox" y="-0.475534085%" height="100.475534%" width="100%">
            <use xlink:href="#image-2" transform="scale(0.366210938,0.366210938)"></use>
        </pattern>
    </defs>
    <g id="Screens_Update_Apr20" stroke="none" stroke-width="1" fill="none" fill-rule="evenodd">
        <g id="ShareMeDetail-1" transform="translate(-132.000000, -118.000000)">
            <rect id="Rectangle" fill="url(#pattern-1)" x="0" y="0" width="375" height="226"></rect>
            <rect id="Rectangle" fill="#FFFFFF" fill-rule="nonzero" x="19" y="173" width="340" height="166" rx="12"></rect>
            <circle id="Oval" stroke="#F1F1F1" stroke-width="4" fill="#FFFFFF" cx="187.5" cy="173" r="53"></circle>
            <g id="remote-vehicle" transform="translate(156.000000, 136.000000)" stroke="#263238" stroke-linecap="round" stroke-linejoin="round">
                <g id="Group" transform="translate(0.000000, 23.000000)">
                    <path d="M15,36.5 L15,38 C15,39.4 13.9,40.5 12.5,40.5 L7.5,40.5 C6.1,40.5 5,39.4 5,38 L5,34.5" id="Path"></path>
                    <path d="M59,34.5 L59,38 C59,39.4 57.9,40.5 56.5,40.5 L51.5,40.5 C50.1,40.5 49,39.4 49,38 L49,36.5" id="Path"></path>
                    <path d="M55.2,33.5 L8.8,33.5 C5.7,33.5 3.4,30.8 3.9,27.7 L5.4,18.2 C5.8,15.8 7.9,14 10.3,14 L53.7,14 C56.2,14 58.3,15.8 58.6,18.2 L60.1,27.7 C60.6,30.8 58.2,33.5 55.2,33.5 Z" id="Path"></path>
                    <path d="M54,14 L10,14 L14,5 C15.2,2.3 17.9,0.5 20.9,0.5 L43.2,0.5 C46.2,0.5 48.8,2.2 50.1,5 L54,14 Z" id="Path"></path>
                    <path d="M43.1,3.5 C44.9,3.5 46.5,4.5 47.2,6.2 L49.3,11" id="Path"></path>
                    <path d="M4.5,15 L1.5,15 C0.9,15 0.5,14.6 0.5,14 L0.5,11.5 C0.5,10.9 0.9,10.5 1.5,10.5 L5,10.5 C6.2,10.5 7.2,11.3 7.4,12.5" id="Path"></path>
                    <path d="M56.6,12.5 C56.9,11.4 57.9,10.5 59,10.5 L62.5,10.5 C63.1,10.5 63.5,10.9 63.5,11.5 L63.5,14 C63.5,14.6 63.1,15 62.5,15 L59.5,15" id="Path"></path>
                    <path d="M39,21.5 L25,21.5 C24.3,21.5 23.8,22.2 24.1,22.9 L24.7,24.4 C24.9,24.8 25.2,25 25.6,25 L38.3,25 C38.7,25 39.1,24.8 39.2,24.4 L39.8,22.9 C40.2,22.2 39.7,21.5 39,21.5 Z" id="Path"></path>
                    <path d="M54.5,17.9 L50,18.9 C48.1,19.3 46.4,20.2 45.1,21.6 L42.2,24.5 L55.2,22.8 C55.7,22.7 56.1,22.2 56.1,21.7 L55.8,18.8 C55.6,18.2 55.1,17.8 54.5,17.9 Z" id="Path"></path>
                    <path d="M9.5,17.9 L14,18.9 C15.9,19.3 17.6,20.2 18.9,21.6 L21.8,24.5 L8.8,22.8 C8.3,22.7 8,22.2 8,21.7 L8.3,18.8 C8.4,18.2 8.9,17.8 9.5,17.9 Z" id="Path"></path>
                    <path d="M16.4,30.5 L11.4,30.5 C10.8,30.5 10.4,30.1 10.4,29.5 L10.4,28.5 C10.4,27.9 10.8,27.5 11.4,27.5 L16.4,27.5 C17,27.5 17.4,27.9 17.4,28.5 L17.4,29.5 C17.4,30.1 17,30.5 16.4,30.5 Z" id="Path"></path>
                    <path d="M52.6,30.5 L47.6,30.5 C47,30.5 46.6,30.1 46.6,29.5 L46.6,28.5 C46.6,27.9 47,27.5 47.6,27.5 L52.6,27.5 C53.2,27.5 53.6,27.9 53.6,28.5 L53.6,29.5 C53.6,30.1 53.1,30.5 52.6,30.5 Z" id="Path"></path>
                </g>
                <g id="Group" transform="translate(24.000000, 0.000000)">
                    <path d="M14.5,16.5 L14.5,3 C14.5,1.6 13.4,0.5 12,0.5 L3,0.5 C1.6,0.5 0.5,1.6 0.5,3 L0.5,16.5 C0.5,17.9 1.6,19 3,19 L12,19 C13.4,19 14.5,17.9 14.5,16.5 Z" id="Path"></path>
                    <path d="M10,7 L5,7 C4.4,7 4,6.6 4,6 L4,0.5 L11,0.5 L11,6 C11,6.6 10.6,7 10,7 Z" id="Path"></path>
                    <line x1="4" y1="11" x2="6.5" y2="11" id="Path"></line>
                    <line x1="8.5" y1="11" x2="11" y2="11" id="Path"></line>
                    <line x1="4" y1="14.5" x2="6.5" y2="14.5" id="Path"></line>
                    <line x1="8.5" y1="14.5" x2="11" y2="14.5" id="Path"></line>
                </g>
                <path d="M46.3,5.7 C49,8.4 49,12.9 46.3,15.6" id="Path"></path>
                <path d="M43.5,8.5 C44.7,9.7 44.7,11.6 43.5,12.7" id="Path"></path>
                <path d="M16.7,5.7 C14,8.4 14,12.9 16.7,15.6" id="Path"></path>
                <path d="M19.5,8.5 C18.3,9.7 18.3,11.6 19.5,12.7" id="Path"></path>
                <g id="Group" transform="translate(23.000000, 61.000000)">
                    <g transform="translate(5.000000, 0.000000)" id="Path">
                        <line x1="12" y1="0.5" x2="13" y2="0.5"></line>
                        <line x1="0" y1="0.5" x2="10" y2="0.5"></line>
                    </g>
                    <g transform="translate(0.000000, 2.000000)" id="Path">
                        <line x1="1" y1="0.5" x2="0" y2="0.5"></line>
                        <line x1="13" y1="0.5" x2="3" y2="0.5"></line>
                    </g>
                </g>
            </g>
        </g>
    </g>
</svg>
