<svg width="31" height="31" viewBox="0 0 31 31" fill="none" xmlns="http://www.w3.org/2000/svg">
<path d="M15.5 31C24.0604 31 31 24.0604 31 15.5C31 6.93959 24.0604 0 15.5 0C6.93959 0 0 6.93959 0 15.5C0 24.0604 6.93959 31 15.5 31Z" fill="#BF7B54"/>
<path fill-rule="evenodd" clip-rule="evenodd" d="M11.398 17.5981C11.398 16.8675 10.7971 16.2754 10.056 16.2754C9.31479 16.2754 8.71387 16.8675 8.71387 17.5981C8.71387 18.3287 9.31479 18.9208 10.056 18.9208C10.7971 18.9208 11.398 18.3287 11.398 17.5981Z" stroke="white" stroke-width="0.5" stroke-linecap="round" stroke-linejoin="round"/>
<path fill-rule="evenodd" clip-rule="evenodd" d="M21.916 17.5981C21.916 16.8675 21.315 16.2754 20.574 16.2754C19.8327 16.2754 19.2318 16.8675 19.2318 17.5981C19.2318 18.3287 19.8327 18.9208 20.574 18.9208C21.315 18.9208 21.916 18.3287 21.916 17.5981Z" stroke="white" stroke-width="0.5" stroke-linecap="round" stroke-linejoin="round"/>
<path d="M21.9095 17.7981H22.9639C22.9639 17.7981 23.8083 16.096 23.2477 15.8063C22.0658 15.1953 20.5739 14.9119 19.5906 14.6757C18.9821 14.6603 11.0079 14.6757 11.0079 14.6757L10.0559 13.8145" stroke="white" stroke-width="0.5" stroke-linecap="round" stroke-linejoin="round"/>
<path d="M11.3893 17.7981H19.2086" stroke="white" stroke-width="0.5" stroke-linecap="round" stroke-linejoin="round"/>
<path d="M19.6125 14.6689C19.6125 14.6689 17.9833 13.7382 17.1407 13.4768C16.2982 13.2153 15.4182 13 14.2539 13C13.091 13 11.2264 13.2308 10.2276 13.7229C9.22888 14.2151 9.13541 14.415 8.8543 14.4303C8.57353 14.4458 7.22173 14.5816 7.06385 14.8384C6.93116 15.0536 7.04644 17.1257 7.04644 17.1257C7.04644 17.1257 7.48104 17.7527 8.66717 17.7988H8.70098" stroke="white" stroke-width="0.5" stroke-linecap="round" stroke-linejoin="round"/>
<path d="M14.5617 13.0078V14.6714" stroke="white" stroke-width="0.5" stroke-linecap="round" stroke-linejoin="round"/>
</svg>
