<?xml version="1.0" encoding="utf-8"?>
<!-- Generator: Adobe Illustrator 25.4.1, SVG Export Plug-In . SVG Version: 6.00 Build 0)  -->
<svg version="1.1" id="Ebene_1" xmlns="http://www.w3.org/2000/svg" xmlns:xlink="http://www.w3.org/1999/xlink" x="0px" y="0px"
	 viewBox="0 0 130 130" style="enable-background:new 0 0 130 130;" xml:space="preserve">
<style type="text/css">
	.st0{fill:#733122;}
	.st1{fill:none;stroke:#FFFFFF;stroke-width:2;}
	.st2{fill:#FFFFFF;}
</style>
<circle class="st0" cx="64.8" cy="65" r="65"/>
<g>
	<path class="st1" d="M88.3,77.6h22.2"/>
	<path class="st2" d="M17.6,72.6V50.8h2.5v9.5c1-1.7,2.7-2.5,4.6-2.5c3.2,0,5.5,2.3,5.5,5.9v8.9h-2.5V64c0-2.4-1.4-3.9-3.4-3.9
		c-2.3,0-4.2,1.9-4.2,5.3v7.2H17.6z M33.6,65.3c0-4.2,3.1-7.5,7.5-7.5c3.8,0,6.9,2.6,6.9,7.3c0,0.3,0,0.4,0,0.8H36.1
		c0.1,2.7,2.1,4.8,5,4.8c2.2,0,3.6-1,4.5-2.5l2,1.4c-1.3,2.1-3.5,3.5-6.5,3.5C36.6,72.9,33.6,69.6,33.6,65.3z M41,60
		c-2.2,0-4.3,1.4-4.8,3.8h9.2C45.1,61.4,43.2,60,41,60z M51.5,72.6V50.8H54v21.7H51.5z M61.8,52.4c0,1-0.8,1.8-1.7,1.8
		s-1.8-0.8-1.8-1.8c0-1,0.8-1.8,1.8-1.8S61.8,51.5,61.8,52.4z M58.8,72.6V58.1h2.5v14.5H58.8z M63.8,72.6l5.9-7.3l-5.5-7.2h3l4,5.2
		l4-5.2h3l-5.5,7.2l5.9,7.3h-3.1l-4.4-5.5l-4.4,5.5C66.9,72.6,63.8,72.6,63.8,72.6z M91.4,52.4c0,1-0.8,1.8-1.7,1.8
		s-1.8-0.8-1.8-1.8c0-1,0.8-1.8,1.8-1.8S91.4,51.5,91.4,52.4z M88.4,72.6V58.1h2.5v14.5H88.4z M94.5,65.3c0-4.1,3-7.5,7.1-7.5
		c2.2,0,4.1,1.1,5.1,2.5v-9.5h2.5v21.7h-2.5v-2.2c-1,1.4-2.9,2.5-5.1,2.5C97.6,72.9,94.5,69.5,94.5,65.3z M106.9,65.3
		c0-2.9-2-5.2-4.9-5.2s-5,2.3-5,5.2c0,2.9,2,5.2,5,5.2S106.9,68.3,106.9,65.3z"/>
</g>
</svg>
