<?xml version="1.0" encoding="UTF-8"?>
<svg width="512px" height="512px" viewBox="0 0 512 512" version="1.1" xmlns="http://www.w3.org/2000/svg" xmlns:xlink="http://www.w3.org/1999/xlink">
    <title>Group</title>
    <defs>
        <rect id="path-1" x="0" y="0" width="512" height="512"></rect>
        <path d="M146.141456,-5.90428975e-15 L365.858544,5.90428975e-15 C416.675112,-3.43056238e-15 435.102427,5.29105984 453.680205,15.2265641 C472.257983,25.1620684 486.837932,39.7420171 496.773436,58.3197949 C506.70894,76.8975727 512,95.3248882 512,146.141456 L512,365.858544 C512,416.675112 506.70894,435.102427 496.773436,453.680205 C486.837932,472.257983 472.257983,486.837932 453.680205,496.773436 C435.102427,506.70894 416.675112,512 365.858544,512 L146.141456,512 C95.3248882,512 76.8975727,506.70894 58.3197949,496.773436 C39.7420171,486.837932 25.1620684,472.257983 15.2265641,453.680205 C5.29105984,435.102427 2.28704159e-15,416.675112 -3.93619317e-15,365.858544 L3.93619317e-15,146.141456 C-2.28704159e-15,95.3248882 5.29105984,76.8975727 15.2265641,58.3197949 C25.1620684,39.7420171 39.7420171,25.1620684 58.3197949,15.2265641 C76.8975727,5.29105984 95.3248882,3.43056238e-15 146.141456,-5.90428975e-15 Z" id="path-3"></path>
    </defs>
    <g id="ICD-icon-preview" stroke="none" stroke-width="1" fill="none" fill-rule="evenodd">
        <g id="Group">
            <g id="icon">
                <mask id="mask-2" fill="white">
                    <use xlink:href="#path-1"></use>
                </mask>
                <g id="Mask"></g>
                <g id="Rectangle" mask="url(#mask-2)">
                    <mask id="mask-4" fill="white">
                        <use xlink:href="#path-3"></use>
                    </mask>
                    <use id="Mask" fill="#252525" xlink:href="#path-3"></use>
                </g>
            </g>
            <path d="M224.6,408 C256.066667,408 281.933333,397.266667 302.2,375.8 C322.466667,354.333333 332.6,329.6 332.6,301.6 L332.6,146.8 C332.6,136.4 331.133333,128.133333 328.2,122 C326.066667,118 322.533333,115.133333 317.6,113.4 C312.666667,111.666667 305,110.8 294.6,110.8 C284.2,110.8 275.933333,113.333333 269.8,118.4 C264.466667,122.933333 261.8,133.2 261.8,149.2 L261.8,298.8 C261.8,310.266667 258.466667,319.466667 251.8,326.4 C245.133333,333.333333 236.666667,336.8 226.4,336.8 C216.133333,336.8 206.6,332.4 197.8,323.6 C189,314.8 181,310.4 173.8,310.4 C166.6,310.4 158.333333,315.2 149,324.8 C139.666667,334.4 135,342.733333 135,349.8 C135,356.866667 139.666667,365.333333 149,375.2 L152.2,378.4 C157,383.733333 165.533333,389.733333 177.8,396.4 C191.4,404.133333 207,408 224.6,408 Z" id="J" stroke="#02FFA4" stroke-width="6" fill="#54BF7B" fill-rule="nonzero"></path>
        </g>
    </g>
</svg>