<svg width="616" height="616" viewBox="0 0 616 616" fill="none" xmlns="http://www.w3.org/2000/svg">
<path fill-rule="evenodd" clip-rule="evenodd" d="M308 616C478.104 616 616 478.104 616 308C616 137.896 478.104 0 308 0C137.896 0 0 137.896 0 308C0 478.104 137.896 616 308 616Z" fill="#733122"/>
</svg>
