[
    {
       "inputs":[
          {
             "internalType":"uint256",
             "name":"_totalSupply",
             "type":"uint256"
          },
          {
             "internalType":"string",
             "name":"_name",
             "type":"string"
          },
          {
             "internalType":"uint8",
             "name":"_decimals",
             "type":"uint8"
          },
          {
             "internalType":"string",
             "name":"_symbol",
             "type":"string"
          }
       ],
       "stateMutability":"nonpayable",
       "type":"constructor"
    },
    {
       "anonymous":false,
       "inputs":[
          {
             "indexed":true,
             "internalType":"address",
             "name":"_owner",
             "type":"address"
          },
          {
             "indexed":true,
             "internalType":"address",
             "name":"_spender",
             "type":"address"
          },
          {
             "indexed":false,
             "internalType":"uint256",
             "name":"_value",
             "type":"uint256"
          }
       ],
       "name":"Approval",
       "type":"event"
    },
    {
       "anonymous":false,
       "inputs":[
          {
             "indexed":true,
             "internalType":"uint256",
             "name":"_txId",
             "type":"uint256"
          },
          {
             "indexed":false,
             "internalType":"uint256",
             "name":"_bulkCount",
             "type":"uint256"
          }
       ],
       "name":"BulkApproval",
       "type":"event"
    },
    {
       "anonymous":false,
       "inputs":[
          {
             "indexed":true,
             "internalType":"uint256",
             "name":"_txId",
             "type":"uint256"
          },
          {
             "indexed":false,
             "internalType":"uint256",
             "name":"_bulkCount",
             "type":"uint256"
          }
       ],
       "name":"BulkTransfer",
       "type":"event"
    },
    {
       "anonymous":false,
       "inputs":[
          {
             "indexed":true,
             "internalType":"address",
             "name":"previousOwner",
             "type":"address"
          },
          {
             "indexed":true,
             "internalType":"address",
             "name":"newOwner",
             "type":"address"
          }
       ],
       "name":"OwnershipTransferred",
       "type":"event"
    },
    {
       "anonymous":false,
       "inputs":[
          {
             "indexed":true,
             "internalType":"address",
             "name":"_from",
             "type":"address"
          },
          {
             "indexed":true,
             "internalType":"address",
             "name":"_to",
             "type":"address"
          },
          {
             "indexed":false,
             "internalType":"uint256",
             "name":"_value",
             "type":"uint256"
          }
       ],
       "name":"Transfer",
       "type":"event"
    },
    {
       "inputs":[
          {
             "internalType":"address",
             "name":"_owner",
             "type":"address"
          },
          {
             "internalType":"address",
             "name":"_spender",
             "type":"address"
          }
       ],
       "name":"allowance",
       "outputs":[
          {
             "internalType":"uint256",
             "name":"remaining",
             "type":"uint256"
          }
       ],
       "stateMutability":"view",
       "type":"function"
    },
    {
       "inputs":[
          {
             "internalType":"address",
             "name":"_spender",
             "type":"address"
          },
          {
             "internalType":"uint256",
             "name":"_value",
             "type":"uint256"
          }
       ],
       "name":"approve",
       "outputs":[
          {
             "internalType":"bool",
             "name":"success",
             "type":"bool"
          }
       ],
       "stateMutability":"nonpayable",
       "type":"function"
    },
    {
       "inputs":[
          {
             "internalType":"address",
             "name":"_owner",
             "type":"address"
          }
       ],
       "name":"balanceOf",
       "outputs":[
          {
             "internalType":"uint256",
             "name":"balance",
             "type":"uint256"
          }
       ],
       "stateMutability":"view",
       "type":"function"
    },
    {
       "inputs":[
          
       ],
       "name":"decimals",
       "outputs":[
          {
             "internalType":"uint8",
             "name":"",
             "type":"uint8"
          }
       ],
       "stateMutability":"view",
       "type":"function"
    },
    {
       "inputs":[
          {
             "internalType":"address",
             "name":"_spender",
             "type":"address"
          },
          {
             "internalType":"uint256",
             "name":"_delta",
             "type":"uint256"
          }
       ],
       "name":"decreaseApproval",
       "outputs":[
          {
             "internalType":"bool",
             "name":"success",
             "type":"bool"
          }
       ],
       "stateMutability":"nonpayable",
       "type":"function"
    },
    {
       "inputs":[
          {
             "internalType":"address",
             "name":"_spender",
             "type":"address"
          },
          {
             "internalType":"uint256",
             "name":"_delta",
             "type":"uint256"
          }
       ],
       "name":"increaseApproval",
       "outputs":[
          {
             "internalType":"bool",
             "name":"success",
             "type":"bool"
          }
       ],
       "stateMutability":"nonpayable",
       "type":"function"
    },
    {
       "inputs":[
          {
             "internalType":"address[]",
             "name":"_spenders",
             "type":"address[]"
          },
          {
             "internalType":"uint256[]",
             "name":"_values",
             "type":"uint256[]"
          },
          {
             "internalType":"uint256",
             "name":"_txId",
             "type":"uint256"
          }
       ],
       "name":"increaseApprovalBulk",
       "outputs":[
          {
             "internalType":"uint256",
             "name":"_bulkCount",
             "type":"uint256"
          }
       ],
       "stateMutability":"nonpayable",
       "type":"function"
    },
    {
       "inputs":[
          
       ],
       "name":"name",
       "outputs":[
          {
             "internalType":"string",
             "name":"",
             "type":"string"
          }
       ],
       "stateMutability":"view",
       "type":"function"
    },
    {
       "inputs":[
          
       ],
       "name":"owner",
       "outputs":[
          {
             "internalType":"address",
             "name":"",
             "type":"address"
          }
       ],
       "stateMutability":"view",
       "type":"function"
    },
    {
       "inputs":[
          
       ],
       "name":"renounceOwnership",
       "outputs":[
          
       ],
       "stateMutability":"nonpayable",
       "type":"function"
    },
    {
       "inputs":[
          
       ],
       "name":"symbol",
       "outputs":[
          {
             "internalType":"string",
             "name":"",
             "type":"string"
          }
       ],
       "stateMutability":"view",
       "type":"function"
    },
    {
       "inputs":[
          
       ],
       "name":"totalSupply",
       "outputs":[
          {
             "internalType":"uint256",
             "name":"",
             "type":"uint256"
          }
       ],
       "stateMutability":"view",
       "type":"function"
    },
    {
       "inputs":[
          {
             "internalType":"address",
             "name":"_to",
             "type":"address"
          },
          {
             "internalType":"uint256",
             "name":"_value",
             "type":"uint256"
          }
       ],
       "name":"transfer",
       "outputs":[
          {
             "internalType":"bool",
             "name":"success",
             "type":"bool"
          }
       ],
       "stateMutability":"nonpayable",
       "type":"function"
    },
    {
       "inputs":[
          {
             "internalType":"address[]",
             "name":"_tos",
             "type":"address[]"
          },
          {
             "internalType":"uint256[]",
             "name":"_values",
             "type":"uint256[]"
          },
          {
             "internalType":"uint256",
             "name":"_txId",
             "type":"uint256"
          }
       ],
       "name":"transferBulk",
       "outputs":[
          {
             "internalType":"uint256",
             "name":"_bulkCount",
             "type":"uint256"
          }
       ],
       "stateMutability":"nonpayable",
       "type":"function"
    },
    {
       "inputs":[
          {
             "internalType":"address",
             "name":"_spender",
             "type":"address"
          },
          {
             "internalType":"address",
             "name":"_to",
             "type":"address"
          },
          {
             "internalType":"uint256",
             "name":"_value",
             "type":"uint256"
          }
       ],
       "name":"transferFrom",
       "outputs":[
          {
             "internalType":"bool",
             "name":"success",
             "type":"bool"
          }
       ],
       "stateMutability":"nonpayable",
       "type":"function"
    },
    {
       "inputs":[
          {
             "internalType":"address",
             "name":"newOwner",
             "type":"address"
          }
       ],
       "name":"transferOwnership",
       "outputs":[
          
       ],
       "stateMutability":"nonpayable",
       "type":"function"
    }
 ]