<svg width="29px" height="27px" viewBox="0 0 29 27" version="1.1" xmlns="http://www.w3.org/2000/svg" xmlns:xlink="http://www.w3.org/1999/xlink" >
          <g id="Screens" stroke="none" stroke-width="1" fill="none" fill-rule="evenodd" stroke-linejoin="round">
              <g id="Request" transform="translate(-34.000000, -405.000000)" stroke="#000000" stroke-width="1.2">
                  <g id="Group-6" transform="translate(35.000000, 406.000000)">
                      <g id="Group-5" stroke-linecap="round">
                          <path stroke="white" d="M19.6495615,7.68728649 C19.6495615,11.9330162 16.7169462,15.3741514 13.0996385,15.3741514 C9.48163846,15.3741514 6.54971538,11.9330162 6.54971538,7.68728649 C6.54971538,3.44155676 9.48163846,0.000421621622 13.0996385,0.000421621622 C16.7169462,0.000421621622 19.6495615,3.44155676 19.6495615,7.68728649 Z" id="Stroke-1"></path>
                          <path stroke="white" d="M8.44892308,13.1579676 C3.50515385,14.2169405 0,16.8752649 0,19.9875351 L0,25.7335351 L26.4336923,25.7335351 L26.4336923,19.9875351 C26.4336923,16.8324 22.8316154,14.1445622 17.7812308,13.1151027" id="Stroke-3"></path>
                      </g>
                      <rect id="Rectangle" stroke="white" fill-rule="nonzero" x="17" y="19" width="6" height="2"></rect>
                  </g>
              </g>
          </g>
        </svg>