<?xml version="1.0" encoding="utf-8"?>
<!-- Generator: Adobe Illustrator 26.3.1, SVG Export Plug-In . SVG Version: 6.00 Build 0)  -->
<svg version="1.1" id="Ebene_1" xmlns="http://www.w3.org/2000/svg" xmlns:xlink="http://www.w3.org/1999/xlink" x="0px" y="0px"
	 width="82.8px" height="33.9px" viewBox="0 0 82.8 33.9" style="enable-background:new 0 0 82.8 33.9;" xml:space="preserve">
<style type="text/css">
	.st0{fill:#FFFFFF;}
</style>
<path class="st0" d="M4.8,3.9h1.9v7.6c0.8-1.3,2.1-2.1,3.6-2.1c2.6,0,4.3,1.8,4.3,4.8v7.2h-1.9v-6.9c0-2-1.1-3.1-2.7-3.1
	c-1.9,0-3.4,1.5-3.4,4.3v5.8H4.8V3.9z"/>
<path class="st0" d="M23.4,9.5c3,0,5.5,2.2,5.5,5.8c0,0.2,0,0.4,0,0.6h-9.4c0.1,2.2,1.7,3.8,4,3.8c1.8,0,2.9-0.8,3.6-2.1l1.6,1.1
	c-1.1,1.7-2.8,2.8-5.2,2.8c-3.5,0-6-2.6-6-6.1C17.5,12.1,20,9.5,23.4,9.5z M19.7,14.3H27c-0.3-1.9-1.8-3-3.5-3
	C21.7,11.3,20,12.3,19.7,14.3z"/>
<path class="st0" d="M31.7,3.9h1.9v17.5h-1.9V3.9z"/>
<path class="st0" d="M38.4,6.6C37.6,6.6,37,6,37,5.2c0-0.8,0.6-1.4,1.4-1.4c0.8,0,1.4,0.6,1.4,1.4C39.8,6,39.2,6.6,38.4,6.6z
	 M37.5,9.7h1.9v11.7h-1.9V9.7z"/>
<path class="st0" d="M46.2,15.5l-4.3-5.7h2.4l3.2,4.2l3.2-4.2H53l-4.3,5.7l4.7,5.9h-2.5L47.3,17l-3.5,4.4h-2.5L46.2,15.5z"/>
<path class="st0" d="M62,6.6c-0.8,0-1.4-0.6-1.4-1.4c0-0.8,0.6-1.4,1.4-1.4c0.8,0,1.4,0.6,1.4,1.4C63.4,6,62.8,6.6,62,6.6z
	 M60.9,9.7h1.9v11.7h-1.9V9.7z"/>
<path class="st0" d="M71.4,9.5c1.8,0,3.3,0.9,4.1,2.1V3.9h1.9v17.5h-1.9v-1.8c-0.8,1.2-2.3,2.1-4.1,2.1c-3.2,0-5.6-2.7-5.6-6.1
	C65.8,12.2,68.2,9.5,71.4,9.5z M71.7,11.3c-2.3,0-4,1.9-4,4.2c0,2.3,1.6,4.2,4,4.2c2.4,0,3.9-1.9,3.9-4.2
	C75.6,13.2,74.1,11.3,71.7,11.3z"/>
<path class="st0" d="M60.8,24.6h16.8v1.6H60.8V24.6z"/>
</svg>
